-4999.907174953641,-4998.7731360683,10004.199532764593
-1666.9588392033895,-3888.680790734638,5558.660806148071
1666.7739748620636,-2777.9377959031244,1114.1518786182564
-5000.524791645457,-1665.999136224558,6670.116181812773
-1667.0079708820037,-554.6258579036909,2225.3965608652256
1665.5549642326187,554.2936464765818,-2219.0732274013662
-5001.208457040704,1667.6779018875193,3337.2769367924984
-1668.9472617378738,2778.370405084344,-1109.150508755084
1667.1123895463352,3888.45108642231,-5551.672114973583
0.0,0.0,3.0
