-164.04828510872719,-149.83033500656475,317.5309368284825
-155.65568636574324,-150.78856391325206,308.60369772811055
-143.77871341070926,-149.98902923745246,296.8769733932819
-132.33999870656783,-147.1012029016127,286.87344279286384
-123.30563271641242,-148.82794351613035,277.2557153794415
-111.14362401831798,-148.37059569646027,264.88339041436024
-102.03233942185153,-148.81482971883756,254.48077716113926
-92.85656889525535,-148.98214033603884,242.66212270547538
-81.84286291146849,-147.86997629188733,232.02065938900185
-71.90966991480663,-149.03776260870757,221.7072839730967
-61.250489834900776,-147.65211181061647,209.74908273288673
-49.919950633254196,-144.78450011813567,200.79446085485569
-42.89925761639887,-146.90732241118087,190.32491933505972
-30.48202999164788,-146.35896989348598,180.9545382790832
-20.132152811424394,-145.36117010716433,168.98428789447044
-11.660881833605846,-146.4706296921922,158.83144975181202
-0.48243631031848194,-146.17497954511376,151.3705852121946
10.811256627370385,-144.2407317044706,139.32911511629297
19.123961157315783,-143.28628019243126,125.70828595655385
31.237389284447158,-144.35257406723528,116.52612880869856
42.930982334862954,-144.1079897554562,106.26924194931627
52.04161431942436,-146.00692015535537,94.95602787108128
62.512360116391896,-143.20326764644608,84.28760625276843
72.58442878471013,-143.61013970061708,74.77200065437907
81.50185026213111,-143.8786129960673,62.812919475875205
94.74228376519575,-142.99083479019046,50.332407535160684
103.32060341473031,-142.13911481484405,40.61755542167566
114.38897490635843,-142.58674876164113,32.4157174551463
123.30607297278105,-141.1127870461727,22.08425946659913
133.76840692226602,-142.6553656092384,11.121268253473891
145.6291623954119,-141.02213616951227,0.6187740803115714
154.80874422894604,-140.7955826197203,-11.748969234537796
-163.9210815552441,-140.50985212520524,307.8182421102823
-155.16644014102206,-141.14981285784708,300.2521795154329
-144.33614124678098,-140.86241097197066,286.1834877958498
-132.78154070814125,-140.03469920588742,276.6340699200308
-122.63846264310074,-138.3246696624233,265.89212834124805
-114.71643315379868,-139.6536226163087,253.63760877267694
-102.23185252688778,-139.8970993942544,245.34471821543218
-94.26413421336183,-138.71424433060594,233.95988693520584
-82.91423883144306,-137.79031148687426,222.85971600159112
-73.34814461394389,-138.45547506443378,212.32333840775678
-61.31947367431762,-138.89999369301205,202.00214400101618
-50.70290330237106,-135.05440265360517,191.38008478185992
-40.397089764191286,-138.27295666165887,180.58321131658664
-31.7568537791918,-136.9202001387363,170.10791670592448
-19.971308696634953,-136.91930713743798,160.61445218785914
-10.466144806935608,-136.15029633539964,151.68078497513332
-0.9734625625504445,-134.77847747159922,139.82417000292324
8.61204098615294,-135.69596548548438,128.73113018599508
21.51893549621557,-136.87050813820719,116.74726330761636
31.95159263822796,-135.76259058884153,108.76659120369561
40.329706464918125,-135.95551426514217,96.74093444602467
50.79537181349007,-135.17720377038438,86.23154014589433
61.405731249898096,-132.9524549061416,75.8642923767574
72.92804435751862,-133.0717059521424,64.67502915566898
81.75468877335479,-134.7407892104922,56.138868193966005
92.78603181140707,-132.76112364413925,43.233712888961705
105.27524339658054,-132.31512561174958,33.943706517096636
113.40943562269356,-131.84235614495017,21.230660221838857
125.78572325906002,-131.04862406583973,10.551682413990065
135.25957767960372,-132.4431285046699,3.0334021770886297
144.36559260056913,-133.03261425222033,-9.661728152947422
154.80873299560608,-130.96585098646923,-21.557170897763147
-164.87765991618645,-129.8346021106727,300.7033656970806
-155.649496216111,-132.26423520710395,288.2974318253126
-142.96202888080848,-132.82406769306613,277.59114656063224
-132.8894576606172,-130.32974590211222,267.2742429130519
-123.93009541616371,-130.02278456441346,257.68793648948304
-113.33720633184979,-129.32877020677955,246.46538158146802
-101.91099889914916,-128.7721837109252,237.11244017165959
-93.21088759781084,-129.32975078967712,224.76805537782772
-81.17212194422545,-128.9984658294258,213.412744197144
-72.2073506086144,-127.6552311526396,203.8337257185253
-64.23630946695386,-126.45159392632625,193.92241055804786
-51.44211521919927,-127.55806097978012,179.96802859346263
-41.56544996610071,-126.64531266258318,171.64610789209064
-30.36538747526847,-127.32576017042886,159.89023563911422
-20.790021363081614,-127.10850196013361,149.38613144580384
-9.924621412641223,-126.18242575627825,138.32030857865632
1.2612229251466847,-126.59379946754453,128.65333924858984
12.824310256268642,-126.25712925418516,119.65559696667786
20.908415614128945,-125.84277996190163,107.44320547513986
33.02415885897638,-123.57706708936307,95.60435806320932
39.3612221023362,-125.10255782490631,85.8850438851396
53.27802978511366,-124.62234389440803,76.18496783887996
60.60175276652103,-123.42912727329816,64.56833848970001
72.59137752969416,-124.25815064844281,55.29293486434399
80.6037424567684,-124.44638365513907,44.15041589081103
93.628333154264,-124.0633979194246,32.778682950375774
103.36906132024811,-122.25940543392491,22.623326569351438
115.30196798321509,-122.94762382267277,12.457569337238967
123.13549282509541,-122.52021701866626,3.2377209084385115
133.3812472482735,-122.30743599509297,-9.479126025600273
145.8804998142742,-122.73505981648002,-19.625733251793935
152.89094459683878,-122.27229653920276,-29.11048440780885
-165.89164303124141,-122.3863977588284,289.7092226310636
-156.43788183065993,-121.0306323293861,278.41774789881185
-144.00599933246718,-123.05269551461163,267.42600370036917
-133.8905386068059,-119.83879998193353,259.37833805755236
-123.76597579906685,-120.05720482259396,248.247587861749
-112.80073280621144,-121.07150393293404,237.6025700124617
-103.70661992380334,-118.68361635152678,225.78655779666246
-92.25862287584744,-120.67064627545679,216.0707716174132
-82.60673773150364,-119.49991335316305,204.9776952358527
-72.81983771792214,-117.88579736762246,194.99636394566824
-61.96272660414145,-119.2708222570648,183.97335125542747
-50.98587768063499,-117.39798706432383,173.74276635673255
-40.937762852556716,-119.73022947687342,161.80329927405435
-30.504841250252245,-117.49921248484273,150.3120416755835
-21.262387447677167,-117.64416774218273,141.56914604736826
-9.948439158022863,-116.29555694617366,132.4032346143823
-1.2789582301353286,-116.95882913690326,120.87292759969547
8.243610136650647,-117.63661833679024,110.58579139499959
20.654319753969123,-116.97406353373995,97.63812718242913
30.494654332628897,-116.82817781724587,88.37701703217812
38.15383146338432,-117.09561792105549,77.56606942695224
51.968461669821444,-115.87322159828847,65.45163234810065
60.405942710972,-117.16743303757154,56.3275985150836
71.07199729201996,-115.20790641065767,45.48544958387744
81.90752444052377,-113.19603994652522,36.338275824263974
92.95098025387908,-113.2283212563051,25.692457438965608
101.41296935071462,-115.08241446640447,16.44194501172134
112.68808179065016,-113.20612003233865,4.560604882514178
124.91078528548866,-114.82409964349245,-8.094287470130885
133.5624248796897,-113.72146739731538,-17.388389856758394
143.59686506155654,-113.40865440530582,-27.735012637539192
155.07375302258743,-111.39788828376477,-40.26532537436891
-165.56140040807534,-113.05637594834684,280.45154589367934
-155.88395788931462,-112.11424055151984,270.7148786313489
-143.5041201745113,-111.87866131001776,259.52951974334
-133.1335998699077,-110.49272065433452,248.9214493679311
-124.21029697344743,-109.49355100485263,237.45635638843095
-113.82538493711058,-110.29806613812666,226.27158045709797
-104.1754242418012,-110.0954512187885,217.10047482389336
-92.23636536728976,-109.95844814612528,206.0145843079728
-83.49528063286056,-109.0801260315149,195.22065606129303
-71.37623457210628,-108.77177784542798,184.82702077387074
-61.91078495791686,-109.37338723419491,174.30230616743984
-51.36471287856492,-109.85407466877157,161.49904195543724
-39.56562725997745,-109.34929409797081,151.54405935558532
-32.155454741237996,-108.26605538266772,142.10950964483587
-21.854299479796396,-109.12138489517734,131.49549480785583
-8.205149666969557,-107.73013562269657,120.70806416016336
-0.5452759963180511,-107.48031685036561,110.70449348864835
10.782817711059245,-107.28487990707113,100.68643629343366
21.70108690464586,-106.99951683264784,89.9883787254117
31.676708057136466,-107.71417053203504,77.41663475276715
42.230361517051975,-107.13984836552615,68.22411929746627
51.61823590783079,-103.0942531157771,57.56697211702017
60.40706292088072,-107.70887479248708,46.61754805694402
72.3427801124826,-104.64559941302052,35.59020792789518
83.01058827422497,-105.25228317562308,26.160544087653598
93.03084712964261,-105.43021327257726,14.933948418234937
103.00255031692949,-106.75890057976,3.9859417102480403
113.42959022079557,-104.66444483737237,-5.819256289946216
125.06957858987532,-106.13593868148399,-17.350174885272104
132.99394970767682,-103.57213877680962,-26.424660469384246
144.28192781829293,-104.06418564411953,-36.77657680988736
154.12838772972907,-105.14475206679423,-48.65925245896129
-164.7425402598193,-102.74249407147926,272.36018383063015
-153.9105628656989,-102.04580491781805,261.0305334724367
-145.40061308753099,-101.15671325137292,249.17576301461713
-133.76149496969407,-102.21803957820576,241.05306229782659
-125.31990572160304,-102.44340549806235,227.98379099350834
-112.9366808178645,-101.51226218202204,218.6033137377177
-102.61640023142878,-101.51623043185695,208.18382771408534
-91.83993315250221,-100.75643649755737,197.30405453920537
-83.4952201786847,-99.90238184978146,185.7957272096254
-72.93349266238657,-102.67602822107575,175.97193566636003
-62.17423930580683,-99.86658365828055,165.4220695926543
-50.678669212043914,-100.79653998104283,154.02078720081636
-40.628176545029326,-98.36645855440577,144.03180255040704
-30.941973878607044,-101.20967016581258,132.72596791084774
-20.620591574187905,-99.10520059150927,122.02489433331755
-11.965743367250047,-98.78533015460232,112.84352301767436
-1.5882763905849921,-98.10273410353189,98.8722328359546
11.127402012595851,-97.12493548781134,91.51882276139982
21.33356277295257,-97.64311621929137,81.1753338556581
31.766582072026335,-99.14967592071793,68.7968148224988
39.782223034296045,-97.71452149379056,59.33438290979458
51.524917227605115,-97.11404643085442,49.77837011970616
61.55935170548607,-94.8739435459154,38.1907877539914
71.44954007255079,-96.33578894791873,27.19053950790538
82.82417060467984,-96.77132520152823,18.37898939265318
93.08826618369605,-97.44896615294951,6.872138294051377
102.68396029220507,-95.28446039499467,-4.9360624785316
113.84264973154585,-95.12308916845474,-13.145499721338087
124.25784953313092,-94.60744482295894,-24.92935755748028
132.85027899853245,-93.65472264332033,-37.74932926652545
145.43938925213874,-94.58820197264895,-47.64272346624622
153.04499501447097,-93.57331765325492,-57.484013103352034
-165.2815917371066,-94.15849372861325,261.5107248279265
-155.60798488610394,-93.69640860487738,251.76394214401307
-144.62886214024957,-93.88439723150063,240.37815322233297
-134.5824511189317,-92.13851944623745,228.31215683338763
-123.77986823839022,-91.86100675348726,219.25054360216868
-113.16351429750297,-91.05677377277752,209.02527498565144
-104.44997207904458,-93.32039377388638,197.51821026854523
-92.88700169915124,-91.08654032799754,187.17758296212858
-81.40665085346394,-91.61045131487019,176.6056771470735
-72.31010340642443,-92.26567510561253,166.0164137183349
-61.13073677976785,-89.28703574420591,155.62538955613047
-53.39581931237984,-90.6498888864105,145.23050234260123
-38.66799356801839,-89.99384754728385,133.85058577670108
-30.40268704250738,-89.20821677341624,123.708781097088
-18.869811364296986,-91.24927294586641,113.25112568292076
-9.91675872012388,-87.5274619887858,101.9984851520499
-0.5153533482239335,-88.73160372132291,92.12465474959824
11.253135682475595,-87.28765429184313,83.11694567968279
21.54776011151727,-90.11155088044714,72.02422637821776
31.37326338823612,-87.54770287568329,60.64009384331643
39.49714777169917,-86.41789741940407,49.62831714044191
51.763366971985945,-86.6721452097618,36.9611288577532
62.09496340013242,-87.7106865659364,25.561353654210702
73.78948908722445,-87.44326548956988,18.81943307525726
83.4074714686547,-83.93497446490298,5.961515948812355
93.31766514692916,-86.441502925695,-2.0874327963190895
102.92968533577702,-86.7247321477816,-14.76810641822735
113.34033240878118,-85.98566434188325,-23.472398568722287
124.2562827108178,-87.03574225295546,-34.67444116887853
133.3327848145218,-87.01443794867775,-43.805124585873166
141.63749983025488,-86.77415726520881,-56.04263523776186
153.99618722309387,-82.8384595858118,-64.32207851787922
-163.7595475392368,-84.46474250840544,252.88795243555668
-154.64798079345195,-82.76400998447546,240.913913461764
-143.62229055492617,-85.00735100723016,230.40857865337207
-133.46589025016698,-83.94757022286316,221.29310444409657
-123.59040502469767,-82.61079583886232,211.84367445691154
-113.27011584775776,-82.53701300774438,198.9198758353185
-101.43843524907437,-83.56890854137424,188.86453211495402
-91.370002959824,-83.3477817965445,178.0652509390456
-83.4180457890722,-82.2560379047257,167.23648028234967
-72.35730022920845,-82.0690933923858,156.83484935525073
-62.005071057448276,-82.5695218850738,147.12748643684307
-51.22530956736545,-80.45640373070977,138.0105878852265
-41.50394685497545,-80.21836236660263,123.92317887648426
-30.605362942454054,-81.20291261604248,114.90198036805901
-20.212860789361393,-80.19342699247667,103.9468260890713
-11.732597254622357,-80.43129421400384,94.19151437179586
0.20013859063339293,-80.79825865139311,82.27318736696013
11.019852453986607,-79.00313137882141,70.94411894903229
22.253275925983782,-79.28755814333229,62.379360451224294
29.585248323940533,-80.80352809501726,51.24989141271308
41.86896459864656,-77.98454068411192,39.821309758710846
54.13247785324412,-77.04647526264847,30.30636708696816
62.662136387061956,-77.16338077285542,19.170394156690705
71.74920687108788,-77.52230080491753,6.807679324180224
82.14877307563307,-78.05129684768829,0.6219362325396673
90.80503606160804,-76.67626659520394,-13.106853409695102
103.1183104766152,-76.50531410799435,-23.26729296005782
113.96102325793709,-78.08208509982325,-33.3442109071898
126.93572680781521,-77.51780198489747,-43.291957798699734
134.58969549745112,-74.95883062571451,-54.98833246148369
144.5735842175729,-74.64474887250267,-67.33183425221475
153.62382875913661,-75.2545218081448,-76.73675800893658
-164.33051515590577,-76.2105352700522,241.41038830540762
-153.36190718379703,-75.4922802256402,232.66093681163346
-144.21959725586373,-73.41856814868954,221.78057461924544
-134.20467370276558,-72.87086085543365,212.67622511158729
-123.61235067753398,-72.39275488259906,199.2967130395975
-113.48359224288602,-72.12106368010606,189.5858391203822
-103.43887196504895,-72.36566825357205,178.4157850658226
-93.02707634172891,-72.5723133121186,169.06469085349306
-80.93606212534158,-72.68226612742647,158.34224744313576
-72.35948570968264,-71.92296019212587,147.87281486742026
-61.75017497571878,-72.1779541654268,137.64170152920903
-53.33079036166514,-72.6013687212947,126.7109889019566
-40.3434003327101,-73.01862147907377,114.99951667058816
-30.705604137737527,-70.85427035532487,104.99834396886423
-19.514886194044802,-69.9622271797529,93.95110419138571
-12.340107151497401,-68.01158266155733,83.65201311938544
-0.043444234895856026,-70.36286872696397,75.04760156603999
11.40178557521201,-68.4014996596911,62.190961261989656
19.696875098440007,-70.7554322889983,51.812290810020336
30.110159534509606,-68.025803645664,40.92895236711525
42.371841479084864,-71.03532978165802,31.538302405006363
51.85751735889614,-67.7748856380108,22.308934038792607
61.920715470709105,-68.17248716886591,7.347987373516957
71.95774031942548,-69.08546743633589,-1.729661244886027
82.49961380569093,-68.08349166688171,-12.78515030335353
92.47315477758715,-67.57120279953938,-22.70203214459417
103.67944855887046,-68.44854634221518,-33.78175559675198
113.29780306430136,-69.04275439583708,-42.98896643070073
125.1056078910563,-66.56013862560614,-53.881590224654005
134.9171116575601,-65.71598096098697,-63.79322823114524
144.38422245236487,-66.57289322342658,-75.0092672568472
154.1997519371857,-65.99961727933254,-85.5162495606334
-165.16404293112177,-64.63677963114202,233.5883683877661
-155.9606287535523,-66.52229087501884,223.05582322363844
-144.9917661385707,-64.14786907241067,212.79254407693824
-132.38010397755647,-65.54125985913065,200.09488152466207
-122.92128486670944,-65.71298100975125,192.02790846352835
-115.80302537546666,-64.24753992115943,181.67759813295498
-104.7178594904505,-65.2106257510192,169.48185119938861
-91.8984521654412,-65.4268089117613,160.86791348006477
-81.3957685870503,-65.52670243482052,149.3553849069072
-70.89266151463502,-62.746699981152275,138.7854847875285
-61.26697681763194,-61.23371036194048,127.8482134758743
-54.074201247480424,-64.26110290569613,118.23565373875203
-42.5002076940774,-63.249684313007975,107.28159387679975
-30.68583119981401,-62.74195928354391,97.08618475159012
-20.520400750145228,-62.1681790593492,84.39133926588916
-8.50597715849142,-61.85105556713357,74.69397712579875
1.1061297262645224,-61.31560892751433,64.73105834186617
8.713954824912316,-59.109523643625664,52.87618753042939
21.130265432777385,-60.82846067232074,43.04719322713225
30.730330130959004,-58.87847178083042,33.81005450483203
40.33619961875011,-60.51666160105467,22.17659335740889
51.83577560175581,-57.72098457813526,11.794512825080709
62.14417833940161,-60.28010225966134,-0.9570915530848778
71.48116228996422,-59.82460555044402,-11.246333046611044
81.94431839600936,-56.57229423786484,-19.692207814460314
92.58682228822815,-56.86141053046959,-30.132803340050945
102.48680563953616,-59.001972395300555,-42.58295420620546
114.97538102784914,-56.13229455640092,-53.69875830740252
123.22216221764955,-58.040540908908966,-64.22047293373
135.2183036869745,-57.0090478792562,-74.14321602688736
144.45582680177853,-58.754062480078154,-86.28608292002016
155.90124814114046,-57.03619549764386,-95.69376726396835
-163.7940813767855,-55.23769901043983,223.5328390232754
-153.74463390432348,-55.81784197455309,212.53072799366203
-145.05435372566535,-56.07201185549855,201.6317308984476
-135.77055468003638,-55.56043176537169,193.45812802361633
-123.37185436554098,-56.35115799973678,181.91586683492565
-113.16954841376334,-56.184492530306194,171.15467526198753
-104.46447574139978,-53.83835185232677,160.0022994648239
-91.13797405070656,-54.68323581383306,151.57445830781836
-81.97093283224065,-54.17239520365049,139.32943119140765
-73.31964660043991,-51.738189144599104,129.28891463235996
-62.94960167929013,-53.15945658330037,119.4629975646679
-53.60290770868202,-52.79728825310596,108.46543155192147
-40.028654367261424,-51.80924670602843,96.02969750136653
-30.471820507843077,-52.21400239459143,87.04298434999511
-20.982831301299292,-53.04431934399876,76.25414466670506
-11.957455242713426,-52.148588861350596,66.73035861915156
-0.04482791648837309,-52.43010258125854,55.434330264901554
10.531770162642715,-53.39126075197448,45.08289075160503
20.92347753914528,-52.34254922584758,33.04032348114239
30.980391248442324,-52.39599614269168,21.57631006679024
41.39961114926713,-49.97901739890808,10.649455598446632
52.015512918491424,-50.12440451268335,0.7113073107662388
62.65209335551023,-50.456977002944704,-9.666241505785813
71.16604659385456,-49.83829305972846,-19.864588860197788
82.9837185423344,-49.69209346992448,-29.430502930303412
92.40826004330923,-48.29288287810913,-41.324975889985645
103.96081659637808,-50.13605011005598,-50.49225876319235
111.46526858309548,-50.44372420746726,-62.446616971464245
125.01369077568671,-50.007581540351936,-73.06156098261488
133.39429253083304,-47.39663078780179,-82.89870470648617
144.75114411217476,-47.73618424732994,-93.12016381492262
151.4699328381199,-46.673874171941215,-105.49881610125455
-163.85475636853863,-47.02714532368355,215.50854982211374
-155.21778644132146,-45.848732434005385,204.59398099423532
-144.39935836814885,-47.14967613898068,193.39352020464793
-132.80352758310875,-45.583407888429406,183.4670709126121
-124.37889151861465,-46.12069777228609,171.72788866953402
-113.8592353976333,-45.08579579083526,160.37809692852727
-104.47926990386168,-44.978334202444366,151.13292823751047
-91.07613896297835,-43.65200329436709,139.81496449867947
-83.4296293667457,-45.31543428718383,128.40157434247226
-73.3283527871397,-43.37374745767926,118.13659055237589
-62.6533430638333,-44.660377154559995,109.66393437654708
-52.234832446092895,-43.91272819946974,97.66953910483585
-41.93384247750663,-44.586509401028756,86.99653929152952
-32.577060330460604,-44.31940893931464,76.49428924886767
-20.940964483195724,-41.38287808566477,65.76605571442916
-8.729214297116068,-41.5834538009749,56.49569320756313
0.6654441433001421,-41.42959721967176,45.38308562286791
10.430104324069024,-40.05238370339053,34.74412456235949
21.254514171318384,-42.40755943567473,24.882888766355922
30.8117015123447,-41.99198254561561,13.650273067974778
43.8106972651975,-39.785572479958105,4.379049217381349
52.43193011827182,-41.301632449318525,-5.848521700811633
60.86103224389687,-41.65315595881288,-19.009625276053615
71.56984476159997,-39.08750781308843,-28.150826680180224
80.89580772341404,-38.97279140355665,-38.51199562859821
92.08765871347524,-41.289629947595294,-52.45502468317948
103.85499183641393,-40.02532459642922,-60.32917118575479
114.27998108364157,-38.498606474171055,-69.98538156618541
124.89276440270307,-38.586306970653176,-81.2337446347807
134.28252579331502,-38.62797102405918,-90.5571810348676
145.40376136889134,-40.484898368765855,-102.93956585916152
154.8063767561583,-37.39212722825355,-114.7419758862802
-165.84154220295625,-37.49238483934318,204.9659264522372
-154.46448172708727,-37.10184553071055,194.0744074940726
-143.7789315910895,-37.078365850905755,184.69078794980308
-134.49699996846397,-36.90938000117124,173.08645440538533
-123.15742203186792,-36.99634014116204,162.1086052134616
-113.73801166390578,-37.81244919559862,150.23247525464117
-103.12288110366819,-36.70606982606093,142.50348135693224
-93.52774416348164,-35.376036061995315,132.06396559891883
-81.44504703496573,-36.28736827486008,121.6094201601069
-72.5411709268889,-36.56337633190436,108.79582064015113
-62.96406070407521,-34.21358802861483,99.4296800509057
-50.27189897589686,-34.91559171488348,89.41368736827064
-40.581848741969296,-34.887102304201825,77.54815355894725
-31.869425305499448,-33.8949249565966,66.83086871219284
-20.427823440561095,-33.30387292871627,57.39991434600107
-9.542909731444729,-34.25288714785118,46.67727668475161
-0.21401291800475947,-32.882739862656216,37.474054293050166
12.001043177344634,-33.44961366074777,24.23398987822237
19.422900045543734,-31.48452082179098,15.029891825971372
31.533351134741093,-32.540175225950286,5.362784440936272
41.73279179485477,-32.72415248140919,-6.111151182697355
52.45229367619062,-31.273089996463312,-18.432199575052028
61.895237921072365,-31.411927438612775,-25.944923014088054
74.17551423592933,-32.50932262246158,-37.31710726897641
83.33673389700593,-29.433909892254796,-50.141853404067334
91.80247833150392,-30.238442655509502,-59.81188097257879
102.5967715281833,-28.94704379306902,-69.27906920755045
112.50726592148284,-30.07776466072785,-80.90454520184187
122.10407284815531,-27.703478372064875,-89.02881909851715
131.80823185163084,-28.592009522414337,-100.00045430440744
145.2634778907056,-28.18246426641243,-113.11918363505877
153.8992788900334,-30.375758056079828,-123.74197057019579
-163.50286294671804,-28.916217601532175,196.01216961999677
-153.45946571649782,-27.983945845504795,187.16494109558093
-143.84824947621632,-28.19787241261223,174.37943259406745
-134.37034966993258,-27.83116019335107,164.4755317245927
-123.14966042652075,-26.10540999474656,154.20060353741772
-114.00217971623445,-24.746286934451323,142.627134062689
-103.82562669152342,-25.690001309035566,129.6155903660253
-93.38436822269061,-25.114139752772694,122.73929309080626
-81.7298399391126,-24.210877587727136,109.61581032732934
-72.1419410629792,-25.50867050666408,101.11906330691642
-60.04384856299126,-23.80458203452413,91.72566740858437
-52.25283200813839,-23.62265571973019,77.21836178483801
-41.382873157718045,-22.713068729301483,69.73749126756282
-29.665676025306023,-24.998983037209324,58.56002018509795
-21.39393329087688,-25.191400393341986,47.677511293265304
-10.098699259889802,-25.606340304698595,37.50083746805725
-0.3476345769091705,-23.898451112345892,26.893103968875167
11.569581076540995,-23.61543456457107,14.444006739794826
21.16760373785107,-23.52538821018052,5.096489224047307
29.864529130920804,-22.584568978981242,-4.323488123057217
40.721515883516865,-22.106083943534216,-16.082648165590196
49.92365090324028,-22.94963612596922,-25.769973904199546
62.20560739428081,-22.306035683730308,-37.53527433736128
70.9348177783266,-22.058472814859982,-47.331936641558514
81.65644505501412,-21.60776219842715,-57.90731470558144
94.10042458117097,-21.006964042365304,-68.31447489357934
104.00157884690648,-20.908608674608555,-79.93405970424223
111.15081271695345,-19.159079255531424,-91.89690242026715
124.09757917589783,-20.801978720270792,-101.18573214325956
134.11236353644307,-19.802628341733968,-112.32699730014441
143.15797936849296,-19.618189404669927,-122.3142557716245
155.7412047733576,-17.98544632454592,-132.87209752128066
-164.88220630490713,-16.612012237782732,185.5969040627995
-155.14916075934383,-16.322723350143065,175.50801566759188
-145.83842770179757,-18.743969046915893,165.8003110131604
-132.90218903603306,-17.767314232070053,155.40541363854877
-123.99849807928962,-18.185949536027266,145.7142522900353
-114.80569120801985,-17.721608246278535,132.98691566207088
-101.25226907383954,-17.67257125000267,124.551013239983
-92.56876711396723,-16.407206230329265,113.68074055956993
-81.10810696499263,-13.510701068886974,102.51521034156316
-72.3387434406286,-16.1120006376166,91.41124098574318
-62.064252606064116,-16.089414319271434,81.27676934759403
-50.35658858413905,-15.133118693055765,70.77891518975798
-41.14073586028482,-15.351639373642103,58.18960884229085
-30.67120919093546,-14.752901972304736,48.08135184423247
-20.534940762614372,-14.289710627625803,38.25451027371933
-8.1639671045989,-13.630470062683822,29.297386034378697
-0.3581678328855861,-14.93003531806525,17.456480152553212
9.995340309469148,-13.967123077411651,6.749695758389443
22.038160211117535,-13.830014726269807,-2.9279901826468766
30.906892088622616,-12.051737790577079,-15.483831455138361
43.19873568599207,-12.067440168587854,-24.595261627075175
50.778509554679566,-13.217834182414919,-35.90953624305518
62.095884490979394,-13.154999439916754,-49.680331710734066
71.22401741619575,-13.176292401298488,-55.528108850038926
82.38121999946776,-11.06150632253411,-67.44942860875658
92.08776799962897,-11.441395582793508,-76.7067892717262
104.6665661835175,-12.54954779581179,-89.59140138309635
113.84267354938632,-9.55231897128436,-99.56614399844474
124.81069751013378,-10.660358984542643,-110.77089950114146
135.52699730174476,-10.330492238088222,-121.3920402821387
144.2459536514369,-10.673405150496658,-129.28430581913486
154.18698323971654,-10.282498832592,-142.68748535552214
-164.9188722037852,-9.933387073184651,177.32067233741054
-154.25659559371502,-9.43584804446561,166.30854019719416
-141.19997651725373,-8.813546535101139,156.44257514830753
-133.8786725604746,-10.140785162035561,146.19335145776407
-124.86959491611485,-7.779888299871969,134.23739269742845
-112.81039469696468,-7.265137686552827,123.9302739134419
-104.47247079977392,-6.490302875723298,112.957513725189
-90.58691713495335,-8.992863741284774,101.78845150285144
-83.02852772979068,-6.169985484482884,91.59603286807034
-73.07161288507352,-7.351676998979875,81.26258662656406
-62.137110951029356,-4.882874565855189,69.57798185623396
-51.895821939267556,-5.882739152178627,59.39876858549295
-40.5885724545524,-5.846007502633508,50.57789108320662
-32.84664684748499,-6.962780656794971,38.58270384719849
-21.708501829352713,-4.43688506467247,29.741430837970306
-10.876594279882513,-4.961594242565228,17.81905618250212
0.346999793366174,-2.9578575887015113,7.536163146539283
11.380962492406173,-4.193353831021907,-1.4237742249433378
21.28011416558291,-3.8255084205463015,-14.041907947657158
32.1139569693312,-4.796850294284544,-22.573825532856652
40.9818263020556,-2.7282394536181234,-34.23586153714007
50.71911362777054,-2.9182597486135564,-45.97328473703573
63.82943196933343,-1.277320667403989,-54.3095732163397
72.22760447051292,-3.1873414217212512,-68.2548961691895
81.24327858764178,-1.8069209420111343,-78.01890880438252
95.17674612510159,-0.6119271056359183,-89.38894509803691
105.44559917783643,-2.383042556895211,-98.97550187308312
114.17139665834051,0.5715438284967056,-108.01289140201635
122.05100543535103,-2.8147539073722982,-119.19060956459803
133.27621984286654,-0.6851830919785016,-129.90602175080426
146.42957979981088,0.4032310544118394,-141.71973326196846
154.95780217967857,0.13014459537744566,-151.8592131052082
-164.81779921421818,-1.1899716620725629,168.68959828990825
-155.8818130993818,0.7340786478989066,158.92255821462092
-144.8858903374736,1.3470120088541129,146.3926325940083
-134.87059901729702,1.907525756214374,135.9610124319642
-121.71658011706413,1.084335043111878,125.14257097797227
-114.37089145041386,0.3657091178482199,113.89275908108124
-103.58689805495175,2.7890722079157912,104.63419036772798
-92.43366790229202,0.7519343955260229,93.61333528772604
-82.46293620653584,0.8315642852783585,82.83748082563483
-73.75588481195969,3.5711069599814027,71.89772781690495
-62.11005095210932,1.8980160256599923,60.749222493648105
-53.47730434283343,3.0064731711378325,52.258193810074324
-41.19568088914593,3.6076601518649003,39.26249726717724
-29.331240670583533,2.708750986057121,31.509281699528582
-22.809923464986447,2.9428417254722614,22.239641665298446
-12.455198186225115,4.747968735406184,9.786130474845649
-0.39400431599260266,5.192659714129389,-2.5302450197170483
10.606392903785265,3.7408355207574377,-14.054906605182785
21.625242086117815,6.183501024325901,-24.517846698210093
33.54254014337217,6.63226894112721,-33.128747956175204
41.90610546375148,4.561735804979076,-45.97686849224861
50.613835425342316,6.360288019746444,-55.853248573160414
62.117073323618634,7.412133362613882,-64.18434832115894
70.06585234669357,5.901253797799227,-74.70111946738542
81.92464064515269,7.249382398541156,-86.16678549609625
92.08634943115156,6.813714145277501,-98.25630740970676
103.44621879852514,6.580938949685396,-107.41982974512914
110.60967077482597,6.643593561234863,-117.04643596165873
124.5611888856418,7.36368156935704,-128.1281855960676
132.46786292190424,7.859593410594035,-139.20477546554807
143.86771578235206,8.408242851789604,-148.64704937844863
154.6943613378409,8.493518374619853,-159.42608534209583
-164.33908068277464,9.370408608345995,158.43550910471933
-153.9621523467196,9.989510419266455,147.01375298677976
-144.5233835696574,9.44176527548214,137.861106836429
-135.10416845450428,11.66709857350891,125.29585978136534
-124.74450336803498,10.598980264349525,117.93066769885874
-112.62322052783362,11.110594015306473,104.73316945507514
-103.88738612618737,11.784189717056488,93.69412892352993
-93.476798289742,10.160007050429472,85.20049495917884
-83.23887929724849,12.750288574380164,75.15900566030056
-73.5906166321812,12.360999585589118,61.54005687369721
-60.30998318754362,11.269618672610413,55.43446290265076
-52.01197708424812,11.870185971939675,41.2389549441798
-43.43895045060372,12.162915874273455,30.784465960796776
-28.313489136715873,13.96724798475568,20.028719521692402
-21.17398530192796,12.485983599717272,11.104883858470071
-11.073712293166976,15.243908129534166,0.4168774204437934
1.1922930957487379,15.233953144432537,-11.086200157924422
11.321645063167995,15.787916383283017,-20.505602153405672
20.24258821447219,15.51031499789758,-33.303828229590124
29.679267338936032,13.654909734185887,-42.69917045237294
41.91969440209491,15.702271286426523,-53.73395983852176
51.33836769326505,16.03234024629303,-64.45653338180949
63.263062417462024,16.464330150424153,-75.52198770973925
74.50401312776532,16.097077007356788,-86.9062871291452
82.23147384397969,15.59563058736662,-96.55444620722776
92.92489202043316,18.172777087573536,-105.1541460712173
103.71361393107125,18.3967070435168,-117.97356735316133
113.21205762364822,17.25188811361049,-128.55924198605015
124.17867311093151,18.34886965274507,-139.7719815356535
134.80180169728928,17.33594280711081,-150.23324933530537
143.36957754660563,18.946784477849423,-159.07996372560092
154.96259227623193,17.102419165082196,-171.74947767846072
-163.9477850967541,19.615659012647928,149.0452325373493
-154.2308228015715,19.472585356531415,139.14845207239557
-141.839648382496,20.808239609837056,127.74127545691731
-135.46324257054297,19.560054957816792,118.27681517419008
-122.34938308813192,19.135860170507726,107.28637948204273
-114.39235441667797,20.864547894544224,96.36862770558133
-102.80354948277348,18.87651141181576,85.36779390753377
-92.50666849969973,20.24588611916588,74.97709206989715
-82.4262601055124,19.141387635978944,65.17809325161825
-70.79059464846026,21.76453608191365,53.26356840708677
-61.85716790511195,22.6769204466495,43.551382401446865
-51.473188198996674,22.753660442485973,32.12761039103944
-40.83854759765908,21.85367730216454,20.95754331769532
-29.049369992068097,23.806589434753686,9.784666787547184
-21.075734202928103,23.89842459633636,0.9254223523819944
-12.175374921368537,22.87212855373768,-9.68264232665572
0.5870509533747995,23.413342508454004,-20.195617111529582
11.137143654603175,24.72975964673427,-32.700219372527556
20.691079034331704,25.430217899416203,-40.71748442518468
32.501280870915906,23.559214230353373,-52.87594809375146
41.70524460161895,25.128146799195456,-62.407112192480966
51.84376920212599,23.49444764779565,-72.35434240292476
60.17831515101118,23.929894075687645,-84.54200064617717
71.71418567425808,26.131037060695743,-94.97388357200197
83.05206512067994,25.254508244212136,-106.4197886014271
94.1405799771671,25.05596451411503,-114.43767612476826
101.41319170153137,26.441772681076166,-126.10861396406584
113.74246722733598,26.559590876046773,-136.41159665173154
123.93312920460502,26.66257460021695,-147.41562213859143
133.8862681530472,27.023407488300315,-159.4723164690697
144.19016169501222,27.414181838572468,-167.93378113993296
154.86836377706004,27.335678084892017,-178.51701717892067
-164.99996105309756,28.34852843808923,138.90719629699788
-154.55886570819857,27.353705496847738,129.83087064386424
-143.59863093935354,26.76898644021031,115.57092899225064
-132.39031602271055,26.43588021068328,109.07070442634306
-122.49303523372825,29.377056193834385,97.574653581158
-111.28484548555217,30.539916245304585,87.65607752348492
-105.85801817862193,31.01316078669831,76.14885594247973
-91.9354887881643,30.8659503573356,65.95175405396749
-82.1061670421012,28.88571354708555,54.73237653488498
-72.06125619840611,29.210922486264,43.97320940348714
-61.033437818270144,30.862649872730096,32.55148269785192
-51.60732277288306,30.69113813384826,23.04600183607978
-41.61496071685057,32.973983687774506,12.619027896236492
-32.02804885374062,33.111981480231314,2.7555669164743444
-19.02387714002939,32.464364940831416,-8.629652197806172
-9.818028694332385,32.586681373213125,-18.907383169999623
-0.9350409189339995,34.25075767785758,-29.942170037851948
10.668453946549809,33.17862237943751,-40.81722073817
20.947537697449683,33.751575600066,-50.54551215901322
31.14238156221156,34.663367206391726,-61.57577581023298
39.54767442759371,34.35728541361804,-71.16017644135312
52.08304740855793,33.974960361006026,-82.54450677748851
61.88115931478251,32.986333109900094,-93.71085426465207
73.25807785296873,35.4235683353157,-103.90208360752574
83.54614657791898,34.366707485910645,-113.9380169501311
91.48787654732674,35.53676658557185,-126.51259563790458
104.21973752297856,34.36191860145077,-135.40294874566723
113.96544797986236,36.911448267367874,-145.19820470542933
122.98084625773673,35.549550155041274,-158.7996526344477
134.29750720431065,35.743168146691616,-167.5732205741898
142.97807639647027,38.03814152599456,-178.80284427174206
155.48353866980432,37.67559571070483,-188.9289249266359
-165.5407596710123,37.37093372879596,129.02520500701732
-155.48365309337035,38.02472267076131,120.8087952267286
-143.982048528088,37.02789907606407,109.79987246582148
-133.00238888466407,37.32349831544738,99.87458752527223
-121.98159600619958,37.31971121422907,88.3558971684977
-113.73036663555216,39.16969998330211,76.98866592814846
-103.26741296872646,38.68918418309127,66.06970200046948
-90.96431429592037,40.589651350117514,55.55237156517672
-84.0749825825776,39.4813199427676,45.054081100118935
-73.03255861958337,38.117554853627205,34.94061722598968
-62.27359175488804,40.31968358514131,27.014693025692928
-51.458536787800305,43.21158396771291,11.295059145689706
-42.14522276760553,41.03907043449711,2.3158705264663277
-30.610001355386828,41.97568825056649,-6.321396155956068
-20.93924330045962,41.35763455134461,-16.658049626121265
-12.894825834147241,42.30355555205054,-28.371309858285684
0.08083894034837483,42.08981909295348,-36.977945413383644
11.224133054789778,42.35442192087011,-49.76634833649306
20.45965889952789,42.54507262495312,-61.305738487562024
31.860704338536213,42.73134032376467,-71.4491811945051
41.954196391605706,43.43679618938505,-80.3645543876444
51.80232811013604,44.41148519499187,-92.63728735011566
61.7369501389378,41.76246046672476,-102.13906589436101
74.50484768694479,42.137478900776976,-112.81839945438708
82.99263633479973,45.976338399097855,-123.06754800442795
93.0810534836995,43.064087045074366,-134.338935233209
102.47455731881482,46.19266860519751,-146.01348152892945
113.17849419703185,43.71210024509525,-155.86697409052536
123.83488594814932,45.33861823976649,-167.3759182923197
135.10260737770932,47.59810200299866,-175.6504349569886
144.65839005899363,46.12435810600529,-187.00786735312033
155.07102755954915,45.47545468176265,-199.98827008544902
-164.45990926885426,46.91589049185718,120.22465201379867
-154.759124081935,46.253584680579515,109.85703118406711
-144.70873286197238,46.6943009609723,100.58451492211479
-133.06435084492935,48.57405612722626,89.3752150462013
-125.00035592012077,46.650197470336096,79.18371417195937
-113.11125214999721,48.84984234691528,67.70680422036243
-103.32751634640739,47.6348304939874,56.279379203651324
-90.83132458595063,48.584436069010074,48.02843266192587
-82.06655970777946,50.6950658706805,36.46561202280112
-72.45046076312248,50.502188826191336,23.896413553886596
-62.250599136160716,51.959907336531934,15.437971643982282
-51.9136749363226,49.66109793622476,3.7304517083067026
-42.50727975367122,50.713283186859925,-5.8756725454343615
-30.4788509730521,49.409938546013045,-16.58093090755793
-19.914660400997743,51.438943912777226,-26.68605124247346
-9.129600848928503,51.475652694245035,-38.90292275484634
0.016783535983104912,50.324569769701085,-48.13712092592098
11.55065733810265,51.17416469763852,-56.87204141035152
21.688949991531445,51.75999832873393,-71.55101680946248
29.160918461489434,52.604191086098574,-79.05706137104278
40.84328079759257,54.732810778180244,-90.1202869611736
50.92482683543014,53.53764666685575,-101.49073566046529
59.055764751584974,52.725004599285256,-111.81534825757691
70.85847880041746,55.11890666630322,-121.34191888611164
81.89319936283094,54.33280150590418,-133.33659422315066
91.98598561089881,54.62875836031611,-145.9440871249185
103.90398560752156,54.21816806004774,-153.41059300156442
113.74673633393977,55.382631744061925,-164.99796726103227
123.61683631907275,52.80672501988866,-175.0303238277136
132.61663943747132,54.93333321697726,-186.33218309316445
145.18434169906112,56.24390494171762,-196.83135758448373
154.83668278299984,56.373526986547276,-207.03968550511422
-163.99165283767917,55.86620003997535,111.48550997492008
-154.10939115971755,56.10948250067881,100.58068500020858
-142.29462946951898,55.92849517721268,91.10694091018713
-133.89452935028632,58.70921443915706,80.00112915264775
-121.83281890123286,56.30567663031541,68.91157085159246
-114.97412809364575,56.77602912520944,58.258763534805865
-103.05814625642573,58.31530884716759,49.2820170790667
-91.76317002172422,58.65582223062665,37.181827953438365
-82.75335137000407,58.629590946737565,26.737580644657275
-70.89396895516037,59.79482996091034,14.499453445172712
-60.36766523669297,57.67190687230965,5.320030609126116
-50.68531862323848,59.602903296321806,-5.4967638678842885
-42.06236359986726,60.603413780299334,-15.603863065998253
-31.43887282864525,61.50825213824911,-25.14187287611499
-20.048611404540107,58.88423255676518,-39.15377113533422
-11.170108106104893,61.486180968932985,-46.69272241240857
1.404898938675383,59.41878381901854,-58.0746858631356
11.3323301798585,62.01946851144965,-68.50156863774559
19.62765283548083,61.514339567131444,-80.3089248460049
30.190364907337653,62.97357261123345,-89.14324630825632
40.11903120081592,61.378587091769305,-100.49439196623538
51.71346651006158,61.0935525723994,-111.57810572447625
60.50756686456013,63.993976562287116,-121.64814121734416
73.08186151641706,63.19306114741203,-132.99047366071878
82.87626746414692,63.6141737324625,-141.06041954294452
93.50392235832173,63.37225107547708,-154.11345858931733
103.5448834803861,63.0143658543499,-163.86446555931386
112.32851171107012,62.864281696313405,-175.59154750726174
123.75399623574775,64.16255673005786,-184.97011760985
136.14069589771555,65.45388140682536,-195.16182342322543
144.20163286880782,66.3069594513975,-206.22818263959815
153.71770652616695,67.90130993464328,-216.5823591529579
-164.85816040846504,67.81081084347979,101.27412083632443
-156.26396680857775,67.99705456358184,90.80007202188553
-144.8704194173577,65.55982225656427,80.91517410729897
-133.93548228122813,65.17897396242408,71.0192956295509
-123.88257503945151,65.63944162427154,59.658261062683835
-114.2892469707107,66.76207958630599,48.19733589886045
-103.1459171733841,66.72401348292111,38.787451661054405
-91.39984617399011,67.37385888427856,28.220302968351028
-83.92829132206656,67.81698519214572,17.798743648074712
-74.6209857133855,68.02143480475398,5.209878679382265
-60.04448420806849,68.29163046853536,-2.439929278002297
-51.17711679499342,68.11185763026945,-15.648275823301947
-41.939983363003044,68.68335951519039,-23.191920437822567
-30.56628325784796,69.26631522334303,-35.7723203189468
-21.02366651898958,70.79142369738135,-46.63431897843933
-9.551530367617712,69.29005062131215,-57.79242215035336
0.4882448539141105,71.6439109950791,-66.66556830219463
10.047464693306278,70.27180157120951,-79.67223817032848
22.52429084461496,72.47188813367802,-88.6344743482273
31.4361646480983,71.96115217248817,-98.44062985082229
42.38845999057563,70.98325599581612,-109.86179982118006
51.3617606798622,72.8169617019114,-121.88779814487624
62.83414011854767,72.36426096059957,-131.38414338207076
71.1000926125123,73.15125126937431,-142.78285638630106
82.83111717618607,72.24395780337049,-152.53349632497975
93.0602431296373,72.74218265913002,-162.54873516441623
101.13581820539858,73.84193866857555,-173.19394558554416
112.48734651724317,73.33030839121102,-184.36153616299737
124.57161600920932,73.19050554277834,-196.04236246796356
133.83613889367737,74.77422481105226,-202.7774751867594
142.8285302887645,73.79492884888482,-215.9602730709518
154.9765669315314,75.3273845250781,-224.94560463987244
-165.84571454375842,75.92092351725165,94.15020331861624
-154.69377800724303,76.49619101053611,81.0211363576165
-143.70523352236083,77.03277937998847,71.600769634518
-133.82824432250678,76.95618909493703,61.193718787946466
-123.543521608745,77.05928127369192,48.02115272334409
-114.00836647368466,75.56857077849716,41.92099416646981
-103.80838859577226,76.52831317429138,27.79226750802768
-92.18090878985674,78.2131775577849,17.241413243657988
-83.4076919505087,78.22183428777471,8.818368467076247
-72.65212903228239,78.54678480957422,-3.0036564729055004
-60.16157551086016,78.76660086986315,-12.817400259019045
-51.53799843484324,76.27900684062745,-24.40841680714089
-40.28136637797253,77.44282724913907,-33.68087946753936
-29.521608931973635,80.66169935989922,-45.323084116015835
-22.132323449306675,80.27412429940281,-55.988780260914574
-10.667307376418771,78.39216252805005,-66.95168933001874
-0.07584145724084733,81.12918680688932,-76.29691053320862
11.277117587000536,79.2558971090035,-85.92759011736437
21.383785056348454,78.15456700591895,-96.63010648874418
29.633514840266432,81.45055928812315,-108.84586747779629
40.882574305561256,81.39556436683459,-118.38383829907792
52.284263401780294,81.76461987760018,-131.36790206629843
61.247983146744936,82.4314864680158,-141.76070310123944
71.48228539893853,80.50507389590035,-150.72292743140383
81.73680639630628,80.43649853932628,-160.59623744270732
91.7774968238894,82.72932880993,-170.40763150793808
103.2592309998712,81.3985554618958,-182.9622590642977
114.02895850767516,83.43000459121829,-193.38798234872456
124.24104896581723,84.65017954254648,-204.4830015542322
134.14612329645675,83.37770024589715,-215.44570582097734
145.31434296085254,84.3532384003336,-225.7310414493066
153.65488750970826,83.79255013521515,-234.42629297870894
-165.2519264410335,84.46958161737393,81.85664677055614
-154.90361797967054,85.03214144196598,72.55674487675472
-143.99964031823146,84.14379725552024,62.47865038896475
-135.46365701940599,84.85789054411968,50.17369779578491
-124.26400644676883,85.03886385572375,42.74138992587673
-113.20501952250574,86.7183726709712,30.705839333921556
-103.3770571024344,86.95151497501914,18.596353309743943
-91.28023999636817,87.07449874589051,8.424193837788541
-82.93824831067886,87.39450582429127,-0.44028996332731585
-73.51076764394745,87.03225393357988,-12.404930061678757
-64.66225657719232,87.2007201180847,-22.746869956318882
-51.06974127725771,85.74928719234683,-32.63192511523278
-41.13177207934794,89.0830995266554,-43.18774532350809
-28.847115881265466,88.59078518080632,-53.172858325027974
-21.251687233366614,88.95228040788243,-64.52890137214276
-11.502713945251958,89.83988017448937,-76.2159969832259
-1.5187861079998581,92.69439332968585,-86.67955510600942
9.35521969491208,88.608249291156,-97.98596270607023
20.095411287811793,89.21704102474683,-106.23907240911156
30.46154635534194,90.32664248205316,-118.16438539958786
40.30355586935131,90.16466264082531,-128.12191864038945
50.82166046391061,91.28322930961842,-138.37028165347755
63.158669019904956,91.06397110925168,-150.70966063364096
73.181990579644,87.96338417293957,-160.05484612457988
80.70647805485554,92.58190360507818,-171.40234301140157
92.50062580117842,92.598332282142,-181.29284375836286
101.75107617267777,92.18301026664682,-193.14899549008462
113.90360768714206,92.25998435214471,-202.3802419359002
123.18453276795795,95.26743770862268,-214.12158907011175
133.12094849818757,92.36290204862959,-224.13618146999752
143.64216021097647,93.83168050899947,-235.14774264707467
154.93125174888127,94.05100805548986,-245.3249198431725
-164.60237337089757,93.41445848087629,72.15091100782107
-153.5038742661599,95.17594834396549,63.12551503742519
-143.90430019258585,94.19452382657558,53.05234912006354
-135.86425035264148,93.70943985023821,41.53762734817824
-123.76289092796092,94.4686093610151,31.379070841374496
-113.24504008302549,94.93701400755207,21.07623958200162
-102.37702523394952,95.35744169283454,9.610270938129117
-93.35153722253223,95.59973889888296,1.9510313406922335
-82.54393248333952,92.92950629873829,-11.22280818311479
-71.97149173710227,97.19125873500752,-20.74347932584207
-62.04555278789284,96.80277722536235,-29.962078616583796
-52.08120276236339,96.81730588221525,-42.77818740154599
-42.58633277167456,96.9944119771319,-51.94565995544092
-30.873793252679295,97.01555965730934,-63.30478652412047
-18.837162637929364,96.48612586303938,-74.43954226473073
-10.088815435586111,99.27044875997689,-85.0386278224124
0.2550501152664896,98.65243773070164,-96.37397258183998
11.283776750488643,100.22060535175724,-105.12401665536134
20.015164253940537,98.70212401231905,-114.569939020107
30.751863470439304,100.13553383804259,-126.52478845452848
41.189348351760955,99.79452619689131,-139.03996396028248
51.70034642345812,100.97396688212758,-149.47709059681787
62.72962267341329,99.27888668075053,-157.25162002011024
71.57110776533614,99.93121693232803,-170.3484899433153
80.82872918037413,99.06801371112756,-180.66632210918345
92.93486971262611,103.19764558066171,-188.74446203302426
103.96674310633668,99.59127453024786,-201.22522316374472
113.37048084235613,101.23432799789661,-213.18146778906345
122.28256868848867,102.4109810081915,-222.13433884446283
134.11600789563838,101.22297215801086,-232.0270071867064
144.48983442853842,101.83618068290937,-242.65513798400306
154.00990782988555,103.97385480589342,-254.22564491416682
-164.7981037712491,101.50125728835694,64.54030792309413
-153.28018350870846,104.05628493741963,53.78140540960289
-143.5714588223198,102.97443525215525,42.734180839822216
-132.03178842125246,105.01274859853129,33.28586535600748
-121.64110219891532,105.61048920435404,22.879827467122986
-113.57082821052944,104.21867443434711,13.383644405364851
-105.55644346726697,106.27766354294653,0.9095455031689854
-92.67222252727151,105.45436802633469,-8.575793981016972
-82.4034635729502,106.57945728669175,-20.101953178616057
-71.26421168258221,104.6147599301648,-29.967937095384347
-62.43688953894344,106.00454623519057,-41.522652481687224
-50.61481465627988,107.96751597265066,-53.18944711826512
-40.655642678319026,106.56370707314267,-63.60881949688515
-29.893710707727067,106.80241669340911,-73.29153836169978
-19.26979224376529,106.7114949048072,-84.07875598684689
-9.38195505482601,108.28587585032881,-91.92023944455181
0.06156558354020175,108.6072010429626,-104.46722685336444
11.4175538526429,107.86001909539074,-115.41360193687467
21.777763281453392,108.34238385640923,-125.85265615358503
31.413304965195938,108.71329843243325,-136.91122171431115
40.90340819694334,110.92587226704421,-146.2945280643602
51.71405063690132,108.22990182466744,-156.68100310951883
59.51511162289018,112.0729740941533,-166.89099406308262
75.03775068958213,110.3088828344275,-179.4698923039049
82.38361703856081,110.15788516113258,-190.38554496929024
91.36928195710009,109.80240219644368,-199.257362710076
104.74268163785733,110.1108136184569,-210.57060924893054
114.06735153080731,110.79343538082374,-222.780553158446
123.84057342420229,111.90139210283253,-232.79355836948935
134.67993810332706,112.57875825807713,-241.08506812585517
144.55278880371864,112.98355144545019,-253.62839194643874
156.53429483919922,112.25467119121899,-262.7521001514453
-165.14969754417956,110.50540522031255,56.272881450317996
-153.83907792892475,115.0695121288959,45.181622942395215
-144.69185287294198,112.94255560074471,35.55967476347681
-133.19341040304334,114.45410075811759,23.481761209517785
-123.3163401520447,114.22554200396324,12.664475391240197
-112.58786678589424,115.16888919479595,1.7884458002400363
-103.43026857452371,113.88917262223575,-9.207681248954815
-91.86498362118968,116.24467532372118,-18.372560636737816
-82.34260818588054,114.4779702564439,-28.874030464263164
-71.29947864884745,115.47115699732737,-40.187191360606
-61.77331829014268,116.78770105137372,-49.01993662377324
-52.368853402342694,113.95564139832828,-60.60488268724867
-42.74545714126483,115.30125352767246,-72.53415745789451
-32.92011579214018,115.37884576458114,-82.5232218573598
-19.839436226184826,115.1935564792057,-92.72802389651538
-11.941595517140513,117.56296378476385,-103.69008135134354
0.12487294978043917,117.17626350549263,-114.35885147562026
9.030053979537207,117.29454164591954,-123.2063491152813
19.686022474643316,118.2444664162941,-134.3245810124468
30.41857469242559,118.55860436236645,-145.62173302998832
41.226694539444075,118.59057879846505,-157.4809254522336
52.126794653331004,118.78002160298207,-167.47374353038506
60.95070360631113,118.78673534697985,-178.5710472234571
73.1033468179221,119.43432488659123,-186.36555506431367
82.23769380208607,119.628251521238,-198.89035605170625
93.35346950201678,120.156123780919,-210.68461145477715
103.23316852427438,121.517837466635,-219.26846055452458
112.43773718842671,118.88467906118309,-232.5225568456409
122.65291840462683,120.71956437382639,-240.5647036528885
135.01007806247898,122.02759612266277,-251.49989284510346
144.7429293870253,121.643060305984,-263.33292279396136
154.90826473738363,122.09918423711326,-272.9785352524066
-164.70191527756762,121.69330624883155,48.219525839639424
-154.4056227509531,122.4000836697608,36.77074473992962
-144.98819352524373,121.07578118556567,25.146013508746453
-132.1822025464411,122.00079692041913,14.658519698502412
-125.39463815208526,124.92506469620777,4.615741393689851
-114.41519415841977,122.82258409481943,-6.813276447860847
-102.89163175431679,122.68348375676776,-18.057496803701273
-92.53514771828317,123.52558812368689,-27.7830482404235
-81.67156835952322,124.24856568463713,-40.566479202452115
-72.24785959587007,125.22891228161843,-49.76908943705588
-61.33603442219739,124.92695738306048,-59.87539594282905
-51.70163808269295,123.94931589634709,-70.85594179228328
-40.28056311542771,123.86878127188687,-80.22668660351651
-31.462532490045664,126.82469738873874,-90.96164536561119
-21.367064257278635,125.9134828613901,-102.57776248179218
-11.175941858274385,128.21966737780627,-113.87699001972337
-1.3238396882780301,127.08960834292968,-121.98306430634553
9.628693585191272,126.86721461170498,-133.37069432829128
20.10876253463414,128.2775586182505,-145.07999129467422
29.65563187561278,128.43992979479884,-154.4844062521694
40.72827534319848,126.27699032361899,-165.9601952165327
52.03787192449409,128.57588860523398,-175.6492949040843
61.09841048536672,128.41673347929571,-189.44641664486556
71.85367527224597,129.29842383964998,-199.6103916465424
83.81755111622586,128.9285624610421,-208.3710796535148
94.20986181858707,128.90452425037225,-219.41969473031304
104.63815264094933,131.0808912803344,-232.52375021039705
114.99787722573558,130.3592840407224,-241.77778691674067
123.9951740825843,129.61758959422912,-250.67115808968342
133.6313767823731,129.137447009666,-259.49064300331395
142.39946230110235,130.94518133231367,-270.5895987514609
154.46660893497653,131.1917626117219,-281.29392129448877
-166.79567558748468,131.55642220745068,38.15283342317876
-155.26408133259346,131.53465765415692,27.314852074344586
-144.10851188696634,132.25048259446112,14.929921642220025
-131.95381173672646,132.58824449518332,5.568817847517611
-123.04423861548624,132.6796150535486,-6.268235179543059
-113.95956736743024,133.12275420213896,-16.38769666411696
-105.35311310839155,133.5613102650804,-26.271705546428844
-93.7056397443105,134.36076067231107,-37.31086152345205
-81.03722529313211,133.24062829274078,-47.35622324982969
-73.41893486266788,134.7741718218852,-59.839984197562444
-60.85744945117732,134.9118433963654,-67.27765527482411
-51.14791466191528,133.44540752127452,-80.30339239179416
-41.702104284282896,135.0406772768066,-90.17475287320012
-33.19370418124164,133.58312016580604,-101.68553809962921
-20.401355260929094,134.86384875315056,-112.38013214171403
-11.226223319707582,134.88124137834376,-122.42588134731871
0.1667403619067182,135.8973266364032,-132.79547134435703
11.345183814059851,134.7561945673664,-142.08617680772238
22.080715485554457,134.81482207208106,-155.44772428347713
29.999904186715376,136.88993420656655,-164.5692507327333
41.785848169287235,135.50016542416023,-174.0093150883557
50.18220464605985,136.089468753338,-184.52793754084897
62.248148470253085,137.52202522133845,-197.5752146340034
73.46714347872758,137.4898533645659,-207.8258724401738
83.31612284179887,138.28732897006498,-217.63348071020246
94.87129294496708,138.34935754595108,-227.64386711294915
102.18544404299465,137.57138945485508,-238.09086721511738
112.23617175480145,140.4845398646537,-249.50055077069672
124.70919266060557,141.59614478815323,-260.34016627943413
133.55199463054802,138.06539529379918,-271.23108983944206
145.57844603089015,139.85727494701365,-282.2078803602243
153.5869011003545,140.28647460626243,-292.4637091247962
-163.84954784644395,141.1898854818694,28.07902306385473
-155.55153263881553,140.77404129755445,18.826371820557895
-143.72682463220423,141.31510249041867,6.28587727863383
-134.05721277793634,142.8137346588849,-2.8464214964032917
-125.93505355736923,142.58555328608364,-16.104321278825825
-116.12855266735971,143.0128111681865,-25.045724390561684
-103.84253603353741,142.09302472784853,-36.428627076693495
0.0,0.0,3.0
