-15.924749412366099,-15.409221310266108,34.10400179923095
-17.475204633445475,-15.983936653346424,32.719648077502555
-14.906795336669065,-13.738322844105113,34.94911284967921
-12.624517022910021,-16.92417963877136,32.3618850804734
-11.982366047019374,-15.864565261037372,30.40434839969288
-11.234238079959876,-16.009982066309902,30.015729947006218
-10.600406624018872,-17.12884886219323,26.75571795853615
-9.540605231200805,-14.676235533161387,26.17381222971791
-9.73311489195946,-16.006635317175114,27.657226094243683
-7.7430887557471,-16.0876979240684,25.27267733848537
-5.815263236965632,-17.19295470393869,23.961657800944923
-5.541075327816453,-14.367854593831622,23.89032701263758
-3.105653850138096,-16.11070086735951,20.277063249858195
-3.5344222933491207,-15.964685998406413,20.118988528509213
-0.9161275974793359,-12.65239175908378,19.036479438323948
-1.0091760307925088,-15.272794093739687,18.575541423313346
-0.11826007831673097,-15.759816519837962,17.201436715725652
0.25808204117137157,-15.972449448227877,16.83855986025905
3.5605451050115713,-15.846669528977822,16.393618930737194
3.3557253964836358,-13.84479896649085,14.738626522484015
4.128892085618622,-15.351817679020582,12.730214006723486
5.570259302464942,-14.085202888641538,12.90398355895334
5.500478380350747,-14.020842513498668,14.2011406613886
7.568128129329402,-13.563806375667443,11.357089455128639
6.970913135985495,-14.947025615217532,8.079077419957736
10.539045134230049,-13.533283986996189,8.160744043893672
9.698874670847987,-15.242341854393333,7.504117124026491
9.703682562714338,-14.959154765166621,6.821485716439736
12.01502371863709,-14.297085019542939,4.370987205644024
12.948121214704587,-13.739343716645326,3.492688651421517
13.542806538081882,-13.014279439922902,3.11811424025818
15.83967731340726,-15.163577159161727,1.2828963177623125
-16.21515573255005,-14.25247919373785,32.756252318818966
-15.514043077952383,-14.218021456344104,33.260241824470874
-13.099757346340866,-13.61593957689754,31.59392880799017
-13.485308103507649,-14.635273931507351,29.14948961272448
-11.990513262704587,-12.675472970269546,28.689054866033615
-12.452030683865061,-14.16846628867971,27.127727041416133
-10.230880913075778,-14.761860685562434,28.578746272067093
-9.477307855410196,-13.9621897855581,25.48620699506453
-8.551701722815537,-14.015283266615642,23.735627743347322
-6.335559016889083,-12.260000350002784,23.219918019281415
-5.876888338543482,-12.326679043961771,21.607315733939945
-7.273175626615213,-12.910206259842385,20.632380942404144
-3.109089210302437,-12.5822121103472,19.292993284276683
-3.047060145706685,-11.991073346237599,20.803677629642767
-1.739261949727735,-14.116434688564677,18.71706320306311
-0.24231448062762206,-13.309627447630263,16.908980937689357
1.462887229114413,-13.542915942569905,17.751051819347204
-0.8818529450129959,-13.058198523639387,15.960131092654233
0.727483897499621,-11.602234293791891,13.525742432954738
4.3146528323900695,-14.584478707496556,14.42176903756801
4.083949187496076,-14.641434333810983,11.585660569547729
5.670687540824378,-12.67881681331726,11.289615960144681
5.786509244977145,-11.862176384163904,11.087103877549747
7.3402888842894916,-16.43070088751191,8.401634349554778
9.850713898410453,-15.70213943188806,8.033788178737336
10.713505900765508,-12.522366672460459,6.89496488670479
11.184139354371794,-12.303119959181696,3.969533988355079
11.737755566334556,-13.370653113773272,3.8065109577578466
11.860236325223335,-14.112949086443196,3.806537430621245
13.355955858132829,-12.413315814868042,3.069688426580258
14.917805709642757,-13.303335283489814,1.327298856287886
16.116673834904127,-12.58701679277975,1.840548644459015
-15.878049156212958,-12.774544454767355,31.674661802513437
-15.493703745444598,-12.981114147903613,30.773211795876176
-15.068946874297216,-12.001141716645574,30.17628940595882
-12.081981295037544,-11.486818663084989,28.505820392287273
-12.332471925749504,-13.36655806482928,30.497842127413094
-10.514297764178334,-12.379803620785124,27.170825691622273
-10.65160286559328,-11.038984520314465,26.101033566414408
-9.218979601351702,-11.559513996718463,24.892656363083542
-8.05824034875275,-11.555789273002791,24.841354262239385
-6.405916989883471,-12.166702492642631,24.89408469794735
-6.402062443606999,-13.533516008326188,22.44601340563209
-5.449450703807583,-14.144416039113167,21.174463548213097
-5.678635977697134,-11.665317596657832,21.387014512820517
-3.5812652528867606,-13.573456317980028,19.30330756440956
-1.0564920668480593,-12.750949699501769,17.700120248407192
-2.3423095611785865,-13.171537438500161,17.430362136309032
-0.9419329678303643,-11.989823480195119,15.315052257444986
1.490742693490446,-14.344999409348793,13.635720512596485
1.3806665913895206,-13.275303318383383,14.512781066771183
2.5349987592764998,-12.224374918124202,13.573559339678003
5.018133785591595,-12.487794670236356,12.605327407262187
5.680952886741614,-12.16652135665353,11.572319204001886
6.9810104201177,-11.426007203276102,9.024617046388002
6.543337306428317,-12.991575839846425,9.71419254190414
8.393100015211944,-13.536198923501765,5.755492281842649
9.985738067217179,-11.280016515913928,6.640189755733665
9.259739899220156,-11.953062193588762,5.6684633391350605
11.17905794438758,-14.148238407693942,3.076573619902991
12.794531847722423,-12.527091600639245,3.9957854651982183
13.979285369089462,-12.376128207694608,2.7613306385276086
12.851902460416891,-13.742258865845654,-0.24149791679054777
14.263584766857992,-11.514420790700004,-0.06297695481480578
-16.985689733069012,-11.861182434895294,30.159177975264644
-16.32036193136767,-14.606270638206265,29.014867105013973
-16.296123119920676,-13.620874957092349,31.457247831925706
-14.065532749554166,-12.511349928027947,28.014281103350203
-11.374482925005195,-12.467271725456975,27.275793614874186
-11.191532292632838,-12.722424831719028,25.685090440080465
-11.038054881122514,-11.691660930639399,26.373396692222517
-7.9312978648668375,-11.18034685341102,24.925895477112803
-10.7845263771879,-12.619342803943091,22.66227978679639
-7.881376120506222,-12.059653511162828,20.88681488054908
-6.004624532640152,-10.543542372447346,20.184741189658215
-5.85967399636874,-12.192085300582171,22.032781312764687
-5.0952061269174544,-11.863960711006065,18.427024791585193
-2.391940157826467,-12.543359483432052,18.202164969963423
-2.9368544936326333,-10.839356219045635,16.29640076734805
-1.0864952226498459,-12.004178185643042,15.364298420155034
0.46092125822537705,-12.125323336849092,15.73956389263675
2.7997700080886427,-11.509693209615152,13.399026761233847
2.6877484525865354,-11.000038507153251,13.712562102737657
2.486089834082308,-10.242728099680532,10.913412121023558
2.729357436515573,-12.304327535323262,10.34101801397176
4.739371518873761,-11.933623134634933,7.618308835605282
7.502711785985013,-12.269150650293422,8.124449318586151
5.449850780229917,-12.408680602923456,6.709756891098775
9.706531218217101,-11.09274418276384,5.310803279632508
10.40833064162894,-10.70666211807337,2.793290951691456
9.84730250450903,-11.69389163736789,3.539624454336458
10.743953812847836,-11.70058987381786,2.235283632385038
12.253719247280696,-12.624117634481395,2.668064371367712
15.939479808164553,-10.889484626210185,3.1722051323622034
13.420081452440538,-13.633131908244994,0.5717086249111517
15.556389758488576,-11.569705186368612,0.7417191912502303
-17.075541522866757,-11.193358679574354,32.1175293626444
-15.591267429447026,-11.874104587882368,29.609086324704553
-13.645645771108091,-11.648163820109616,27.949580747850565
-12.949361832117578,-9.855120095937796,27.605158616356817
-12.449054379220915,-11.877219920589315,26.4947941899183
-13.178121067595567,-10.371002588343764,26.341694855232227
-9.621512975744988,-11.170972276108714,24.44326554215943
-7.783385720726657,-11.122636637290137,24.132854479105625
-7.979330942503631,-10.994401164902063,23.90091417939508
-7.530945965994227,-9.903465521041849,20.182275989827204
-5.202421963182133,-11.545439728183387,20.10914905441355
-3.338412119852812,-10.967777331979761,18.193855550726877
-2.673268787976565,-10.726496000945646,19.030587939077773
-2.722407209797375,-10.71848725359633,16.77745039472313
-2.17008519230351,-11.298428200669477,16.447441340197045
-0.43787226049046224,-10.986701483297852,14.905720754860283
-0.9682684078468229,-11.267131213115029,13.978920209755389
-0.010951616101422701,-11.017869552933638,14.273782129771703
1.0395612770241769,-12.36523013386348,11.112104183139069
2.7165994246675575,-8.995549705199569,11.596718230789786
3.9891854996577147,-10.817225721565107,9.419167221597153
5.532044719509213,-11.83905496110732,7.9349000190907
6.320909476822984,-13.211653803601973,8.318343183842684
5.824000857429793,-11.465328342485037,7.4472321074863315
7.299049012806981,-11.697012010912935,6.790451875044482
9.436238280328574,-11.320052078423103,5.824989173879128
12.189248963947422,-10.505917445630486,2.331434231709097
12.399122677935733,-10.011782399400609,2.521196031794496
12.14676370043089,-10.77501308056254,1.097781946173778
14.550049469626567,-11.141071538195616,-0.3921436057699349
14.193102172294376,-9.989575922834408,-2.8050588323929277
15.564429430713506,-10.089813756844341,-1.7394246984074095
-16.703994921863767,-10.703259748965362,28.32605601098405
-15.203823900038776,-10.830692701700652,28.263871682427588
-15.403034100784785,-9.813744347703256,28.77979772335956
-13.03142818592463,-11.168712752879845,26.920117510585634
-11.24070834019132,-9.990333677368405,27.03906242030945
-10.812102664406975,-9.671833844676888,24.313128978524887
-10.63482150253427,-10.122268781273604,24.457154363751226
-8.742401394194573,-9.963030416986774,23.636109806794273
-8.862438324570796,-11.286428810944116,23.050606693552943
-7.93263682806964,-8.54846278555808,21.170701502377813
-5.56333326684425,-9.708977358222533,19.482226067770817
-6.965628317434141,-10.132651092178058,17.990083942279295
-5.074838950699144,-11.014157153548405,17.577859840561846
-3.2932237158726445,-9.33358131597682,15.922394012002766
-2.5989054226420802,-10.129134739122017,15.325220696938326
-0.32128669908928664,-10.349781175189069,15.293070720883627
-0.3082112538656136,-10.088901074775857,11.309246140918624
0.3076657639508332,-8.956824690484268,11.166552995838682
1.4480099821197865,-10.38302381135193,9.891882299504557
2.9362705189182945,-9.083189937021974,10.126168878926643
3.872950150237156,-10.729197041083657,10.106968620687523
3.587024647533062,-9.755820972900874,7.7874546191328555
5.203267065369876,-8.781524428327216,5.627697748545034
5.127405313964229,-9.487957291838203,5.888533457698612
7.179614021335047,-8.87473758699976,5.39360629534029
11.38985338963332,-8.271004480223759,2.5755533217202027
9.840154405468638,-9.291951511091881,1.2403176855558153
10.981908906144763,-8.835841623332596,0.7252530880189624
13.610192313402582,-8.254997221921323,-1.1612122030958933
13.646266785547292,-7.5402889595029485,-0.41405995864184064
14.606433231043482,-10.583347566795442,-2.794148713947773
16.65210031810893,-8.966785804248548,-2.7591261737150874
-16.619066864832703,-8.527889479040137,28.142936736977084
-14.934960192661004,-10.012076340176916,27.727625722676553
-14.51749790915309,-9.065927618589662,24.143226191821366
-12.050087062589371,-8.933107650604917,26.70419304060682
-13.227868071685004,-7.622284541865878,25.099755367697476
-10.516383909640163,-9.47281336074422,24.09842397103704
-9.280374558905585,-9.718130603469353,21.328195411705185
-11.011940456114187,-8.886578275243371,22.74676109113785
-8.325132959793333,-8.685067501432094,21.399883238403216
-7.365791721016128,-10.034365927414962,17.18919297692557
-6.827186877972138,-8.76233687063178,17.436840575966592
-4.0981377600328655,-7.697070386818814,17.32185237643222
-4.448480942417422,-8.330627859211942,15.47890635749009
-1.5993987135406045,-7.3592958484888955,14.356217378758922
-1.5337078468551941,-8.768570469848385,13.947402288751423
0.8228816840467927,-8.457807966219852,12.139850254611222
0.14357531336001247,-6.341336073363079,10.337181600481678
0.11553539783312194,-9.800400552012873,12.130914512203915
2.018046169703373,-8.396774073263545,8.095937081598597
4.04059754176547,-8.67816670074125,7.978707870250647
3.890052715137488,-9.068174800895585,8.519125009062487
4.9856851976203815,-8.477831111574684,5.958784650300458
5.980184500475466,-10.539562392547845,5.246657196854068
7.167365839724434,-9.981997683818117,3.929189448139241
8.516406108381473,-8.320504330258311,4.833648090739313
9.845837715676588,-8.203077827415063,4.157717335364904
8.068557466407484,-8.509979707837086,1.2744633485260841
11.640446357538575,-8.757609187821847,-1.0622112939921033
13.197647029600562,-9.196346657573137,-1.177608100756482
13.394869303375367,-9.687001487196145,-0.8934664982616551
13.863643177141284,-9.430772814274627,-1.0402706505130064
17.53809300834327,-8.745378544182412,-3.0517757211085828
-16.0491473308942,-7.739096396770099,26.29116431944056
-14.300476885851372,-8.556984948545905,29.01752239903481
-13.612349820892302,-7.758656600793083,26.135256856885245
-12.905479118531101,-9.334628064188633,24.564587330354694
-11.021697371337284,-9.86773975793901,24.925990802738998
-12.108709213554466,-7.701266592146258,22.893582105752586
-7.501648136978351,-9.32550525527358,20.289969445417164
-9.723387166860267,-7.474651525884674,18.520700875447577
-9.422603731294394,-6.151609536729773,18.7138603583738
-8.747927916866391,-7.438784644467422,19.62875887234185
-7.918249087239219,-9.632790896936832,16.897724764025813
-4.7800679363517,-7.268214975461994,15.5101407972786
-4.465592610677327,-8.665221019421185,14.986819740434935
-3.169030183118624,-7.3573710786493765,14.387732119913084
-0.996747808514906,-6.91047809238058,13.328387862910995
-2.022758078092777,-8.7938221004892,11.577606641968652
0.8482820365400715,-7.803870263674652,11.709022441195915
-0.872479663163297,-7.3613849868644685,11.603439554743167
1.5307878874942848,-8.588866652309601,8.37504863341702
2.4603863475319137,-6.710952969660858,6.96751890689824
4.138136042170028,-6.107990246248004,6.078927280608291
6.624373802298697,-10.11101703985574,3.9276056570737756
6.410509516333012,-8.148384352036537,5.703130435185652
5.21941753555028,-9.159104099417334,1.7417417029359947
5.396249575424299,-7.693186528850552,2.2507974279957557
10.382243677563881,-7.664234193598271,0.9634902090256696
10.507817235762769,-6.21453927815321,0.7028409222121628
11.980429939097618,-8.049640465202826,-0.4905113762642438
12.63154518742282,-8.464942019881915,-1.0368169651370736
12.769867371744798,-6.966380105647187,-1.6203004779500865
15.100129640839604,-6.868952856761155,-3.1156323967067188
14.90624944242428,-7.933663752704061,-4.9981833406321545
-14.862683469098766,-7.374857379521182,27.318206082605464
-15.751470029431488,-6.346147115313941,26.989378762984717
-14.384065069705551,-6.922240063557794,23.160398540827465
-13.624776069712468,-7.285042156568146,22.24161963142457
-10.135153263981959,-8.35962497685131,23.630869978180428
-10.990367076271108,-8.945706192418715,21.05681287705792
-10.531619882920385,-7.589610621579032,21.26957408183443
-7.919844611790641,-8.902166903732086,17.521512399784402
-8.384930986606713,-6.098266786553945,20.5118403729903
-8.609820013207178,-5.902726068444462,16.904742030512836
-4.835620329431276,-8.115623441946779,16.334160952457253
-6.063289162053843,-7.78550029498847,13.60020925599986
-4.502055176288776,-8.372737816612238,14.119042566059417
-3.091035230458566,-6.553012312981815,12.270605086744974
-1.9000870884905734,-8.45406916691142,12.850523975876156
-1.641043594854208,-7.489576802577767,11.929022248814997
-0.607036329778235,-7.21073359112287,10.830772318932382
0.896598582197019,-7.515025051488128,9.99304722262844
3.0324794366208674,-6.95917354990711,8.052150072571159
2.8827356707640366,-7.2988063652536,6.838698844907832
3.6844277679545483,-7.742797199499121,4.689559480921724
5.235148021803098,-8.517369782126966,5.1858218777554494
5.736981098358094,-7.5522422507922835,3.8117511395556813
7.5654576731424905,-5.254317765800861,1.6102381527996887
8.515178117108952,-4.893098356912455,1.8203253620621356
10.851033032673278,-7.012736979554145,0.15820353597025855
9.804745583203971,-6.2394371008977645,0.5404303501685757
10.545510575638026,-6.589026569103977,-2.059984315586536
13.241192553790947,-4.302495241630959,-2.6174610570455874
13.178868942407886,-6.889415704632472,-2.814831418801084
14.398730315775131,-5.99399272246799,-5.690401108315658
16.907763657051625,-6.557110108604757,-5.987170196127903
-14.919184871582138,-6.356301401500366,26.80563226460378
-16.22102463423112,-8.816680747108197,25.532144237765873
-12.950750360226188,-6.986376312613661,23.47779583651284
-12.317592410681561,-6.218552485193649,23.35709868627689
-12.853443174477091,-6.5401499992650205,22.71186193951047
-11.351112885114436,-5.42690149184551,19.471553087517226
-11.01391000152449,-5.810123451833624,20.01692006136295
-7.505067297534224,-7.007753979568561,19.38807242540201
-7.920504231227688,-4.836311491785791,17.03703715581686
-7.6137526177546775,-6.7805368037358935,16.618549262319267
-5.324317074347167,-5.903506771243201,14.072565393739687
-5.477219285771101,-6.041458521931674,14.438004764061665
-3.4048719070594067,-6.348089384487921,13.640334831080738
-2.94886190733753,-5.020513956117829,12.603538633701026
-1.2368068974278157,-6.39365788142036,9.728360055983813
-2.5379766732822926,-4.723379118714884,10.509469601925037
-1.955170169315048,-7.529859673871906,9.319681474481731
1.0452453815451221,-6.654268590982192,9.375831601826828
1.137285902239419,-6.8281519661724746,8.121377509347308
2.4318342314732524,-7.12031147291772,5.996890383402743
4.504455704038049,-6.957109129938861,5.697616785787148
6.478965752648841,-6.077111841627179,5.029456167046012
7.787831286933986,-6.336144407438938,1.4361492193795204
8.887847849182567,-7.049490890525838,1.6404195167319258
7.0820500623299845,-7.116306467296172,-0.4342756961707881
9.554724028016796,-6.644419123220128,0.33805837416506423
9.365082071534559,-4.931745068173907,-0.17487957806193322
11.737418922338394,-5.56467112759321,-0.825997957286863
12.575008169521979,-6.3240760734899215,-4.776757884068212
12.416452284268413,-5.25435308246061,-5.876275484723884
15.707301958135933,-7.233880208902869,-5.955250338598437
15.054452502841132,-5.4809780832182975,-5.104681186320446
-16.3555135286853,-5.000893807137672,25.292180744659486
-15.569244751071246,-5.781784821643199,26.34465750407643
-15.422417900371181,-6.27497198757577,24.99568812298878
-13.589422625824465,-5.410973654816533,21.210110528257694
-13.371253072933833,-6.099864083091331,19.49305064559546
-10.84538885625338,-6.426081846739381,18.72861552880616
-10.991086686313416,-4.993186172677461,19.252362958272517
-8.72895850490086,-4.27546074853945,18.44890602551341
-6.483052439537154,-7.176042934617515,16.3043089828456
-7.209004899611429,-6.392548910907495,14.522764741041003
-5.3829906159788505,-5.35353059062763,14.140888503588695
-4.708542010654193,-4.89261311530723,14.320679939944867
-4.664519499255272,-5.156164916793664,13.463334215861977
-4.471251069604387,-4.9888174035426545,12.38553884610331
-1.9389471199942678,-3.1638070564827827,8.113208114597798
-2.16316934643754,-4.667875058213336,8.65546505251504
-0.2010231054067358,-6.23491853090241,8.607009564533232
0.25730774588618355,-6.730429004344963,5.166614339583829
3.8183533872218702,-6.247240532353025,7.005182687298957
1.4536351347935763,-7.423064628848046,5.625568243305731
5.034444020668862,-4.869020512924708,4.036414987971747
4.432412900553712,-5.894133727789311,2.759679446047861
4.2928998631510895,-6.150215122795526,1.0432046752454651
7.55543948816992,-3.291247825798104,0.38777424780751646
8.383088950463584,-4.292445881134839,0.22141489250236612
8.926227767473899,-4.786315394158069,-2.0445182173613716
9.944170894415846,-4.163817133625049,-2.5458914815267866
11.399814741457503,-2.049065827387749,-3.884822436480467
12.388904806259843,-4.38933181848025,-5.960172166749013
13.899960313161772,-4.738351107027068,-6.261473748734648
16.119583149475844,-5.3039762515003135,-6.225293062436206
17.084417625340155,-3.3661409349150277,-7.193279545935515
-17.370067486976343,-4.287074509276597,22.89052880305726
-14.551651491323145,-4.55719558978254,23.37036881836253
-14.484481625868126,-5.009204292740781,23.425234869264262
-13.257303438943694,-3.1779151552687273,21.97648408096565
-11.918478475979025,-5.084457087367341,21.484433402235837
-12.089418209625984,-4.597568438300569,18.61440045100558
-11.998683908732648,-4.048838495098988,16.902066920185995
-8.66747961558774,-3.9869365905181735,16.65917094221635
-7.667499693109046,-3.7371863330855026,15.756594940165272
-7.903891875089867,-6.308522005005669,14.122415278301874
-7.767251159589951,-3.5164373268496467,11.742513515806941
-6.40832535542189,-4.107043166590273,12.583824851939976
-5.199183477795531,-5.290529257522908,12.643644233869622
-4.7733770391706205,-3.664252786910029,10.671560194047961
-3.398237103847461,-2.97342574081443,9.56327695814397
-1.8483240606882636,-2.9825086454483105,8.582674720632305
0.5092063050011392,-4.05098438280001,7.0044684531674966
-0.0017039286078162075,-4.789372961713183,7.095117048340228
2.43328887241381,-4.159707594558923,5.0662418281914015
2.4158837585976816,-3.027936684621624,4.6128085341429665
5.101456550826072,-4.978655291828085,4.354389553217702
3.298392454887349,-5.46441954837109,1.7617954708562706
5.639496240225178,-5.259432442307149,0.26347275447176854
7.207916151337361,-3.3978569106124974,1.102733357989706
8.541367786806314,-4.352847707598607,-0.18938461476530777
10.24565446531479,-3.8246770852713263,-2.448019852335721
11.38082573955701,-2.2681979710472238,-2.550153432553347
10.542807915975954,-3.573448872457336,-3.836011954809525
11.03910478340692,-5.801873328450203,-4.572121834980327
11.994720502687038,-3.597385640708732,-5.969452372457377
15.307650159603584,-3.5621295943568536,-9.452717068351378
15.276522455933451,-5.002494941858299,-7.317730975063496
-16.70961481923266,-3.5071526997791147,23.547368158723344
-16.12082585811186,-2.396192301213718,20.90174544564158
-14.986072617608304,-2.8445419985415237,22.13754558896882
-15.019652816930522,-4.81879126976015,20.95098729443796
-13.900264627604441,-4.088170550872093,19.899920248507673
-9.176842042976052,-2.9016109223813915,17.428028783141826
-9.19200052298607,-3.640237750202585,16.510746451554766
-11.204542959907444,-3.3546159769744053,16.82608231107294
-7.469462425741245,-5.611738536901681,16.31448580323052
-6.99824225628233,-2.0405418890014415,14.580221615926842
-5.724519616400191,-3.5399217876793196,13.226708013381433
-3.843034785880774,-2.4306038024814853,11.327969227026218
-4.499950664887796,-1.915500981083056,10.327217664586202
-3.6198512690449087,-4.14937425436619,8.307029362550947
-2.7612161048407518,-1.250973067946004,7.686136437577945
0.3296746204175163,-3.749749395196178,7.916607770760553
-0.6473477044925422,-5.531681214229922,6.48857930691299
2.3033113628075195,-3.4378703599956677,5.188671878743242
0.973227201930617,-4.556930162447683,5.060611334047056
2.2706733373964383,-3.273866783742986,3.636891315211255
4.353894959237619,-2.130671434039736,2.0122621869586874
7.242356227710506,-3.4778520237141106,2.055966289805869
6.700665633330277,-1.8025479474649642,0.11525314550018834
7.631673758165005,-2.784174322965307,-1.5243998137023533
9.523270632884511,-4.247258588878616,-1.6726316180588925
8.921046995810388,-1.7285761384251368,-2.8667408469721205
9.308547140179307,-4.1890990132102655,-4.375194111028781
9.195302554853424,-5.473715302348809,-6.598026028038337
13.086864026021505,-2.5554966896272022,-7.234863584342444
12.702128255425226,-2.3209386582086347,-8.358416747186045
15.179572245698276,-3.5776038131485617,-9.959221816126753
13.97688983266337,-3.2680789479089607,-9.030823497168422
-15.485979802971325,-2.7681814276282526,23.410883863522436
-14.771529703425742,-3.4232911322513457,20.961274720843644
-15.041197781027488,-3.3292604589231383,18.342272114171255
-13.175598881974592,-2.6021565685980668,18.344079536209907
-11.23471464182014,-2.2963126748342617,19.44819337138451
-11.0987230556497,-0.8607326823093184,16.80416245048365
-10.227445920420143,-3.678874695609003,15.481253526729644
-10.584418043258056,-1.2101217388247014,15.26173075833263
-8.472078474783547,-1.964392815391867,13.761208528880696
-6.47544939111679,-1.2230686429278896,13.303742898589567
-7.717502892323171,-3.318811567709117,10.817852117356097
-6.224672431552129,-2.936619997268917,9.743090628158853
-4.65227225915015,-2.4405446059762244,9.636907707769025
-1.1216123402405336,-2.6423352625330487,9.271349678092227
-1.5166447872074875,-3.6571378611668397,7.333827592274003
-1.5657050433453623,-2.6872602321971155,5.030476464232144
-1.418305643180288,-2.846381594320134,6.66531922260614
0.11585117067230521,-0.6818641664816569,3.478129256138797
3.6302884389635057,-1.484895568541737,2.4846199876151713
3.1626577840225534,-2.48020713635845,3.078268448778664
3.959018539398167,-1.8595156956635108,1.6334095911006927
5.199027204104602,-2.9805523408764367,0.3507095940098632
7.8300614682311,-1.8569894378947405,-1.466783613605132
8.644094091092644,-2.512158098217606,-1.6102742046937077
9.278977826796025,-1.8197576703688794,-2.9513794954038306
9.390514396537556,-1.4186875076352266,-6.242662981669012
10.432155127215308,-1.8957860591910196,-6.118718423039398
10.239147695485634,-1.4828479615169863,-5.896656220951487
13.273686256720724,-1.250668131721815,-7.601802510340559
14.920954438984953,-1.7226455106163592,-7.400794089022035
12.99295258129608,-2.01197342096184,-11.12591642545334
15.147145166373408,-1.4741371477457117,-9.968097167979298
-16.22246519487676,-2.038883565006744,22.42284772876185
-15.09599961076722,-2.4569733330983934,20.171009279756188
-14.015628333814375,-0.9515507752633771,19.876345362248728
-14.61823934278926,-1.9236313570549197,17.892374748424412
-13.011725140070357,-1.5899839667865203,16.459748691161487
-11.83203803497974,-2.6981857878069575,17.142483778867216
-11.649753263268245,-0.7437749498928891,14.436669151594431
-8.964728961928337,-0.7729156826261695,13.44208461035022
-7.696292358944549,-2.4754831238561406,14.22163535997938
-8.875555164778996,-0.8380277646300679,11.62501658684383
-7.321457504609313,-1.259089981237572,9.947026445562072
-6.014366066070459,-2.81111498681553,9.140107144497598
-3.87222372303782,-1.5049101378140486,7.98743833279824
-3.5741580396684602,-0.9645656687541116,7.673388176323733
-0.6553281746973736,-0.9285093068081066,5.997412674520871
-0.484492823831725,-2.1072008901833685,5.8164101293193555
0.3881106563692639,-2.205271166857121,4.1196342853394174
0.8517449525645087,-0.7422863935475013,2.413504584365242
2.981235193061149,-0.30464009507001344,2.3893584162465342
4.477059910187885,-0.6608893966277487,-0.8476192389715003
5.133893836230087,0.9970066923342493,0.6937094715358998
5.396510401725016,-2.2426100604119594,-0.5277432867898364
6.296755787225788,-0.8277224809694823,-1.2978875714109765
6.958500263115496,-1.813702742085052,-2.933865098631365
9.718577375725205,-2.5044379896246225,-3.3384344559867247
11.3698504371287,-1.2271626904258344,-5.21171499350273
11.230695187071447,-2.1190332733873403,-6.58862137692102
11.543383365281946,-1.078637424165522,-7.098187385404995
12.027476510243472,-1.0951650176737666,-9.734520380381896
11.41769324232081,-0.5531288368028406,-9.49787510815679
14.426576880981663,-0.7403973727814073,-10.342236675300601
14.921716314191626,-2.3033110589036196,-13.704899539491594
-16.612167588096334,-0.4118799780855342,19.55863630107704
-16.234129807331243,0.6646661448404663,18.12562172736282
-14.035994507830717,-2.4304851454307936,17.7320520392588
-14.198473383741304,-2.5859387451521076,18.563033155824012
-12.668649505354516,-0.1826777851975706,16.938166873439314
-10.738955357356188,0.17442267150180546,14.919559467052384
-11.202843180933503,-0.4513320413553659,14.175101063615587
-9.403682239426832,-2.363642906911861,13.645912033197567
-8.058848966327616,-0.12753579579783092,10.607909683618725
-7.219071037448389,-1.230628776046319,12.1045525500999
-7.182809208992599,-0.8571474031638899,9.423265466734598
-6.426628744681684,-1.6837003125380496,8.402840308617709
-4.820138645694257,0.4923106927560139,7.793720206541546
-2.4662509553044836,0.08106230182207719,5.440197220542926
-1.4371338703806458,0.4801434741117818,4.818541515103961
-2.854233962444313,0.7987515897346742,4.358927958324274
-0.6156202938994922,1.9487266245865715,4.489467897562879
2.265936194967823,0.9076632342069333,3.1835738292549447
1.82755553331849,0.44231317405173054,1.8122816611650467
3.1497539619906796,-0.3012886261004047,1.098656175081616
4.284842848379362,-0.8024794144288845,-0.8016581414412439
4.971736930708848,-1.0373358502136352,-1.7785724681990367
4.516311535920996,-0.10372892512993209,-3.4897642211514115
5.982542366570601,0.8252409736474167,-4.294386754219307
6.18654951388419,-1.3072837412226503,-4.251225973092813
8.557620886826788,0.5408367410979822,-6.276016065176716
10.32176874871996,0.9302775376739136,-8.328060292651996
9.856235344076007,0.027146793184743362,-8.58000772718813
14.142924309210336,-0.3222556684499952,-9.031236462016324
11.811509129513219,0.412254216140163,-10.356967930342778
14.582575603758345,-0.33024463263012527,-10.34474048074677
14.806710227016914,1.2912540446517082,-13.060052020356345
-18.016880494045342,-1.5537560792709988,20.8348082338969
-16.086916469517515,-1.0951683157023748,17.570378981820653
-15.039702291469508,-2.548754847664177,15.591698337407319
-15.07005536178258,0.6531895016386638,17.442829449898763
-12.639674561012937,-0.33811695218271537,16.545904420441218
-10.897202964622391,0.16978561610627593,14.596953569622714
-11.097373101882342,-0.24682406525345368,12.181684404399101
-8.649586328471898,0.19284166619630808,11.863379572872452
-8.280712948208722,-0.34625071919526695,9.41528736078897
-7.11797711966517,0.01709752257535241,9.69622184422519
-5.875538398367194,1.4297601526267214,9.528262689221703
-7.098831481886205,-1.1136607187331338,6.597883787592053
-5.458538125505445,1.0596854560013078,6.570348404102912
-3.881060827220696,1.3887568997936173,3.884596366412574
-0.9687387126646203,-0.35186224622584716,4.240999520117576
-1.117401333588302,2.4338603947857584,3.3123739845912743
0.22952083475439164,-0.03974295548565843,2.637962877959386
1.924719410004982,-0.6947808653083767,1.225283024637704
1.934202041621278,2.3380963078651833,1.3209417237954457
3.3571658675358114,-0.45116140994386567,0.9601756975670128
4.941539999092673,-0.18396824153278601,-1.3568534934342749
4.422111842760444,0.02189281775609697,-4.170792428045411
7.861831695824673,0.2073206132054647,-4.8677608436885675
7.8907003344091535,1.6139709250632026,-6.679484980707775
7.073912028103381,1.2337568507940957,-4.951161691479961
11.031292816167516,2.4309260534520694,-7.550099305701858
10.609944485866194,1.6029087633140584,-7.782343115126358
11.85873000723967,-0.01576431603731654,-8.90586061192173
14.579181520951629,0.5670372549079108,-8.3523490215061
13.848053747188228,1.560703489920852,-10.092686749033914
15.394237125171609,0.9858552898500392,-10.84199012698599
14.349062726130011,0.09341403943252247,-14.037099623680247
-15.341544331970185,2.1246472153984364,18.824257730003804
-14.71571138050945,1.0910332541589223,16.877784972905058
-17.048855207756006,0.16028458224835185,15.861200738233451
-15.64359612463981,2.0893292511473947,15.268007361266358
-12.622101226367773,1.3023396474789735,15.654336469090776
-9.711131724807887,1.99368444467741,13.64627424551273
-11.633253841307102,0.7356144558151921,13.650607892921002
-9.9802861208161,2.380761186046461,11.18415412103616
-8.431652955346106,2.779088976749624,10.648159294455423
-6.678244875875455,1.2547608006811257,7.937144362608674
-6.725527894079134,1.4340526590653362,7.371027600081812
-5.047092886281568,0.283866943864753,7.524094941259111
-4.866210367621886,1.1462461371798662,7.477623763158287
-2.738471354001306,0.6680807756150366,4.710510986111005
-0.6122438394204273,2.054363627946455,2.9545164026439936
-1.5280083023802908,2.2298157357409187,2.3479047167339147
1.4296009372668292,0.4736621501199926,1.873481516086082
-0.2029392360761042,1.1906018340879787,2.090862815068905
1.0741792326910085,0.1238139990184608,-0.7507067741995883
2.402079373229556,0.026811662103792377,-0.5477605958043208
4.194844595978274,0.2278252471065283,-0.8688380791274353
4.903816649491787,2.613460923813311,-3.8751607518305535
8.603304382267437,0.48217123360397385,-3.9834845400938983
7.931444157704505,3.443544777480846,-5.324143455331603
8.065585678009713,2.214785147918404,-6.632105851128106
8.768990313711548,0.9726610969977827,-9.791445668579295
8.745522711469484,2.5712989276100475,-10.445648484715736
12.013302196977763,3.596891743955969,-8.673316609391506
11.637633765875746,1.4048958995444942,-10.816743563956322
14.68104584822559,1.3461744992774747,-12.3218753210166
15.500481909790578,2.06501857366876,-13.927820378162407
15.214872428206906,2.1044908869765515,-15.69409327353432
-16.41965479547928,4.004332563251353,16.573742087529308
-15.098860931325927,2.7190822320032146,16.99963635316412
-12.693632349020172,3.069169009246473,15.860701342266465
-13.599525434671031,2.509087681166865,13.340293801113607
-13.315153477395139,3.610569291170778,13.584443895844823
-10.774329894498726,1.723717359835748,11.697775074755043
-11.757272382342604,3.2083051065640458,12.143472045635903
-9.43329578850212,2.371340776613136,11.113370373622669
-7.8379648225208856,1.381664883994195,8.934347199832093
-9.330893908192378,3.1171446745050866,8.360906417025278
-5.883284683958886,2.564871801594676,7.043264430002119
-4.620033362191156,1.3330552703434089,4.333777998048854
-2.695063112095662,1.7288563386305469,5.780064507130989
-2.418797781434105,3.299206970801702,4.217168114384039
-3.559752295560699,2.353274891479913,2.455500166202788
-2.762326211812859,1.5747318776100867,1.27076962426613
-1.4968067527083946,1.447999131678083,1.2709034595590365
0.6008907626891544,2.118839685787679,0.4536027594015025
0.71098305110184,2.4645023817726335,-1.6060303522349664
3.7488556109689384,2.1075525801560784,-4.461674211101543
4.299265746406326,2.0172314291786355,-3.482488457855491
5.3102199197361015,3.2247572961135003,-5.67894889183853
6.217522147543212,5.0444696935589,-6.628952943921418
7.982020535703025,2.7244339960760793,-7.431181666494477
8.27692757500252,3.0788734425739994,-7.0786952018848375
10.39115569834726,2.2477203235376972,-10.154983438413833
9.94302408078662,1.3377558823012687,-11.63892948073422
10.199832932460511,3.77542198796548,-11.443744893606953
12.519490059365655,1.999703038272505,-12.028382357551193
14.510307396742897,3.7666324048054927,-14.08009826551175
14.683181295470753,3.036455759746627,-12.90916113314969
15.171703573121668,2.624169384026895,-15.19456473184498
-16.325141015415152,0.8326572280695022,16.163690825424986
-14.1679897762655,1.4891460294380316,14.284052164306207
-13.845055717174018,2.9694099861447385,15.02918462405381
-13.740743831669834,2.7143196633852105,13.724478279680255
-13.002318140588976,1.5038768113498149,12.723933575455593
-12.928760863167428,3.0074153674779227,10.224355712910189
-10.247105691364315,4.379634046102973,10.793879215110918
-9.332189822678673,3.400658583399016,10.597501622705478
-7.921662031813421,2.196639599100913,8.307259479782738
-6.950054922658779,3.3291240978658987,6.719984445799458
-5.167033944449256,5.02206547126248,7.407866590350259
-5.219406426643593,1.1626587798117316,4.890590534780197
-2.910638462944362,1.9238463284106755,3.8711720070749087
-2.7313701077009864,3.137992208031775,3.9452786207264583
-2.5628187035852683,2.0999070112198766,2.170163108949279
-2.575268814161165,2.9998305898990707,0.1900277118633571
-1.1660824601851074,3.1785583054264595,-0.11049547369114648
1.131601598488244,2.548838979221978,-1.2572097662943997
3.2642856442899646,3.354695566887888,-2.7368158455177625
0.26291224897127874,4.113992522135505,-3.1171464590440707
5.223727450473387,1.183041810706062,-4.650526530967276
3.821402187251411,4.259731933800807,-7.542718591052823
5.975197410734778,3.255376340188713,-8.056970030527914
8.041300496069985,3.1946432699167695,-7.5538861680013145
7.87670196443612,5.1602042308990494,-8.989175984969739
10.750637657343306,3.555064244367936,-9.168857750046216
8.790844927462933,3.531325462308953,-11.121578699671055
10.396211728149085,3.088303716852262,-11.674702241417624
12.021938374641175,3.7183513630845724,-13.484077850229843
13.678458498812068,5.518791269689986,-14.607193989564124
15.414628935272315,3.5190985913905206,-14.403728502634376
16.261191516929486,5.137467086409113,-16.33980236999953
-15.887183053063984,3.052356959986425,13.581932802965913
-15.32614705414597,3.726141012268929,15.5045315463507
-14.272336867829639,3.126173916318086,14.889972335869096
-12.726768810915003,1.8874062968727263,13.327201585716562
-12.542815456108778,2.9501560985768838,9.377850961798483
-9.742457252228347,2.3477525690368948,10.312982712259211
-11.512892296933714,3.352474795581539,8.84510186234248
-9.799124376467674,3.3804993908724468,9.497868015116302
-9.308660490644709,5.531614391281115,7.9138399951307115
-5.4784339557954125,4.556377809519061,4.95479823657969
-7.999476607939213,4.986570362754494,5.37701465492683
-3.6886923771205087,2.8442201306786026,5.004105963916941
-2.89442747305917,3.4769394573965675,4.437117330724553
-3.372036301402792,4.3632940744342665,1.3702874684059643
-1.7325235393388185,3.975327791739528,0.18471804921902324
-0.6127403207413925,3.635571418400514,-0.37041538029616194
-0.14885102845734083,4.22129242432289,-1.784854341449204
0.9732530032206907,4.015510795975058,-1.3926606116814164
0.703616422933772,2.398013726042562,-3.880719923424144
4.604763430100103,3.7522053964164797,-5.67572262271265
4.254126970681305,5.590310097636911,-4.695015211194698
6.248175500124997,6.112827978670184,-5.469953286057798
5.4944871507705875,4.351236916214356,-8.18469835685597
7.445065702664314,2.6468489835132307,-7.965985566398223
7.7826913795063675,3.586530476606496,-10.60541403583609
8.103800794999431,3.5997034308466094,-11.675663621252239
9.645417430595842,4.53038647372749,-12.07958281283565
11.884013833673512,5.2730824609010645,-12.193312756522525
14.636314794013073,6.555988794454374,-14.269062439333418
13.057893922099764,3.075337857808132,-14.66108998749058
13.596468628766385,4.129733705819176,-17.30035886638994
15.50125318453591,4.931451373585067,-16.640542661911077
-17.39863936954871,5.546268366021291,14.665141994902086
-15.311527583814197,4.151078400149257,13.9127220057628
-15.503700286063633,6.29013292750261,12.00477047445705
-13.986386266286408,4.908285295913681,9.722858056602497
-12.607786068520756,5.036872859890688,10.2562271762951
-12.205339787031908,5.219606883439528,11.159040940736224
-9.958161847950896,5.038003532114475,7.827983124489879
-9.819088722877822,6.704304126416188,7.614099832309118
-7.900940532460314,3.812217042905858,5.835746341199332
-8.67799054500676,4.9798142774731184,4.218189346078587
-5.297156333046303,5.077856532826923,4.363637404242424
-3.956922445504506,7.558199129729396,3.786892989169295
-4.590558120639513,8.360337132188969,1.9421651629184558
-2.8407450276141546,4.923404714786301,3.38123752370217
-2.083058387125031,5.510698696081964,0.25604325082896484
-1.687546964497333,4.779796187120937,-3.9957075229732646
-0.6457053976066439,5.296458368029641,-1.1707403792992817
0.004265419273585147,5.63588383207367,-3.373717184682124
3.2582827184167718,5.452407453011393,-3.4204281165390125
4.1318464669685255,6.328764258850142,-5.382177706062656
4.224531131315469,6.123215325753753,-6.123203372959885
6.065931692283715,5.631268010191589,-8.652239231975702
6.075965897804336,4.093228588758303,-9.400874945142935
4.994099883446383,3.9128060364852697,-9.864204107187636
8.311230801974355,6.681572693361866,-10.987023618483086
9.211443929068622,4.8371898871675585,-10.508464832994745
10.039613428039953,6.028818345398618,-13.0848204768536
12.224570479588621,4.574821325812227,-15.682732347903855
11.53749807263571,5.017918218102587,-15.336811368321976
13.401935615914356,4.968259629115637,-14.952291491432646
14.379729225382693,5.379519329591541,-17.639959351927754
16.372516083266323,4.2912475557812,-21.011235583843597
-17.28028251389821,3.25936912970119,14.186184579477716
-14.27086060371212,6.1323978995127595,13.858469665412851
-12.986404782492414,5.690338577014954,13.399260236365695
-11.748096136268789,5.032882893906869,9.744077249840878
-12.019189782184746,4.082306500466212,9.610309625810311
-10.650749111716017,6.158899348593266,8.921661786043938
-10.592097479378605,6.037022006135413,8.080403277137929
-9.03137674505087,6.353540073524985,5.004962008362215
-8.8052043133343,5.395081798912537,5.296656558175724
-7.9365430318591415,5.28309969711631,3.643512361589365
-5.908565298585544,4.334653919085758,2.161233858607821
-3.342052649433706,3.8630261136489463,3.46662546237307
-3.062920663680238,6.173930763137133,0.978162381217436
-2.2572441823929816,6.276762705711819,0.45252750878652437
-3.950914898741434,3.8694302468827013,-0.3559780472417424
-0.5701326227700196,6.422473613273569,-1.7077809349941688
-0.3402777107330213,7.566381280422821,-3.3357882877458866
1.0822871222256398,7.729788004666901,-5.266104097120344
2.6086735690637886,6.577581026321954,-5.216564418224995
3.541488386092828,7.650682302304965,-7.703526416509802
4.376261266981513,5.619406690981205,-7.81613791248301
5.394802090869809,6.46790559599191,-10.223836173826713
5.519363013527219,5.884200927212879,-10.01347035986962
6.66921862659941,8.913664348325934,-11.83731379639034
8.146609097089739,7.899899644878085,-10.987137126642107
10.096477727099941,5.346622205959261,-13.538326039242142
11.294000185122396,6.7795599422271495,-12.166004770424705
11.159453833225935,5.86172602472718,-14.747847128515614
12.487829522111868,4.728351413575448,-14.939362575135547
12.4538210726939,5.218844425643036,-18.313817870010247
13.932511223830295,6.97390626379904,-18.329468239229154
15.66157486101416,6.609320931584294,-21.352363496086586
-16.671209659781365,6.545412259649128,11.98298617204918
-13.126614794243636,8.10125109187539,12.123749431104516
-14.092682981774916,7.026900731304675,9.960307528798571
-15.083710032321134,6.386447826880987,8.00601215586406
-12.977112030942479,7.153934750308739,8.416956316895842
-10.235210195576865,7.559368048161445,7.396227620749589
-9.625753834645865,7.689181629164425,6.029361524904909
-8.638065189956125,6.673028261580732,5.494784821302278
-8.538334952127101,4.243476649283442,5.509873105419481
-7.481654644435312,8.713805297852039,3.506161548781437
-7.045333082529188,6.195039119653762,2.3552215354132744
-6.240304741146526,8.936601263184858,0.3104220438320283
-4.885388862245649,6.167526634769748,-0.843741309968921
-2.5461425193297855,7.608443361678938,-0.8025668575975561
-3.3889227392642356,6.513804038580264,-1.4452534670549289
-0.565745947835053,6.886295639288226,-0.5604142492572786
-1.2156195523511413,6.486247831699277,-3.6505462681224254
0.9843363044409066,8.30399349309923,-6.2548424965239
1.2389777370938013,7.015465920245916,-7.330361932227179
2.365537618013148,5.452582953194583,-6.3590818891852745
4.316195204028325,6.950361212937449,-6.4108977138483905
5.504174180046262,9.261687827550748,-9.564329987754036
5.192859655848132,7.419868472110915,-10.424671863494284
6.67532727884713,7.824820455819805,-12.304374779327805
9.958229827899476,8.480298852788215,-9.818015509708832
8.712793728916877,4.855551260575167,-13.727414555848394
9.439112550584676,7.262925032013653,-14.222885784721639
10.213269285176873,7.190066166439496,-15.548950341811295
13.395844506157697,6.646400099084191,-17.76097239560896
14.839451628682987,7.273962020813791,-19.06498345914666
15.465953719845738,5.133127242246484,-19.89394494723465
14.525835074293452,8.466445215223386,-19.387887293415332
-17.119173184573988,7.1990912305526145,11.279919561047159
-16.41832810006549,7.246230198720201,12.586958400947191
-15.55458624131705,9.084125098846574,10.012184356247973
-13.789516704475234,6.372148539016353,10.172255572100019
-13.10650192581893,8.778619061073636,8.280924393730226
-11.232235642109499,7.254721224286691,5.779104621310684
-7.55106695442568,6.910080657375644,4.674838671091193
-9.030546631582045,8.473541034998627,4.1826316254199485
-9.400753121768599,6.165024555024731,3.2843567161550022
-6.736310621823706,7.710705441696497,-0.09459791427896524
-8.096182678933559,8.66395006876993,3.41140256257087
-5.931268209328687,9.916294341319645,1.2279276122167064
-2.4672872659221508,8.855070712328544,0.19438596171132627
-2.8914797688260174,8.231468848070215,-0.6662802544152779
-2.3822106879506353,7.096066098319611,-3.9559589831583253
-1.8341939739592976,7.54294615700747,-4.060936578446642
1.4053975513072532,9.519208279988174,-5.960987810540036
1.544537696425743,6.839553385781359,-6.710887568123589
0.5464268358862434,7.191469852921373,-8.61111687285819
3.0137590581924965,8.496029661800977,-6.126217398277564
4.0110414401168555,6.800046532146657,-7.982230068025995
4.473485310784606,6.3836848588478645,-11.588709073186767
5.86547535471324,8.355013650165441,-12.129508421280978
7.96179650031456,9.594830731320668,-11.623936925735155
7.665463593081323,6.9707936965215485,-15.539923784637033
10.169539847022588,8.019764669101598,-15.251193525421314
12.17174744219837,9.654719824015682,-15.189490556167653
11.800491056470598,7.7605621652273085,-15.915791998984748
11.21666684078092,8.716425500621826,-16.506481397800506
12.38605681508277,7.3216375139903676,-16.79815643678264
15.125035839128772,6.054027553602457,-19.953441663333038
15.485115923763901,7.959102595737837,-20.049546226289852
-16.907511810564863,9.41081499542972,10.650489594505085
-16.695324706797955,6.993936177541184,9.073864125890566
-14.63329831750663,6.799946732798192,8.944239866690205
-13.87962155085148,9.752715460015184,8.364993991519812
-10.593972246369166,9.380498617353258,7.329096072463442
-11.444210297365723,10.143854409376921,5.271487000879268
-10.179161077819273,8.436121167020751,5.88295417703727
-9.379967538574356,8.183883918189977,3.454495804490257
-8.324073450937892,9.732365031097768,2.5984524190559593
-7.13537774564756,8.9540153359935,1.5747962272326566
-6.4189724778786585,9.277580910066344,0.0350985770775874
-4.398796073261943,8.893281351730085,-1.5843996889607714
-3.95104131189526,10.818175108771943,-2.368488980067028
-3.2799250314270867,8.71617555554638,-3.7801610128033563
-0.22005763323253746,9.416335850642485,-4.583902139083574
-0.252107279118572,8.439355684974856,-2.666643286729471
-0.5884101600828349,10.021113337241445,-7.122766355551287
0.8669992682048129,8.990590123483498,-7.3135600438698045
2.8145161001993166,7.039509573278948,-7.7145111351608175
4.148143581146327,7.4344401009679535,-7.724425828069132
4.48385591184888,9.655429808855706,-10.220647074517204
5.507282317991921,7.9295590096289486,-11.128175881022187
5.518246759499354,8.570122230744673,-13.369948576580825
7.6921868173751955,9.192146534292478,-14.187775469430123
7.751171007015778,10.584904076998463,-13.669591278040262
9.338177646562672,9.32659142088843,-15.829585741659491
9.692123116538697,9.675099937608055,-17.147944192383985
12.265139343218111,9.399490682538387,-15.791396174274912
12.709597180705648,9.79906188850485,-18.492814029809065
12.815370997629543,8.664162816581861,-20.152127778366644
13.11119697973781,11.56771997443448,-19.464550616808246
16.39297358252223,10.002045696043723,-21.21536305292922
-16.080266067568978,10.18891293927607,10.273995344604112
-15.051149246492123,9.413204512273074,7.249241336979822
-14.038068250776407,9.287895387680159,7.977075535608212
-14.510848808027774,9.821050513393509,8.143522341214705
-10.72653645953063,10.102269562940297,6.400872230479129
-10.617315878641433,9.81649744294519,4.304475512913642
-10.515760933046293,9.920036139579048,2.790835369309047
-8.692083809681245,9.049460113962372,2.4906479209611065
-9.27404829361834,9.572174184971054,1.1967695810362506
-6.073846662669769,9.967129108126327,-0.6793821831537048
-6.91398300319787,7.773228864870064,-0.9515272516437998
-4.330212701116318,9.051905113873133,-0.8806992709349067
-2.3571449570241105,9.558892090277226,-3.057795339309743
-3.836641179841083,10.321954262647195,-3.3908219938557735
-5.0945391683702095,10.057841659082069,-3.7503887760498915
-2.0598879208367156,8.515801358320706,-5.4670885284348
-0.9435837160898096,8.98169045676971,-6.495629708721396
0.7150993697824177,9.45233022455446,-7.954499025330293
0.8004036184127197,10.620751696954299,-10.33251173104017
2.4593256181124943,9.20179299875501,-10.036945777412619
3.559614783838101,10.869981862016603,-8.105827756289889
5.735457166216145,10.109391745668411,-11.673748797277396
6.316802402646895,10.106929365612887,-11.55684949477967
6.649371848399247,9.566918226603438,-13.780748598908644
8.275852303828193,11.926306533245578,-13.026586146353054
9.044634520702257,9.147266567011599,-16.490266013482888
11.88500256503578,11.984404146607185,-19.725584469621314
10.679181755877382,10.81480976091276,-18.6061689679379
13.625677889017815,11.538170190161606,-18.733040609487592
14.526942725129055,10.405745150616523,-20.22529817255946
13.780974881895528,10.041483594920118,-21.91325973429518
17.1079827248128,8.78783663291508,-22.311084171247074
-16.53493887979609,10.242847068166983,10.456214402477944
-17.027593285634712,10.522353925389199,7.201568689424237
-14.43354051956443,9.648218062177037,7.727698248812947
-14.190268665535763,9.457551384216181,6.280298521307296
-11.692857625912342,11.04022041603858,4.94739203314228
-12.008809589520713,9.63107535597187,4.649552499630883
-9.55962925957523,9.932393452176646,1.9669017011306007
-9.393693248067796,9.573774069050986,1.1132087104215578
-10.768707318127332,9.12273447046561,1.6803307994836354
-7.9593989020424445,11.583507495032686,1.6592217582556446
-7.862400125966056,11.415242743334321,-1.299292154882109
-5.579748627541219,11.942868660275817,-3.6501793980385457
-3.5661385215577988,10.348926482520884,-5.014665513331781
-3.1119888165340464,9.755972722368165,-4.320886056356743
-2.3411790303185294,9.02161368938478,-5.096544082704464
-0.9698561732258795,11.73631093748316,-7.435758437241068
-0.13735654042041623,10.74334074339024,-6.86644759923841
1.4397324761664265,12.04873327379629,-8.682940122218586
1.2265954122166947,9.879430930772969,-12.02991478944271
3.982309158574809,11.197877303459059,-11.638550290386036
2.802744620710703,11.725441937327396,-11.195076077173841
5.286674983116468,12.190054661968732,-13.836671344725715
4.9669552195753095,11.743371883354097,-12.664352403548648
6.844086689103865,13.039454761431857,-15.10139333137832
8.756999970227913,9.632224206437256,-18.29400600211472
9.730787156097831,11.135207048290376,-17.990901817675798
10.112833208755221,9.925352533832784,-18.200151027136965
12.69624185084234,10.486384976766226,-18.749266746380478
11.658630344996528,9.087232171169372,-21.343387757906914
14.298253319167715,12.109508261348807,-22.450986171703885
13.42953278159691,11.801121078059653,-23.197649505889196
14.86498216486248,11.780792864874451,-22.029069231790846
-16.114026284631457,12.505260576056937,7.881655613509624
-17.3074498989223,10.73436881428266,5.194274935450912
-12.587573821688117,10.732961795991146,6.851909674586578
-13.40414191165234,10.072072090504722,4.303135816099427
-11.92965072131045,12.413780455958566,1.5044580900890376
-11.155465660966938,12.294035623256969,3.275785498586135
-11.228831215323744,11.251400406043945,2.359644277432601
-7.034591345424928,11.8041611150783,1.8767363404179955
-9.592667599425189,12.263679566314698,-2.305122657918675
-7.02595542236413,11.855487680266668,-2.7089624409270687
-6.936239784101126,10.57334339492529,-0.8314127889329659
-6.724378883628708,12.189313564149419,-2.636771980338075
-4.553940687467702,10.977874013588472,-2.9646242077525775
-2.1174762078024676,12.804461868781907,-4.987348446710924
-1.7426811811497265,12.044788127105015,-8.388676328637105
-0.4385751020756774,12.549227302454348,-8.269465450470058
-2.1618950473501006,11.936449333949136,-7.404716525039955
1.2397812354845639,11.313593578849714,-10.340901148565127
1.6828835042770651,10.063395825449371,-11.270910740902323
1.8203722411178074,13.082703200722564,-12.945667209172537
3.8706619379356875,12.208793872134624,-12.70608768666027
4.177502380846291,10.59319273747622,-13.288324222167633
5.244797475206015,9.482521517709744,-15.181095222258746
9.048316179685468,10.53364135126205,-16.307040337338634
8.439819210269768,12.241531243597628,-17.485950737822755
8.213246269278867,12.519608144809949,-18.346322209299583
11.008207102145523,13.612455213347609,-19.193867116578698
10.73443540101614,11.968523147146842,-18.240487325706425
11.973335892809763,10.733351247049102,-20.544998787361095
13.479102124846802,13.10612464137837,-22.407648461640836
15.967860529926424,11.474797696882677,-23.98550730110301
14.347628908462177,14.6819430800003,-23.620642339786382
-16.599382374293334,10.22678563937084,6.210566941639064
-13.869645499410446,11.544697352630951,5.916884799930032
-13.859803691936193,13.189175528701877,6.343190304428749
-13.639298966139675,13.347871450365405,4.462544772583611
-11.405682850447247,11.625682848692469,3.549523768080242
-11.881322183391646,13.52006398757254,1.0768814799909407
-10.56686827073074,10.412449161313901,2.4408256817471656
-8.804707777580488,9.949041610695534,0.7183630032777131
-6.87084306177506,13.839496810733555,-1.2511415609382586
-6.806614424394361,12.472581270880617,-2.6447045481686695
-6.0207844062590805,12.435031461340776,-3.151056769397773
-4.985006225777524,11.702330841921013,-5.891833590394635
-3.813650760095599,12.307805694547902,-4.218526254070518
-3.5648915201413036,11.468722488575388,-7.895041634559732
-2.8292830131157567,10.726686862054205,-8.855502172717571
-0.005280412943809765,12.099228365504793,-8.503111371923442
0.7368436799855078,13.987569253015343,-9.577968206519987
0.5097479306064043,12.063476015472272,-11.158568896170928
3.550241442407085,10.465313443212398,-12.305107972672989
2.620768093829218,12.699179658748763,-13.681600542926473
4.6780562657056945,12.284850745890145,-12.16899475958664
4.069323822966128,12.346833210871301,-14.756799147344871
5.318821507956186,10.906696350286897,-15.423211640053351
5.735421569737244,12.229914762732427,-18.783142085757458
8.65347770039622,13.087929926110393,-18.650760621089923
10.115342341357888,13.410874904204803,-18.93248283144576
8.661656021561358,12.589760191446938,-19.89190941708152
11.259973807091647,12.548434377330002,-20.48656006558342
12.435040362029365,13.044392672679386,-20.389986928090607
12.279418992051468,11.251462132921146,-21.394404028270255
14.840338334555328,13.369058008029507,-25.238095307956414
14.64180148813139,13.961855323228237,-25.77078825530751
-15.642016690383741,12.0653103310679,6.218880418918739
-14.855605850731944,12.630146949989026,5.0238188290374985
-13.22056175258856,11.585301038703152,4.3620642644173016
-12.708945087135165,13.49361014863397,4.213312988586262
-13.009038082512026,11.899082095123212,2.226760465581458
-10.96711731323732,11.72527863110423,2.3223830537183527
-10.982061474826738,14.654058595219897,2.051508387852461
-10.274890038449545,13.124285893264494,-0.930817587146021
-9.12872620833805,14.637008958268392,-1.4631812516285607
-7.153538637337578,13.256106555851346,-1.4258979931943057
-6.800257631585621,14.461896553136027,-3.1989246820137702
-4.285540005573654,12.788859440468958,-6.918556489867075
-3.1438769502732393,12.011954039033066,-6.346306093931648
-3.128933431331786,13.41309404059684,-7.9364709305506045
-4.057562657966192,13.518121111081507,-8.175194536276718
-0.4158270887892561,13.937256010511438,-10.310661985556608
0.3434825030838835,13.565429092764527,-11.356169389908981
1.584937139363762,11.398878358100472,-9.53698063518921
1.190269898494946,11.826263028266368,-12.804075849244471
3.6052705590565415,14.388717133626901,-14.339073309445673
5.751773016741912,15.116922042119034,-14.588312674122017
5.822843960491867,13.298008935999905,-16.967831281397043
6.023686112948985,12.615592245206006,-15.41330138645116
6.273418764401203,13.78487581945059,-17.642834201634667
7.750699034035869,14.411298409032911,-16.913218959253527
9.276228030757574,12.755428786408906,-19.598506468875044
9.599855137563148,13.696907395316988,-21.749087164833018
11.285068110386533,14.003474768129113,-24.123850246136858
12.01568143406725,13.799124358148783,-23.09516112664759
14.692388756090093,15.402061339881591,-23.567641232203947
15.090505693530096,15.61280010015769,-24.872546989682565
15.91557098304247,13.052082265533889,-26.668500260240982
-16.949467825671583,14.466966389830061,5.738046734582067
-14.810464060496948,13.098500934986218,3.7748263726782514
-15.167560197063594,15.77014991301884,3.5395993145174622
-11.823453419046531,14.048305780323473,2.2944405899927016
-14.215785070771075,15.544263135497332,2.0742887669348766
-11.646434938055213,15.662143474155759,-0.09637020928815862
-9.911401315152538,15.075726148307242,-0.007693582895269113
0.0,0.0,3.0
