-4999.709146762222,-4999.165377427969,10003.65723005066
-4688.061523512716,-4991.0576657541405,9680.741229370935
-4375.1801635656,-4980.207202384522,9359.955364946545
-4062.9478985705496,-4970.3809640381905,9037.938176534539
-3749.4503451429923,-4960.494000694934,8712.186721726608
-3439.640918259367,-4949.783575343685,8391.643394096689
-3124.724066595919,-4941.75301921375,8067.762989038558
-2812.683649633023,-4931.39576338169,7745.017175557831
-2500.161913939572,-4923.611469363356,7426.494101868427
-2187.756968749754,-4913.030766093554,7103.748230925394
-1875.1447809077893,-4900.710612778338,6780.513666235819
-1562.3332522100193,-4893.951766785136,6457.680880212986
-1252.006167491252,-4883.45927901798,6135.238959601688
-937.4525440320695,-4874.551379960046,5814.005295857754
-626.1699324577804,-4864.1896480287205,5490.748098278052
-313.76373261184307,-4851.71860918032,5170.262606909121
-0.8310481098018516,-4842.864920504558,4846.038481890279
314.2751887761182,-4835.357740577961,4524.334451842924
624.9916365573861,-4823.305513782835,4203.192468061483
936.6083636992149,-4813.41318893104,3880.8548561657904
1249.862920479633,-4805.472054348079,3559.7838003283887
1563.0290671106518,-4794.282366120206,3236.268607229928
1874.7006427145482,-4784.566642902073,2913.247364262314
2186.2773604301406,-4775.990577903921,2592.1256919893945
2499.3880942109145,-4767.259678951673,2269.8673031358544
2812.714417145727,-4755.860319212824,1946.477881115174
3125.9266414917915,-4745.632982459051,1623.5558807817297
3436.9163323113867,-4735.794447773506,1301.733296971506
3748.753476051266,-4727.396918458761,979.3055210174824
4063.6257781703625,-4716.794665968174,656.3483944430843
4376.039587593697,-4707.887183258879,335.5151300066402
4687.898966318297,-4696.4683525724395,13.401699457856457
-4999.414549494446,-4687.6923520770815,9692.14917297136
-4686.897984531749,-4677.233112196184,9367.643881227688
-4375.551628563726,-4666.992223200001,9045.85487609969
-4061.547443895078,-4658.8679869343,8724.263704827763
-3749.6955725031253,-4648.700220616743,8402.084275909137
-3437.3717149715258,-4637.4367977096845,8079.3956930173445
-3126.8712519605688,-4629.316108211119,7756.329232470398
-2811.6148568762196,-4618.744947750852,7434.7452261017415
-2500.8013524814087,-4607.1134359069665,7112.428211900688
-2186.7214088718906,-4598.003272863159,6789.583912363218
-1875.8563577376274,-4590.130349623872,6467.440720819281
-1562.9209940607145,-4579.450309526568,6145.3578730108475
-1250.8071639534655,-4570.879195683911,5822.879199837077
-937.3352742203874,-4561.676623537937,5501.95140762375
-623.3266494564942,-4549.942088592133,5180.728733541842
-311.41909999785526,-4541.846952311066,4856.944000229074
-0.3829856330921125,-4530.54300750112,4532.481465773501
313.6291780619103,-4520.413871802109,4213.207976054937
624.8943719363502,-4511.929828119173,3888.920322816876
936.922243636125,-4501.271639447685,3568.5237268139217
1250.6530755273975,-4490.894897745589,3245.2996665512924
1563.0684285058016,-4483.282985701648,2922.2086455259837
1875.5430221752035,-4474.403967264411,2600.038257421864
2187.869534027115,-4461.9897509733255,2279.613169334418
2501.643546115913,-4452.210544166945,1954.8499225488263
2812.3867359355404,-4442.767372185612,1632.0664394910384
3124.3203383377563,-4433.046619427754,1312.5033241907493
3439.9677189134345,-4423.9731226160575,989.6276663653621
3749.548549605533,-4415.001236252975,668.0961087137046
4062.4666749899193,-4405.6288178247905,345.1513969432557
4375.383818388666,-4394.596014886235,23.685541626443026
4687.682747587942,-4384.826886052069,-298.47889355323724
-4999.531204777544,-4375.007667937171,9378.028238560297
-4688.846871374273,-4365.283385389837,9057.402067882767
-4375.665095942349,-4354.91329226523,8733.359065536722
-4062.0207654558844,-4344.86198693023,8411.232917725347
-3750.6098786946254,-4336.74612853908,8089.027303828304
-3437.7075297536057,-4328.131091181613,7765.470447821082
-3124.6531213706803,-4318.401565682679,7443.625109352619
-2811.23712892365,-4306.524462775844,7122.722084456271
-2501.355269189128,-4297.016132109418,6799.927659287529
-2186.7582395591135,-4287.120386339187,6478.147784530296
-1875.0812286362766,-4277.186538105047,6155.719935680564
-1562.1368081155715,-4267.166772712699,5831.602973439792
-1249.6041279032236,-4260.103793140176,5511.053753815925
-937.7567851935208,-4248.004397796324,5188.775442792742
-625.2049468200037,-4240.60226234029,4867.986607296007
-313.4692059239415,-4228.952139136365,4543.684648607175
1.6393647438487495,-4220.667212917001,4221.046804209207
313.95970440885486,-4208.536148561778,3899.566703286701
622.9375554955445,-4200.870718814114,3576.5366595102123
937.2821299306976,-4189.750266505719,3255.4058488137175
1248.7463251508589,-4179.730633125608,2931.4607316737247
1563.0993010004001,-4169.438496631473,2610.5713141696824
1873.6953860965207,-4161.469456594253,2287.7541948348335
2187.4856071026397,-4151.0471268085275,1964.7971136249166
2500.011723441402,-4139.481734655032,1644.6268508955716
2811.1028846217773,-4131.558912457283,1322.533733946501
3126.2589015857243,-4120.110301345341,999.4482201790702
3437.197043144476,-4111.0576825727685,676.5516747777313
3750.487171447993,-4102.510591335428,355.0368958425022
4062.135638607115,-4089.9428826492745,33.354089936426035
4375.147782204477,-4082.7285803791287,-288.6308455554995
4688.151060242869,-4073.0578055618253,-613.6096595724515
-5000.813908879923,-4062.7227720383826,9065.79931830078
-4688.238210387013,-4054.1268488963306,8742.246561150607
-4375.322234365477,-4042.7397883184335,8421.760924786375
-4063.625993380556,-4033.810051194047,8097.598718009244
-3749.760553249583,-4024.5048653213644,7774.967696628021
-3437.247664056948,-4012.465810207356,7454.7107569908085
-3125.8770060900183,-4003.7253953015847,7132.098323646038
-2813.263526065537,-3995.5031359950617,6809.087119429736
-2500.529366000044,-3984.8290136139512,6488.659269078253
-2186.2856613258605,-3975.718079738274,6164.839247376088
-1876.325342236004,-3963.7082322368283,5841.49219154343
-1562.0797045072102,-3955.3166587311634,5521.341732546535
-1250.2641818096004,-3945.520156320411,5197.508515472072
-936.8928579693726,-3935.5386159311743,4875.512725166177
-624.3462162986932,-3926.667016656872,4552.080823733585
-311.25985085877346,-3916.9649500422647,4232.769871012897
-0.6308555768732182,-3906.8804909180076,3910.6701851640296
311.6194248805376,-3895.4781338297403,3587.12307860997
625.2015827567545,-3887.988345819376,3264.2977497407223
936.9139260956134,-3876.689515040328,2942.749956000499
1250.2035332533997,-3868.184658863891,2620.025786043814
1561.4926008063046,-3857.5099188471954,2297.792878482151
1875.998875659173,-3849.081432964754,1975.5586714974806
2188.1777067816142,-3838.783027788201,1653.0387529693637
2499.730334149589,-3828.1570541481933,1331.234912602098
2812.9708115802937,-3819.580814025715,1008.4882020349818
3124.952829261313,-3807.9623291536905,686.2398624292324
3439.131131946048,-3798.419683052911,364.6658214637421
3750.0555967528344,-3790.358802666474,43.662356663335395
4060.0738160396936,-3780.6778852517236,-280.7020545869237
4375.585845786246,-3769.413772694169,-602.6987702157845
4686.373215961099,-3759.963507092654,-924.1811154963153
-4999.531694225864,-3751.384970213698,8752.389885512319
-4687.743476846839,-3738.9507101523186,8431.214826135803
-4374.85134081587,-3730.1069848644684,8108.747858144954
-4061.9380754199647,-3720.398701525132,7785.6143830253695
-3750.711351794353,-3711.39098639494,7463.91722175099
-3436.9502814262423,-3699.914855357593,7142.548216808893
-3123.768095947016,-3691.2960132722646,6820.3137474140685
-2812.550950911273,-3681.4156019166107,6497.692775001579
-2500.1855469632364,-3672.6294352291216,6175.322118078509
-2187.133452712893,-3661.535738055894,5853.144804548196
-1875.1246879926052,-3652.7309489269346,5530.704751006426
-1561.1397623512398,-3642.221418161735,5207.820166997199
-1250.0979658380757,-3633.1815638421067,4886.890619730288
-939.000759682702,-3623.1565433262535,4562.687224135976
-624.0959650135424,-3613.967574376059,4240.133042789004
-312.7471397193317,-3601.33451880725,3918.817631555681
0.9595697204140956,-3594.096752905905,3596.9006438223555
313.9516760528141,-3583.5257145085807,3273.158177516053
625.1835659922375,-3575.050710524336,2951.6542777894783
938.9293635832706,-3564.0316931566845,2630.5679105180166
1251.5268134622816,-3553.5567395372013,2306.989319215346
1562.1978022250541,-3544.9375094012557,1984.20199046747
1875.2636998597875,-3534.695825770763,1663.0403087278444
2188.9613781766093,-3525.6627427494736,1342.0850167294634
2499.290003164259,-3514.88895171773,1019.2125749364922
2813.377405199809,-3505.656760171172,695.5731963112103
3124.29164092731,-3494.2458634364066,376.1962829527128
3437.5657700221345,-3485.3644593629024,51.64478751170954
3751.327614965664,-3475.260980467093,-268.57385596105195
4061.756998772614,-3467.241151846604,-592.6378438658093
4375.291817593222,-3456.00925309959,-914.1223891737666
4688.306773656357,-3446.9012858283636,-1237.2213216777009
-5000.369894216993,-3438.49412562645,8439.305434854568
-4686.019557380607,-3427.580686030044,8118.241960774286
-4373.668725249743,-3418.3422245201177,7795.640764813463
-4062.604353404186,-3407.4214860281013,7473.456427578176
-3750.9404837078278,-3398.5945886574254,7151.0401504762585
-3435.293834790555,-3389.133249503272,6828.10191516558
-3124.806981039771,-3379.2152878018387,6507.417126152199
-2809.270319375521,-3370.2374957318348,6185.982975913151
-2500.8038692690375,-3360.4572137239206,5862.444107383172
-2188.3732477128365,-3351.381909463662,5538.836816997924
-1875.5324168202555,-3339.4725019296206,5217.381344209192
-1560.9758192876973,-3330.0754088540925,4893.727296056003
-1251.1713883550062,-3321.775814312864,4573.448619336054
-936.9700786065641,-3311.7198149853284,4253.3201863590575
-624.7718209703726,-3301.0858824241805,3930.4476960143647
-310.9327125343832,-3292.0274292361823,3606.5271980734246
0.15227954430075985,-3280.7160269958185,3285.5718583069297
311.3495320893646,-3272.74649047143,2960.88474884538
623.9409639145781,-3261.4671685531553,2640.240402858752
937.78971699904,-3250.4564907454564,2316.006966120959
1249.4855600063704,-3242.641969101306,1994.7812247915078
1564.0590677535145,-3233.301976464973,1670.4414455963395
1875.6870191819112,-3221.7846760734487,1350.749948572651
2186.4407233713023,-3212.7829115192817,1028.6205686317185
2498.7158715715445,-3204.198103358859,704.5058919011714
2811.9675123146676,-3192.847764048167,383.41181288364527
3125.6543614391717,-3183.3392631599104,62.18907429135723
3437.623819243853,-3173.4496288269215,-259.2786341207058
3750.1981933139764,-3161.8499432331273,-582.0615890362859
4062.3595863221885,-3153.7348821013525,-904.9800368211779
4374.4342452779765,-3143.638360390495,-1228.2967093793127
4688.5033854078865,-3135.1728164190226,-1549.9407167940524
-4999.943624197955,-3125.4549900818524,8129.2309093693775
-4687.789470106988,-3114.5032146687618,7805.970254474489
-4373.932378554378,-3104.8737124683503,7483.863228785444
-4063.421504402711,-3095.4990024276112,7161.766067540189
-3748.665089417239,-3085.3178580515987,6838.726308723386
-3437.5416516651144,-3078.987087567397,6517.229607558516
-3125.3132446982086,-3066.7023258010418,6194.9163005036635
-2812.2221528073756,-3056.7028991078687,5872.5923893050485
-2500.427917249691,-3046.285105820896,5549.534991177397
-2185.587676682335,-3037.4248239874864,5227.20437809793
-1873.0537088461592,-3028.775834106714,4904.704659986937
-1562.2494300238106,-3019.202662970943,4581.374604231446
-1251.1436930394946,-3008.3208316578775,4263.427963195441
-936.7714225274708,-2997.2069945218186,3938.474486611906
-625.0630680761739,-2988.3935761724397,3616.5525266054237
-312.21550452550787,-2978.2785142720354,3292.592542564667
-0.4611645854109278,-2967.0697405875494,2971.5089885807674
312.514751620274,-2959.4708973066795,2649.371994179989
625.1872133628816,-2949.3580580825637,2327.909310330139
936.2969285518429,-2940.2154738637814,2003.7093852585135
1249.8883205230811,-2928.6040072851615,1682.7848735151108
1562.874280256423,-2918.849418411345,1360.3597705042705
1874.5195710303224,-2910.1318820523356,1036.2791937121954
2187.5008508266587,-2900.291239331692,715.379892699084
2500.2857864634575,-2889.4357761977826,393.7882596206317
2813.8091028961353,-2880.4339966885195,69.88615955668291
3125.9658276157693,-2872.345700410832,-251.9711893028011
3439.015995533257,-2861.37398823013,-570.8538270329149
3749.805430488691,-2850.4273745278815,-894.9608026091795
4063.168530594781,-2840.8687072312796,-1219.3064166695665
4374.187539953885,-2830.8635273127197,-1540.0688376904627
4686.964810626068,-2821.5249909949853,-1863.2392556078687
-4999.624120824887,-2813.05852588828,7814.213676440049
-4686.778678907768,-2802.207894837194,7493.319930096492
-4377.100926645621,-2793.078454518008,7170.847291899491
-4063.484352023454,-2783.1715270266122,6848.26998578209
-3751.33614096592,-2775.704216034955,6525.558583200551
-3438.6742204375737,-2764.9702573905056,6203.602307237665
-3125.164712218475,-2754.7232814875533,5883.103410723979
-2813.0052017631397,-2744.066277281454,5560.828492122187
-2499.8131211994532,-2733.890726416036,5238.981134020503
-2187.7056121002583,-2724.434028245011,4917.044026048177
-1873.9067653244256,-2714.190377054155,4593.507499380392
-1561.6324823788364,-2704.6938412836244,4268.819789884606
-1250.8105103216085,-2694.7118410813473,3950.373331798627
-937.4682773597978,-2687.071762966146,3625.2090883472647
-626.6730067705176,-2676.6508021602126,3303.5844019468914
-312.3159618804867,-2665.8763460605296,2982.5596538176587
-0.8132510892984702,-2657.1411247201227,2659.8463889527848
312.0764889045973,-2646.0180278368566,2336.8300369520553
624.1689488877114,-2636.099015779483,2014.3725996209635
937.2063459023543,-2627.143189739709,1693.0184655018475
1250.2937248815026,-2617.7638539667996,1369.0726806283976
1564.4165761008758,-2608.614850571583,1047.7461330318367
1876.5786738161157,-2596.6620121243172,725.8995003578892
2187.2266893774686,-2589.2923213637973,401.94051488963714
2499.3392682720573,-2577.9257612079728,80.15124484805801
2811.7371920958453,-2568.6944255196354,-240.7064619910761
3125.587784942769,-2559.2995796873,-562.8197413396013
3438.7965536805686,-2549.0097965685654,-884.5071196125692
3749.993683388979,-2538.1276037655493,-1207.648244390334
4061.0968479171065,-2529.570889601693,-1532.0733560155752
4374.313732865542,-2520.981011324078,-1853.638037301293
4686.894183410545,-2509.801923563194,-2174.7307564289626
-5000.325716976939,-2498.4531184826064,7503.220891794653
-4686.405865114592,-2492.436070403182,7183.132385200181
-4374.250288817306,-2479.701329614452,6857.018391362719
-4063.1365619638777,-2469.6990657429683,6534.232270929821
-3750.7330003911707,-2460.8295837247774,6215.0213399291115
-3435.1264032311356,-2450.2208191597974,5891.336372922561
-3124.5537511303496,-2440.4450196936573,5567.700660886799
-2813.158183397455,-2432.02998907441,5246.284192725401
-2500.5502764617704,-2422.2741782802796,4924.407339986557
-2186.94609571583,-2412.213001129795,4603.1019913382015
-1874.7135656730966,-2402.9032428451874,4279.7581590567415
-1562.275212929586,-2391.6954369821365,3956.9415199700497
-1249.3215102144316,-2383.0547626734206,3636.6703725661055
-935.7062017629065,-2371.8038804521034,3314.1765717582202
-626.2473707739234,-2362.9177497779697,2991.3080053136787
-313.1505825968157,-2352.2243171985774,2670.357892831756
-0.3789400642475522,-2343.7883213328373,2345.185670392089
312.44082827114113,-2335.035817770198,2024.4279157652234
623.9750811169915,-2323.7184455328847,1701.412506890616
936.6088451398658,-2315.3476020241437,1381.3903210210212
1249.4319505787546,-2305.561279986002,1056.7149200676326
1560.8250312760288,-2294.325592169512,736.2174380226043
1875.6356819179487,-2285.1150841910785,414.352934604059
2187.655555198373,-2275.5765575286373,91.03266367198219
2500.5825680037556,-2266.7443991284954,-230.53097055474453
2812.739495345665,-2255.941769994416,-553.4840127562468
3122.701162123866,-2247.0249339837305,-874.585733150954
3436.6119063600304,-2235.379051069301,-1199.6755134162465
3750.112536389852,-2225.6902271069057,-1519.7048157258478
4062.227738690504,-2215.2361124775543,-1841.6939767254753
4374.75920912071,-2208.5459312592925,-2165.2739114233887
4687.570741675419,-2196.8779008442984,-2487.7890295171023
-4999.421660639083,-2186.8580100577537,7192.2529620600035
-4686.853861660214,-2177.6160443782987,6867.460083041452
-4375.251809692783,-2169.428064055086,6545.734981951036
-4060.4416491221064,-2160.27763819595,6224.299108144878
-3748.741151031015,-2148.9435114052008,5903.81004700908
-3438.7328163127863,-2137.2830002938067,5579.770288221719
-3124.270915443841,-2129.267298648556,5255.773629450279
-2814.278808465573,-2119.8075570843976,4934.1572140195685
-2499.332496337927,-2108.7744236313847,4612.243145033665
-2187.8424589302067,-2100.8411581157275,4290.2250167604225
-1874.4839675285086,-2090.5062788762593,3968.4310935817784
-1561.9823087907785,-2081.0369333104013,3646.4960796941855
-1249.4017400930961,-2070.395783568991,3323.241106997737
-938.3020283965873,-2061.9460326149638,3002.6433883548007
-624.7234008769275,-2050.606538574425,2679.490571238585
-312.7561836518474,-2040.8530860288063,2353.8479114318625
0.4807970019490504,-2030.3825699869935,2033.572260396875
312.4159707310252,-2021.0854243712542,1712.4464835764875
625.8344211211005,-2010.772837686319,1391.6256130180643
938.0963910093628,-2002.8982742350763,1068.0771763212165
1249.736889943074,-1990.7458422920297,744.3299789204366
1562.9818476075043,-1984.3363950396033,422.39960812664236
1876.0480224700932,-1972.4283829713117,101.42113134488282
2187.3179834652115,-1962.2916251089646,-219.71266061983013
2500.462913460229,-1955.041882377359,-544.7589378813947
2812.1484150960478,-1942.4713738093913,-866.8836639352212
3125.653395314948,-1932.4778297128635,-1187.6200316373165
3438.499290541558,-1922.8816059628655,-1511.1436631738281
3749.3691321623746,-1914.6658981135267,-1834.423189895466
4062.0917824094577,-1904.7580992301657,-2154.5943203259844
4375.924792269714,-1895.6975977418372,-2476.9329159249055
4686.306122429454,-1882.7122250289872,-2800.4039711617233
-5001.185782948322,-1875.653824253009,6878.48750658936
-4687.453461794759,-1865.4858506625337,6556.95763119339
-4374.572146508549,-1854.1924086204604,6233.322295113963
-4062.0908083497798,-1846.8053818548174,5910.938052471961
-3751.459495923642,-1836.540232944718,5587.696414290014
-3436.6416148723656,-1826.7747149266904,5265.758956715913
-3127.5655471564028,-1815.882868603916,4945.055482253454
-2811.948034603515,-1806.9582944612791,4621.281665200259
-2500.1699059420926,-1796.6080111256576,4300.452619125094
-2186.5620059763824,-1788.6586316375565,3976.9849949370196
-1873.6231839031539,-1777.1839697285036,3655.3679177352096
-1562.638547977975,-1764.4840549961216,3335.648846023944
-1250.3600200579583,-1757.9018917314468,3013.423314935635
-935.3610148949706,-1748.7906433843846,2687.1836982143286
-623.5243001410583,-1738.1223827667575,2366.9641774556903
-311.6856304835961,-1727.7000385597473,2045.4119151757911
-1.3490376212979138,-1718.1665636861237,1721.7185441059892
311.3900116920658,-1708.4347713614775,1399.6555955683384
625.3761575741521,-1699.4782824355175,1077.071224235871
937.3743710412103,-1690.332411168198,754.5003086039791
1250.661490064678,-1679.7620146481695,432.5752957900563
1563.2940225736222,-1669.7756904238377,110.64146348137352
1875.3353253461007,-1659.0129626747225,-211.38634169680492
2188.753834194436,-1650.7491241011362,-536.0421933232388
2498.0767644049506,-1640.111602132843,-857.3261061104397
2811.388674661976,-1632.3418446483308,-1177.7053297893933
3125.597402912947,-1619.8059956880727,-1500.3258848688138
3437.3785433624453,-1612.4688443941343,-1823.581969830592
3750.600206657266,-1601.1904639024733,-2142.8882482422337
4063.14014661539,-1591.4952195303379,-2467.7328103888126
4375.810465370043,-1582.3268223302432,-2789.799837971303
4687.590254689642,-1575.0600217267115,-3111.7417748447183
-4999.928901901803,-1562.6265539310723,6565.966992945495
-4686.717683056762,-1553.5227191178649,6242.749707815355
-4374.119842247238,-1542.3958518459722,5922.397233407217
-4063.6661662420943,-1535.9266302004175,5599.752621352757
-3750.5410717215645,-1523.5536423463038,5277.250300966265
-3435.8114024445536,-1511.503242357304,4955.699696044105
-3125.376013062278,-1503.4131571628432,4630.173424914256
-2812.5104784463765,-1494.3164351463963,4310.52711014861
-2499.202764233808,-1483.6263033644564,3986.4006024918945
-2186.503248927921,-1475.1122508389565,3665.786037189528
-1874.895042870195,-1464.6535721289886,3342.0379610136756
-1562.560974436638,-1455.030696980473,3020.4460615971534
-1248.3709279020102,-1444.1173451694824,2698.8017354652934
-938.7894954460372,-1436.0337535528438,2375.4324165678277
-624.4340008919421,-1424.0278541076764,2053.196999559097
-310.40655827145713,-1415.3561220147976,1732.4392792195042
0.3367532762889152,-1405.6067433647133,1408.0663033859355
311.7304699282353,-1394.2074166940936,1088.45210399624
624.6838365239846,-1384.8828805981848,764.5106499162697
937.4578808967605,-1376.4837579419004,442.9300181987637
1249.2201768435502,-1368.1441071672484,118.97461366866514
1560.8953799073502,-1357.4465845874188,-201.99479648459425
1875.5396200092312,-1348.0000454980097,-523.6507357946524
2187.0286787737873,-1338.5836511624216,-844.8467821344427
2500.3074354879427,-1329.0833968571033,-1168.113885139531
2812.182546643033,-1318.1657136476135,-1490.7912859169644
3122.8705933052456,-1309.1771245289015,-1813.625913662332
3437.1574291596094,-1296.7003225139313,-2137.5139903873883
3751.897149433368,-1289.3255179962473,-2458.8299367990194
4063.1132384461735,-1278.4676868818885,-2782.044640343523
4376.310820136882,-1270.3472396070586,-3103.8080597730627
4687.793158936299,-1259.2511228377432,-3426.292831437489
-5001.217887371537,-1249.8877601179843,6253.787208883401
-4686.410144183147,-1241.1975465693602,5930.418780441795
-4373.790954107826,-1229.9127377589105,5608.980333929245
-4064.7934665665534,-1220.602156969873,5286.687323713074
-3749.7019813555567,-1211.0910890391726,4962.045948919178
-3439.3481179922583,-1200.8015745067023,4641.239344378351
-3126.3873685802314,-1191.7641786312852,4320.134585921303
-2812.933908167409,-1180.3109585292452,3997.4030519302555
-2501.9696126353356,-1170.674996659122,3675.01363569836
-2187.296327606907,-1162.1610110261024,3352.053508716717
-1873.0006793402854,-1153.1882188615225,3029.12565308688
-1561.6157823004892,-1142.0591310830096,2707.948721228092
-1251.1982010424135,-1133.4511125366926,2385.4336379202755
-937.3692659004635,-1124.1103070846536,2063.56844348228
-626.0574462991598,-1113.0010765801771,1742.4575419975536
-312.55394218283834,-1104.5565212532285,1419.5341342851486
2.235414917268306,-1095.0848882522823,1096.649145988184
312.75652059453716,-1083.51777234331,775.1721441966355
625.22443846859,-1073.0092045739066,451.4691338057625
936.5772281991033,-1063.6566340028808,131.7641632528793
1248.4939512955643,-1054.5886264540286,-190.62106504853904
1562.7357105598921,-1043.9676426710316,-514.2284254803722
1874.100512063622,-1034.9543012273057,-836.7755754475179
2187.477623746772,-1024.5259866546746,-1159.7509726210178
2499.2316948432604,-1015.5366851690527,-1481.435664591343
2810.9040935431512,-1004.2425041159476,-1803.632620119134
3123.479183733591,-996.3314836192387,-2125.2685599683755
3437.608144115032,-986.1651209622222,-2448.8583297338887
3749.2718464252457,-976.1832890629164,-2769.476683094358
4063.3583548994898,-967.5444066075262,-3092.419102197437
4375.033295540396,-956.6016554997901,-3416.7701555571953
4685.745183184201,-948.5769928174843,-3738.0599997890004
-5000.474574447177,-938.9586575063068,5939.64664172888
-4686.940939307945,-928.4567032471283,5620.049031903989
-4375.58412841693,-918.6187247040143,5295.9407048858075
-4063.028686363722,-907.5245405549613,4974.4440346659385
-3749.19992742524,-901.4066738674665,4650.553676369039
-3438.117342131601,-888.3040015152994,4330.141488929687
-3126.587901820765,-876.655363357356,4005.9384904511426
-2813.2854751708346,-869.1960214614197,3683.6553894311164
-2499.5555201635993,-858.2517142558588,3363.1612148753147
-2188.759112277145,-847.4898878558864,3038.436490495153
-1875.5191119515248,-839.7030283033422,2718.1310758513378
-1560.708363187965,-828.094728960575,2396.747397271282
-1250.0802849344432,-821.3338591792376,2073.45942729323
-937.7994369082996,-808.3963067593464,1752.3056782446204
-625.2061954152691,-800.7386084403935,1428.2315916626412
-313.18688212887236,-791.2925259105924,1105.6841766825155
-2.232839667726265,-780.819806574169,784.0651916169329
311.17805791955493,-770.7871105192478,462.43190169794525
624.3549952840805,-763.5630598956851,140.09008350411943
939.1732716738661,-752.031524633849,-181.92180842175915
1249.9811864099531,-742.551724929292,-505.0078928180876
1562.964756560976,-733.1667239468445,-825.8416828408662
1876.3024964705044,-721.8681620478761,-1148.3455558695791
2186.4032957224417,-713.2466220779489,-1471.517519769181
2499.0917125052797,-703.3093467175714,-1793.9654546244062
2813.850727122283,-692.8308768475392,-2116.1698273155093
3125.9537951648863,-683.2342948432278,-2439.669743017565
3439.06655854376,-674.8185885491827,-2759.3119545055138
3749.3293771530753,-663.2417490853129,-3083.9833711051406
4063.6132400069964,-655.46874602823,-3404.5747791160748
4374.468437060922,-644.6515708062233,-3728.682734085246
4688.372412023754,-635.1488344144261,-4048.0879098843075
-4998.926222709863,-624.499672025616,5629.728184073425
-4686.62719334801,-614.2863800583667,5305.702253070394
-4374.383529243814,-605.2387798426646,4984.265031259788
-4062.3394118652764,-596.1176974833182,4661.072363249735
-3747.8439336604006,-584.0015587639728,4339.214195962405
-3434.8284280224766,-575.9114978504657,4016.4978811600936
-3124.236543416313,-565.6364399791045,3697.028824397296
-2813.7654428450337,-555.6130893843712,3372.465315233683
-2500.168362645445,-545.6560475345011,3049.3618973267953
-2187.3204492437385,-535.2944385143498,2726.895070422299
-1875.9441128035521,-529.1658674298108,2403.5155267195496
-1561.6623863780003,-517.9031482174628,2083.675825483944
-1249.9598815253032,-506.8623375799035,1760.2902551432624
-936.5428222460787,-498.18724234105434,1439.6643229180786
-623.6599089269511,-488.48067676684167,1116.598638339282
-313.31887402908427,-476.8835330466719,796.0344232165362
0.554550147272658,-467.8471571710871,470.6698973336728
314.7987765664158,-459.4336091782363,148.78373111200617
623.9548702005771,-450.10080788579126,-173.6064199990601
937.9665161662906,-440.96193323424745,-494.75263058824396
1249.6472893621221,-430.3593351213925,-816.7562160261648
1562.3195045432333,-419.49576648404957,-1139.8602403990553
1875.993816636522,-409.42698151755457,-1460.786862821056
2186.174739497826,-400.9699621495247,-1783.8568475532363
2499.9940142565965,-388.872268784783,-2107.048070323119
2814.5224097295973,-381.71966910970104,-2429.687693422558
3125.5458117002077,-370.07857799400716,-2751.195177910536
3438.1965467340606,-362.25552435383537,-3072.1400199725167
3750.353536458504,-350.72541190406815,-3395.8405987969286
4063.4814441409794,-340.08152275767844,-3716.817887103913
4373.1196829440105,-332.6486148308005,-4039.19198377988
4687.991722513982,-322.9466915299685,-4362.844708472521
-5000.771155375287,-311.9668234048028,5315.8332983822675
-4685.719037323212,-303.2639403850495,4992.983202458585
-4375.308584899668,-294.6082543737986,4670.561902243962
-4060.954188777396,-283.8759907264374,4348.777025773544
-3751.6992981839744,-273.777668787638,4027.0686778549834
-3437.2066150913797,-264.3305123326106,3701.8973655480063
-3126.487720955919,-252.3726404918935,3381.929833519417
-2811.638625312427,-244.8694522883857,3059.1287403176857
-2499.355044156505,-233.15344905425317,2737.288886174671
-2188.9031276750875,-223.50860136648666,2414.320046717569
-1874.0996230882818,-215.2802978301855,2091.322385396993
-1561.931826344692,-205.16530528421072,1769.9834242344955
-1249.191575452447,-194.8939972032899,1450.9235696405153
-935.5945791843193,-184.01635898201005,1125.0242843500293
-626.7908122552698,-176.54817770588966,804.0455518039444
-314.5251406669355,-165.824424476822,482.15269103508615
0.27141377096262026,-156.56415178536707,160.0541713858079
311.74465391162175,-146.80285998155728,-161.98525414928113
625.5118871298141,-138.09693573567432,-484.5435266201724
935.7106973878882,-127.53425483433104,-807.104896200712
1250.2088563290176,-116.64446625411588,-1129.342051796846
1562.132788905577,-105.97204728785323,-1453.1660486101373
1875.3287206804841,-98.03555419025597,-1776.0424251913992
2186.6977133449805,-88.45182629342477,-2097.7661816742084
2499.8544660809257,-77.23436333402223,-2418.681316175795
2812.662127922706,-68.84151475805021,-2741.22188527472
3125.9912774474224,-57.20899799462876,-3063.8312895634785
3436.9555388977524,-48.70906310903124,-3385.0253376015703
3749.1661633866456,-39.526845244957066,-3708.0323185586853
4063.284317046806,-29.663145220671197,-4029.5809436801233
4374.643744573973,-21.418842199333053,-4351.897203576946
4688.97213332336,-9.570468093584367,-4674.464505868311
-5001.2372441936395,-2.3770419355651353,5004.193255338907
-4687.128871061488,7.6265647826837375,4681.322168767652
-4375.192469778169,20.031653263606806,4357.608868437904
-4062.2644715208803,28.97099607948273,4035.3269673260884
-3749.202894605961,40.76914446403042,3714.7828958516257
-3437.5151434201784,47.09827839628268,3390.7031284887985
-3123.0085454848095,58.08350651901728,3069.7213071220604
-2812.3391774040465,70.50628550625264,2745.6406618521282
-2499.4280162269138,78.00097513636248,2422.890524463458
-2187.818704966318,86.72042664276445,2102.5075574964008
-1874.2700130920578,97.27651560310987,1780.1582811799956
-1562.9436230428498,108.1049653757193,1457.1513898946293
-1249.1276050654233,117.0854739150239,1133.3914565937941
-938.6829974106397,126.58782556941155,814.0425982638491
-625.2041593079222,138.85224790638154,491.93379396830477
-312.50058046949584,146.37836740870492,169.99174108801174
-0.046912646562455,155.41480649813545,-154.3224940308696
312.36768771814775,165.74267859539762,-474.74557013722944
624.7621054157771,174.4565485135391,-799.1529741342848
937.1191634126726,184.15637378955614,-1118.194999838904
1249.0209051606507,195.52831019849674,-1440.7466341658312
1562.992628588349,205.31006858996665,-1763.706921784129
1875.6963996946647,213.5599934178066,-2085.6629023058754
2186.957880139808,225.73877960329946,-2406.265236089003
2500.1040706585304,234.39514262090844,-2731.5005155458643
2811.75001783331,244.9031460746927,-3053.485530211317
3124.00223928846,255.87865877320047,-3377.2478569893265
3439.2748572419237,264.3464241349644,-3698.441730117939
3749.164807385504,272.93803688494427,-4020.8612139781526
4061.470325326555,283.840526965674,-4341.678404891103
4374.340498649905,291.33219626875814,-4663.022025112961
4686.79752579033,302.39189400788433,-4986.687734534157
-4999.521951251838,312.4033546157537,4690.63803917769
-4686.953001763674,321.89252919757485,4368.6821469825445
-4375.283127426085,331.9380024384515,4046.686452195401
-4063.3916012244645,341.5828196795382,3725.4120052125745
-3751.545096291448,350.7323835462736,3400.445375148804
-3437.1025947142116,361.3526574359516,3079.9661696996727
-3124.970249560796,372.84424460454494,2756.8078222404088
-2811.6166292257453,380.34052171680986,2433.643062293167
-2499.026235868244,391.3992863439592,2112.675010810808
-2187.355838130377,400.3175614838375,1790.327571677636
-1875.5336802369281,406.5992696448625,1467.4312099520362
-1563.3333814998277,419.9472648767829,1145.6904328060339
-1249.2514553310468,429.31647495569774,823.7345484755067
-938.0055851590523,438.3200275808861,500.08091938612256
-624.7330308884469,450.78489430032215,180.5536905294999
-311.8627002794708,458.472032978523,-142.97537195744118
0.4416175665436232,468.7621310540461,-464.8280529430032
314.16464692188856,480.2584795451777,-789.3735699701929
624.317424057821,487.5652614728087,-1109.5209013161523
937.7928228497798,497.31737623909885,-1430.1151405039627
1249.898828385026,507.6834527919739,-1755.211193772721
1562.5971157748759,516.1486577604485,-2077.4947328022276
1876.6769867016185,526.7760495067931,-2398.4990311274278
2187.905967111347,537.7072190295103,-2720.8926927876573
2501.175825645519,547.0203822557392,-3045.161986702215
2811.9520309613886,557.8346491204785,-3366.346171784935
3126.0158850526946,566.46124017019,-3687.9444359322283
3439.1789711794017,577.08026389948,-4011.08396021306
3749.6238076865125,586.2621750444839,-4332.0291917980385
4062.5065310933746,595.6695496816125,-4654.936911739564
4375.479778191354,605.2712019723773,-4977.438295408834
4685.250541569688,614.5092261211161,-5301.387416011009
-5000.459605287601,623.7071299592338,4376.123085373367
-4687.106064416679,633.9853153968517,4057.423301216814
-4374.743822312791,643.816834035268,3734.682711915963
-4063.9224626624996,652.6736181871884,3409.742684389009
-3750.6998343411924,664.9285288111149,3090.0342765276014
-3437.1657866267337,672.2780990625762,2766.1704745430648
-3125.635574815131,685.6360420259693,2445.2992518524893
-2812.3627031502315,692.9869682310028,2120.124658524716
-2498.9003524167574,701.6717904103996,1797.8097718344886
-2186.626543708362,714.0659571553329,1478.8986866344676
-1874.1603703126566,723.6886566132921,1154.2045305366005
-1561.7870260735872,732.4224359290873,831.7654818536057
-1251.8161441117265,744.313196764949,509.8927966558818
-937.950724941854,751.973386335477,188.00337284604015
-623.384194877712,760.6143428424235,-132.53613290332137
-312.6944899149113,771.526759129963,-454.9227746856141
0.978723527117443,779.7072857212706,-777.8196298530911
312.53167634532986,792.0863681250083,-1099.8164530969295
624.6079291469468,802.1865931591072,-1422.2051929755078
939.3835121120115,810.3065687638785,-1746.0755773418327
1250.025473278104,818.6434291712746,-2066.8470642214647
1561.4478593254814,830.1110385376879,-2389.79972484366
1875.1247415340586,838.4174002983102,-2710.9778845817264
2187.5187806678246,849.6695335002648,-3034.112901252856
2499.307501282269,859.0075090203894,-3355.133187665212
2811.773537237606,868.9135705118273,-3677.8235763985585
3123.3476451862925,878.916231620135,-4001.315446332793
3437.722769102476,887.936651802413,-4323.790603834628
3749.0720116706375,898.0033171576537,-4644.471020298746
4062.2364289724205,908.4406207808761,-4968.377123565868
4375.589665655842,916.0779839015016,-5289.839318241877
4686.773235957555,926.5351185168025,-5611.203164885558
-5000.429380495858,937.1528703300642,4067.080076180937
-4688.81997852821,946.5326854617753,3741.508762741285
-4374.76248437265,957.8125463829067,3418.8168079633715
-4062.2779463567754,967.2424576281138,3098.7476506758753
-3750.4522058416014,974.2370148911975,2776.964685378914
-3435.6564540089194,986.0278208296078,2454.810587978404
-3125.5486944134905,996.561969456403,2130.4160702707923
-2811.1099513325066,1004.9834054756207,1811.2968140942914
-2500.345006425658,1016.6931481687031,1488.2916809309963
-2188.1839105221497,1025.10458138716,1167.3200408769253
-1874.8045136459984,1033.4293990048873,841.7261207858475
-1561.5067798111513,1047.2712154359651,520.8835472026736
-1249.7228396353275,1053.6498247414613,200.6742661228717
-938.0687502762783,1063.0332579846668,-124.23217254503547
-624.9061154371693,1074.5182186786146,-446.5014727845355
-312.64661197919025,1084.0525645407665,-768.9685648311295
1.8229431775266653,1093.3025252783877,-1090.6975707293564
315.21592092236716,1103.6049003325822,-1412.5219460125006
624.9451356602,1114.0972783088741,-1732.161542329073
937.1945915467011,1122.148679748708,-2058.149300501483
1249.3339259935744,1132.5180017250466,-2381.143704729623
1561.793509767888,1142.6864635244253,-2701.8992265904085
1873.623291076124,1152.4156686586277,-3025.109996081183
2187.2681353603,1162.8694377658576,-3347.642903396659
2501.7729048539613,1171.924534183631,-3668.1764229365813
2814.023166343222,1183.0605495128664,-3990.1618410138244
3123.7142838536292,1190.1074837535245,-4314.461861042054
3437.3478574049636,1199.6568342295852,-4635.844823498587
3751.2410985225506,1210.9956412812903,-4957.84148497845
4061.877224012104,1220.8718609277807,-5279.923006093282
4375.290474791567,1231.3343087624085,-5602.453276341308
4689.655987363554,1240.455077779033,-5925.580763283886
-5000.548049886925,1250.4914646295838,3753.441990314742
-4685.8472926092745,1258.9195705098762,3430.1560143476872
-4374.172387307777,1271.7759197701273,3107.1211945339815
-4064.2074205847225,1280.6477134463587,2787.6911119008732
-3748.01562328846,1288.922954973268,2462.7791851306383
-3438.3111164620555,1298.4339046157968,2143.4713882983747
-3122.918157537282,1308.388475364007,1819.636123550101
-2812.1024582853884,1318.2401047273127,1499.4436074036344
-2498.3060227576902,1329.377231238489,1175.8574200875514
-2186.6539782834207,1337.8835711399686,853.7214833065295
-1874.3311786319416,1346.5247921361163,530.0119196735213
-1562.7113250803259,1357.4352392229976,207.2472875005592
-1252.0172756053528,1367.7272364770483,-114.84496871604607
-937.1658176504957,1376.8709739918086,-436.23818487466343
-624.076827172042,1387.406219576569,-757.5503816353379
-312.90509433460375,1395.1768512042609,-1080.0009800406478
-0.994144741377796,1407.0724459961866,-1403.8104561426233
312.40140739852245,1416.3219257515013,-1725.9015979496637
623.2285598096405,1424.759766718975,-2047.6276485612352
937.7137462866341,1434.0787004363383,-2370.574994627691
1250.7772070847598,1447.041445769242,-2691.165578520567
1561.069100485376,1454.2178045554783,-3013.616634812539
1873.6373787661792,1464.7153190444092,-3338.351856296358
2187.5149798092193,1475.3033247504916,-3658.6971951175383
2500.652151061915,1485.707988819422,-3980.3705940896807
2813.940167991716,1493.5803720378165,-4299.124001541302
3124.488138360668,1505.5233172785,-4625.0159578542825
3438.018391294771,1512.6355045085606,-4947.954545811201
3749.3018048746935,1524.356789468858,-5267.617227273974
4061.5232950359964,1533.0808370837185,-5593.439185154118
4373.798300817189,1542.993198131962,-5914.379878477187
4685.703368706407,1553.5383492157753,-6236.742955109977
-5000.150104645353,1563.1620866257097,3439.490521097653
-4685.755859256377,1572.1342940203067,3118.1716895374875
-4374.321787521281,1581.3273863950094,2796.2558755760465
-4062.3156777519853,1592.2775410497838,2473.7755515229924
-3749.747497135574,1600.8724758968438,2150.860035396485
-3436.686274444524,1611.8159751140108,1829.164124216822
-3123.7642189624053,1621.9878586571679,1506.0480005914706
-2812.830109867369,1631.5598551008252,1185.5161465491879
-2498.8633950368653,1641.6127555018938,862.8787214938062
-2188.231674121887,1651.2099525603708,540.9286262515474
-1875.6925396698168,1661.2647425114149,218.65050829918428
-1562.696667356136,1670.971680014772,-107.34011752537816
-1249.8583736979253,1680.815894080089,-427.28500298994453
-937.7738940601255,1689.172391839373,-748.9267406450216
-624.5972834283306,1699.1894505306116,-1070.8204899739173
-311.8935564006342,1707.667715241497,-1392.749023631174
1.2289228872461306,1717.4516790071177,-1713.0736865341335
313.18601514327605,1728.489159255545,-2036.0012631260356
623.1431282773606,1738.598035580646,-2359.8568670517757
936.366620965098,1747.7302811032139,-2681.9141423814176
1251.3323259070398,1755.8801966686585,-3004.5259040406577
1563.2193351547023,1766.1530045137865,-3328.1825704835915
1872.8716003815748,1776.2699582695363,-3650.277584612498
2187.5853191667607,1784.7266143886416,-3972.7317148575817
2498.873580054508,1795.9106497223138,-4292.722686883897
2812.979703080516,1806.192804289727,-4617.104187719271
3126.3594922942093,1817.7895498027103,-4939.982121640014
3439.7084200792747,1824.3211519462657,-5259.998960210446
3750.811854264031,1835.898990866749,-5582.512821116504
4061.293313187824,1845.8125452540328,-5904.941804703115
4374.625914158578,1856.024841478806,-6227.253534367586
4687.568969517096,1865.9053078711854,-6550.5315791561725
-4999.896660079259,1874.9700855779338,3129.1821547928566
-4688.1060564289,1883.836224339393,2805.8264527832403
-4374.53567010061,1894.878996488467,2482.5429624879407
-4062.324608870684,1903.3552216275668,2161.3238958079296
-3750.1481150514064,1914.9933013419998,1839.007038841062
-3437.7513364219394,1924.8823122558729,1516.001448081087
-3126.429074077947,1932.8465429046478,1193.9387311631317
-2812.847762006148,1942.5271409785435,873.4351436785361
-2499.4255555167,1953.9711932145235,551.0893907955797
-2187.3645600277305,1962.3056929821312,226.160236003743
-1875.2103811475868,1972.7520931869149,-94.76533970142636
-1561.8543465916746,1982.5455152226268,-416.92284860004844
-1250.6871501978758,1992.3525971965032,-739.8062727135449
-937.7291912144001,2002.3094898169697,-1058.830180908997
-625.656282423761,2011.5462861913427,-1384.4074276349927
-310.71915063683605,2022.912625999424,-1706.9324980626238
1.2131825120885842,2030.0877065440868,-2029.995609164281
311.9214661106173,2041.8783479019514,-2352.827946568777
623.8188701801545,2050.0184901537077,-2673.112814160304
935.2073907964469,2060.125208299263,-2995.8260896588276
1248.1452801181272,2069.0556260606877,-3317.914290476514
1561.268307310471,2080.7785642919116,-3639.604145239705
1875.4662246299754,2088.4851559519143,-3962.658844208649
2186.07077662364,2098.3458788903354,-4283.73091172141
2498.597892091841,2109.7901566684695,-4606.924053712354
2812.1209977701383,2119.1360312642373,-4927.930816293741
3125.435603165659,2129.158782015514,-5252.104130072808
3436.900677292764,2139.1533576807224,-5571.959639987398
3749.8974604039654,2150.499944183087,-5893.0779459084215
4065.1570910156374,2159.189561731561,-6218.714290089378
4375.340435694245,2167.5859082379475,-6538.804753912829
4687.027938620106,2177.856869868292,-6861.951708786802
-5000.6100392712715,2186.832038234992,2815.858671754511
-4688.346085001776,2194.994682223279,2494.118303615515
-4375.966598138686,2207.4720532017313,2170.095017093274
-4063.0073811370016,2215.582225271508,1848.6997929532042
-3749.809950190404,2227.597851666463,1525.6200541629332
-3435.5867627786934,2236.271783566104,1203.5239362018208
-3125.2218053875563,2246.795010861302,881.9437648134783
-2814.764515341511,2256.7607355606365,560.0952930303918
-2498.54907231902,2265.0829915787244,237.78387956915475
-2187.9648019248066,2274.328089084692,-84.36446690975929
-1874.9093161883416,2284.982233524146,-406.71929765514847
-1562.7195412031729,2292.598733727116,-728.3335161326917
-1251.3865139498894,2306.3810945550817,-1052.7693075791656
-937.1165985269848,2314.2525347877768,-1374.391979193063
-624.1234815049512,2325.115541714793,-1695.2250552331889
-313.35151668516954,2335.05867423874,-2017.8202476285173
0.9785752236216013,2343.977030623103,-2340.7607166597145
313.93411262558857,2353.3012527192927,-2662.457919869729
624.9132335009245,2361.606813803447,-2986.0854419114157
935.9134586233039,2373.304895100201,-3308.219896300022
1248.7341005934913,2383.3054155820846,-3629.6104079644733
1561.250903713513,2393.5734452864162,-3954.753188653721
1878.224832383315,2402.517077359881,-4275.046853642513
2186.8892875584434,2411.1979724165367,-4598.366074843628
2500.8670627436913,2422.547325374185,-4918.500644926705
2811.823733837083,2431.532397937098,-5241.870929594685
3125.3576908165737,2439.530305670162,-5561.899230601084
3435.9227797044705,2451.500192832219,-5885.970994688635
3752.3916779942847,2460.8799080301624,-6208.844351289842
4062.662237566063,2472.187691023903,-6530.093843634352
4375.964721922593,2481.9457737429075,-6853.480096673004
4686.512374401108,2489.3945699917476,-7173.851767800643
-4997.810271168773,2499.2758151714784,2504.4287178843815
-4687.0491199616445,2509.2641032037245,2179.4069851898307
-4373.198069535836,2519.1512234293155,1857.234676331071
-4062.9040900650016,2527.0971114753074,1536.0303178379763
-3749.578315781137,2536.9751165762036,1214.1739879463316
-3436.9996883734284,2548.6505065174274,892.4692527254608
-3125.1591119180084,2558.2225363984007,569.8799509010457
-2811.3383378730364,2569.7284842945646,245.5908995223135
-2499.688521191888,2577.8931224473986,-75.76688698880912
-2186.636670175784,2588.0812850080065,-397.19531429048084
-1874.7255310967196,2599.3921206543214,-719.0866525358224
-1561.3079724757783,2607.328040298033,-1041.6217622291633
-1249.3321293946515,2616.5633419592696,-1364.479429352808
-935.9162898449027,2629.3796277554266,-1687.354812011544
-624.5103471272433,2637.2800078402747,-2007.2375860709567
-311.984765141508,2645.613992975185,-2329.5603588110853
0.8527965902772469,2655.2171681076193,-2650.8650734475364
314.03872027752044,2668.0712196584345,-2973.854330877244
624.0924082040287,2674.835060650404,-3297.6010656741673
938.2440613212949,2683.6169996203603,-3620.5108253449935
1251.28873480725,2695.923822717336,-3943.045325405839
1562.5325209883483,2706.133327205416,-4264.421375651132
1875.432276018929,2716.1639939310644,-4588.632719938518
2186.3964986627147,2725.6311462747403,-4908.419600309502
2502.1023782067005,2734.4564611711057,-5231.24114470005
2812.9205256582136,2745.3502691426934,-5553.990343719187
3124.872948921202,2752.707014117308,-5875.959891790051
3437.960084636197,2763.4737571340224,-6198.808319159425
3750.0007921410543,2774.4622384937984,-6522.50689851615
4061.2571178432495,2783.3121138284123,-6843.798631326659
4375.3758813341665,2792.372372528491,-7166.29388369833
4688.896823993557,2802.8553101191533,-7488.3826334525675
-5001.049343188623,2812.6013628704395,2192.178663408491
-4688.158578659477,2822.0104942412568,1868.078627316407
-4375.870670447467,2832.1255943584397,1546.9565379514256
-4062.790621427138,2840.3219063962038,1221.3408771698544
-3751.3687634143957,2851.2677440262914,902.3709753891866
-3437.4299243800483,2862.011453896105,578.3746746539698
-3125.2213659817344,2871.778088404865,254.99193412248232
-2811.767133712979,2879.532979582826,-64.61587121451211
-2502.717384995213,2890.202251935456,-387.7848981956407
-2189.005505662216,2900.388281773265,-709.5745346855946
-1874.181144065566,2911.74897955033,-1033.082128439744
-1562.0003932021202,2920.207360643886,-1355.6104613603839
-1249.3243661854046,2931.802881049072,-1676.0394283128167
-936.9477320321374,2940.7511878010127,-1999.5069955077
-624.7704665584832,2949.1907404332096,-2319.453365712301
-314.76292510764614,2960.426779156651,-2641.1846559869346
1.2287710329668116,2969.833731374798,-2968.1739177055038
311.2780055121113,2978.5837615223645,-3289.689160981468
625.1159897977827,2989.457279429,-3609.9904998249353
938.4638648572756,2999.765102748645,-3931.824444997139
1250.0758437432448,3006.748273899646,-4254.708944949955
1562.8618278016288,3016.864903128316,-4577.462587119592
1874.4636307211538,3025.603866450714,-4898.036421182443
2187.1241292761333,3035.8649970044034,-5221.594716465903
2502.003212728548,3046.9802105046774,-5543.670629990217
2812.9924466880216,3057.6753133520456,-5865.686552853264
3124.071683535265,3065.655722428462,-6189.150134515438
3436.489750893402,3076.169352419357,-6511.021196900515
3750.395205242387,3084.323386159055,-6832.431399333402
4063.944670549335,3096.2306796686303,-7155.1313141359005
4375.738575936272,3105.491656556347,-7479.119300036442
4687.7624560218765,3115.14824225213,-7799.411374663477
-5000.298324561267,3124.5696254045197,1878.456059831444
-4687.7351521574,3136.070613906959,1554.1646513063506
-4374.784740553689,3144.559294007278,1234.16601011375
-4061.7126676046373,3154.8209586534285,911.6124647002392
-3749.399171554798,3164.8339202924035,587.4070854470091
-3437.1532803112145,3174.534041846276,266.44988130320786
-3125.5707182315914,3183.7546776546105,-55.771588067314916
-2812.370819485085,3195.3990647212977,-378.60878782587594
-2502.753223528399,3203.2261068155226,-698.8862340385713
-2187.235553770871,3214.9000696592234,-1022.0809248890273
-1874.2958721576063,3221.786803293041,-1344.6485271659697
-1563.271931591896,3232.517742092145,-1667.9900855614014
-1249.5394876198684,3241.2061410214287,-1990.3582504587391
-938.1158407428463,3251.122217338658,-2311.833689949906
-623.2985569359737,3259.44659744818,-2634.7887264556603
-313.2693026152617,3272.833230470606,-2955.7540435254427
1.4942623040070604,3281.3143568207215,-3277.1573224197423
312.1906864176188,3292.4382590509213,-3601.3798802115302
625.324965364027,3301.6885827509445,-3923.2306058950267
937.7473032306473,3311.4976955476154,-4245.560951078777
1250.8596514150622,3320.0886875049605,-4566.657556497122
1562.1641928845127,3329.617493294351,-4887.695409492571
1875.9512306360316,3340.2087312710087,-5210.58684225429
2189.099684403315,3349.2657930155647,-5532.996570723729
2499.2881558544163,3358.0592813742314,-5857.124367710058
2814.1132228636275,3368.9474332527598,-6176.914616274871
3126.4325154127528,3379.02215226314,-6501.318516659312
3438.791830742454,3387.773228095239,-6822.917472804656
3750.4361763492425,3398.2870082291765,-7145.685833429016
4062.126832484806,3407.247694678339,-7466.818675738008
4375.800982328081,3419.299021207811,-7791.825275772522
4687.959493651178,3426.340330429848,-8114.759496874254
-5000.064161795687,3436.660252093577,1566.2268034485242
-4688.361907583645,3448.0410469945678,1242.0493281641154
-4375.15833431286,3457.3964568829856,921.3431205758794
-4062.9486086542647,3468.154984043549,598.7173511381635
-3748.495191767084,3476.710680375932,276.6488068952405
-3437.3239363696152,3487.4385813169215,-45.863075257139236
-3126.843479431593,3496.3683832218803,-368.63032957105435
-2811.4204914856864,3505.6951638059263,-690.2972351168936
-2498.453466574822,3516.5646916911683,-1013.2825854116455
-2187.202337157464,3525.5982501988383,-1337.4925490886817
-1874.109094462836,3535.460774477328,-1657.4971868976502
-1561.9098784083437,3545.9092279949186,-1980.5925534941273
-1248.3889318663448,3555.165979471078,-2303.6409694470417
-938.2614467289899,3561.851245201391,-2623.8475933960485
-625.4192003502194,3574.7876042648672,-2946.319680101715
-312.33552878003513,3584.764754603238,-3267.970329618923
-1.1245828000890161,3592.821401153742,-3590.975249638929
312.6618817941311,3604.15626466232,-3912.973442824463
625.2802818987824,3613.1735128772243,-4235.364236992142
937.4444313927862,3622.585783513536,-4558.3243455257425
1250.2605033581146,3632.2933113547647,-4879.835995032986
1563.186097347716,3642.0383926165428,-5200.2414390800905
1876.4471879815158,3652.348224922928,-5524.125776319132
2187.2987563248043,3662.093613437443,-5845.889863093736
2498.4186925239355,3669.5023167290506,-6168.6722995079635
2813.508508503206,3681.8614754071045,-6491.211270621664
3125.875974036613,3692.682427336529,-6813.753374866798
3436.3205342334923,3699.7935694456555,-7135.295070181552
3749.6204886210853,3709.2118966869475,-7458.1583568276665
4062.1972457670736,3720.31180095854,-7781.373025772784
4374.964062812643,3731.14032027876,-8102.878018112699
4688.516010388438,3740.046015078767,-8425.363332076233
-5000.191899498276,3749.815410537285,1251.9793207976882
-4687.488749006337,3759.349746850683,931.0480609636244
-4374.915410319176,3769.3956420757245,608.4829220412563
-4062.2280728054966,3779.553198665749,285.51722004655096
-3749.855732705976,3789.6987157125523,-36.78013956368947
-3439.6365879224927,3799.412796777015,-359.03750100865267
-3125.980257869483,3810.018985533035,-683.5988880358108
-2812.3828950512675,3818.4397686364514,-1004.9380220658046
-2501.1646534092342,3828.0288967846636,-1325.2458676100139
-2185.474328650898,3838.3824535642957,-1646.089253250534
-1874.1596381326722,3848.535186977756,-1969.7347666822689
-1562.0584177360781,3857.343578636762,-2291.457153127734
-1250.8213937039325,3868.836735671223,-2613.285721545488
-935.9672097014023,3876.88213691029,-2936.2173983678854
-625.9324044896979,3886.392647381819,-3259.432744215671
-313.3254013017314,3896.0116466273066,-3579.751375274751
0.4576546573117136,3907.0672545005805,-3904.056788768721
311.86766572807284,3915.5871786032576,-4226.4814039754965
623.8847064739429,3924.9629017528223,-4547.712361028432
936.9303506537557,3934.6673098077563,-4869.370987620633
1249.8245539396335,3945.1272154802605,-5189.632381287098
1562.114051447207,3954.4387251320613,-5512.9657321958975
1875.241627156799,3963.749194084427,-5838.81895707497
2186.206610416199,3972.2572292579807,-6158.960434586999
2498.6769847377377,3985.8333613067084,-6482.107025787678
2811.0859142571776,3995.194425930503,-6804.102120997102
3124.834323306948,4002.9610206266316,-7127.293525280613
3438.2636546142144,4013.2708984075543,-7447.386039915694
3749.4277265216638,4024.8161895368917,-7769.313364352084
4061.0425134882,4033.1646946908213,-8094.0306263597795
4374.281764150445,4041.7706255964326,-8417.394404350156
4689.0867926232595,4053.9834986776286,-8737.355318726444
-5000.971000033879,4061.8666715597383,941.3418743578193
-4688.30922557487,4071.338108648853,619.2403372777414
-4376.00655930848,4083.467316746393,295.0694137256915
-4063.1657225574913,4091.86608390113,-26.998778543926804
-3749.8997706494747,4101.451332431061,-347.33892676257176
-3438.6966931808647,4113.41668226129,-669.2240668392831
-3125.497793363246,4121.315176604951,-991.8804332808896
-2813.6095714355,4133.338679370427,-1314.3662119593396
-2499.306469287482,4140.400346687197,-1638.576007630292
-2188.043751421552,4150.488166997114,-1961.2599965094641
-1873.6634353873405,4160.076300642861,-2282.060526964097
-1564.6616414153855,4170.897974498093,-2603.9499281221288
-1249.914706945847,4180.410620897517,-2927.280024543655
-937.7188496420164,4189.174291295666,-3249.626132805783
-624.4490313695344,4199.75910719781,-3571.047527517837
-310.94243390239706,4208.64879504638,-3894.0889195222057
1.240942212044569,4218.544079256303,-4215.859276823446
311.841043425624,4227.965106022135,-4536.692781613
625.5642467335385,4238.86557768903,-4863.400083284474
938.621743361765,4246.764910925653,-5182.522341671746
1251.1695219449061,4257.080326372834,-5503.332036022068
1561.613779328917,4269.538787342169,-5826.795051759446
1872.613561114837,4276.371029767644,-6149.805873338865
2186.5124932149783,4290.133540564268,-6471.93006322502
2498.6456455153043,4296.777989906446,-6792.943534582537
2812.7219627976815,4306.647842444124,-7115.324859636819
3123.992155098305,4316.802508570388,-7438.322985344155
3436.115479298513,4326.574461780044,-7761.702956634622
3749.600902600679,4336.669284433944,-8083.185057393311
4063.8352224189925,4345.16445111841,-8405.179246715095
4375.552620122639,4357.346351490733,-8727.10576055534
4687.157130531494,4363.937091343142,-9050.766110938925
-4999.928228874972,4374.238561416241,627.6556619198792
-4685.926547801964,4383.055465322259,306.74472619957777
-4375.946850446204,4394.880198284461,-18.042234215994654
-4062.8116645275286,4405.075927015911,-338.00172261666415
-3750.082747561634,4413.649347302109,-661.1938890734244
-3437.328172173782,4423.514288194277,-983.157602472727
-3124.3329364935616,4433.367730042221,-1304.8690332833262
-2813.5974761376046,4443.577987555076,-1627.0707931581755
-2500.31149268931,4452.764127910435,-1951.7953076986998
-2188.4091249783955,4463.340640916454,-2272.4835203835632
-1876.168765470239,4472.2406606078885,-2595.3154781560256
-1564.1446342497545,4480.845470481483,-2915.8132073617694
-1251.1790353002766,4494.061921819301,-3239.9851131017244
-937.5394932075435,4502.449672253002,-3562.974904210351
-626.0166756460134,4512.631247004789,-3884.533163896548
-312.60611077500596,4521.28475761715,-4205.796059766808
1.2333419671664094,4531.188743985603,-4527.112503488209
313.80501912766863,4540.715089366148,-4851.765019636568
626.4144057775229,4551.826708763188,-5173.649956220621
938.049935987425,4559.182646215412,-5494.55617086163
1249.1503329102013,4571.528022229242,-5818.727425745317
1560.728083615178,4580.550363803464,-6138.669385787694
1874.8476606118875,4589.488707496721,-6460.020286946267
2188.377962159198,4598.002453172894,-6784.87738380817
2499.1738137931484,4608.229574470708,-7107.688476764321
2812.5355950519897,4619.188429498213,-7428.455974689484
3123.622116537235,4630.224510823266,-7751.797034278298
3437.39204937225,4637.551336249215,-8072.763953351411
3748.9442815827865,4649.577281741892,-8396.027083555815
4061.6711805665905,4659.219467676403,-8719.17347391771
4375.262787195579,4669.180195168624,-9039.434720195182
4689.119458624419,4677.949667947582,-9363.06068702755
-4999.856224719929,4687.187863971749,314.88917646816907
-4689.775472142168,4696.498187546541,-8.313544104279003
-4376.741849645187,4705.943860512113,-329.26516073089414
-4062.07216332787,4714.949715585103,-652.3807031477793
-3748.599197019726,4727.664721605382,-975.1507511935315
-3437.1314585009604,4735.613308595302,-1295.36573813115
-3123.473503257999,4746.474032925788,-1618.473162739774
0.0,0.0,3.0
