-2499.786922073647,-2501.028698782358,5003.809015439675
-832.5436162365977,-1945.55018665817,2779.267988486296
834.8162236013358,-1390.4064393299705,559.7962723204081
-2500.2193490378377,-834.4676978943772,3335.926947433933
-832.6232082285154,-277.9784479507729,1113.4056003794785
834.8074648889007,276.06119889540236,-1107.0525262570382
-2501.1417169709775,831.3757414003358,1669.0777308603258
-832.4577448791235,1387.5122322208745,-552.9727664696776
831.9766119007832,1944.4819505047813,-2773.7207778669376
0.0,0.0,3.0
