Waf: Entering directory `/home/ktellicio/ns-3-34/build'
Waf: Leaving directory `/home/ktellicio/ns-3-34/build'
Build commands will be stored in build/compile_commands.json
'build' finished successfully (0.273s)
Battery log!
Creating the channel...
+0.000000000s -1 Creating the mobility model...
+0.000000000s -1 Reading csv with nodes positions...
+0.000000000s -1 Reading csv at ./contrib/deploy/deployment_grid_nodes_10_area_1000.csv
node_id, x, y, z
0, -17.7593, -15.8681, 35.4788
1, -5.54674, -12.1375, 19.3763
2, 7.16483, -8.91344, 5.7613
3, -16.1767, -6.41722, 22.7943
4, -4.18025, -2.60725, 10.2355
5, 5.00144, -1.42829, -5.91683
6, -17.0437, 4.8765, 13.3273
7, -6.00501, 9.23148, 0.765939
8, 5.61772, 13.1506, -13.6649
9, 0, 0, 3
+0.000000000s -1 Setting up helpers...
+0.000000000s -1 Creating end devices...
+0.000000000s -1 Creating the gateway...
+0.000000000s -1 Creating periodic sender application...
+0.000000000s -1 Creating energy source...
+0.000000000s -1 Creating energy consumption model...
+0.000000000s -1 
0h 0 10J
0h 1 10J
0h 2 10J
0h 3 10J
0h 4 10J
0h 5 10J
0h 6 10J
0h 7 10J
0h 8 10J
6h 0 9.82184J
6h 1 9.82184J
6h 2 9.82184J
6h 3 9.82184J
6h 4 9.82184J
6h 5 9.82184J
6h 6 9.82184J
6h 7 9.82184J
6h 8 9.82184J
12h 0 9.64369J
12h 1 9.64369J
12h 2 9.64369J
12h 3 9.64369J
12h 4 9.64369J
12h 5 9.64369J
12h 6 9.64369J
12h 7 9.64369J
12h 8 9.64369J
18h 0 9.46553J
18h 1 9.46553J
18h 2 9.46553J
18h 3 9.46553J
18h 4 9.46553J
18h 5 9.46553J
18h 6 9.46553J
18h 7 9.46553J
18h 8 9.46553J
24h 0 9.28737J
24h 1 9.28737J
24h 2 9.28737J
24h 3 9.28737J
24h 4 9.28737J
24h 5 9.28737J
24h 6 9.28737J
24h 7 9.28737J
24h 8 9.28737J
30h 0 9.10921J
30h 1 9.10921J
30h 2 9.10921J
30h 3 9.10921J
30h 4 9.10921J
30h 5 9.10921J
30h 6 9.10921J
30h 7 9.10921J
30h 8 9.10921J
36h 0 8.93106J
36h 1 8.93106J
36h 2 8.93106J
36h 3 8.93106J
36h 4 8.93106J
36h 5 8.93106J
36h 6 8.93106J
36h 7 8.93106J
36h 8 8.93106J
42h 0 8.7529J
42h 1 8.7529J
42h 2 8.7529J
42h 3 8.7529J
42h 4 8.7529J
42h 5 8.7529J
42h 6 8.7529J
42h 7 8.7529J
42h 8 8.7529J
48h 0 8.57474J
48h 1 8.57474J
48h 2 8.57474J
48h 3 8.57474J
48h 4 8.57474J
48h 5 8.57474J
48h 6 8.57474J
48h 7 8.57474J
48h 8 8.57474J
54h 0 8.39658J
54h 1 8.39658J
54h 2 8.39658J
54h 3 8.39658J
54h 4 8.39658J
54h 5 8.39658J
54h 6 8.39658J
54h 7 8.39658J
54h 8 8.39658J
60h 0 8.21843J
60h 1 8.21843J
60h 2 8.21843J
60h 3 8.21843J
60h 4 8.21843J
60h 5 8.21843J
60h 6 8.21843J
60h 7 8.21843J
60h 8 8.21843J
66h 0 8.04027J
66h 1 8.04027J
66h 2 8.04027J
66h 3 8.04027J
66h 4 8.04027J
66h 5 8.04027J
66h 6 8.04027J
66h 7 8.04027J
66h 8 8.04027J
72h 0 7.86211J
72h 1 7.86211J
72h 2 7.86211J
72h 3 7.86211J
72h 4 7.86211J
72h 5 7.86211J
72h 6 7.86211J
72h 7 7.86211J
72h 8 7.86211J
78h 0 7.68396J
78h 1 7.68396J
78h 2 7.68396J
78h 3 7.68396J
78h 4 7.68396J
78h 5 7.68396J
78h 6 7.68396J
78h 7 7.68396J
78h 8 7.68396J
84h 0 7.5058J
84h 1 7.5058J
84h 2 7.5058J
84h 3 7.5058J
84h 4 7.5058J
84h 5 7.5058J
84h 6 7.5058J
84h 7 7.5058J
84h 8 7.5058J
90h 0 7.32764J
90h 1 7.32764J
90h 2 7.32764J
90h 3 7.32764J
90h 4 7.32764J
90h 5 7.32764J
90h 6 7.32764J
90h 7 7.32764J
90h 8 7.32764J
96h 0 7.14948J
96h 1 7.14948J
96h 2 7.14948J
96h 3 7.14948J
96h 4 7.14948J
96h 5 7.14948J
96h 6 7.14948J
96h 7 7.14948J
96h 8 7.14948J
102h 0 6.97133J
102h 1 6.97133J
102h 2 6.97133J
102h 3 6.97133J
102h 4 6.97133J
102h 5 6.97133J
102h 6 6.97133J
102h 7 6.97133J
102h 8 6.97133J
108h 0 6.79317J
108h 1 6.79317J
108h 2 6.79317J
108h 3 6.79317J
108h 4 6.79317J
108h 5 6.79317J
108h 6 6.79317J
108h 7 6.79317J
108h 8 6.79317J
114h 0 6.61501J
114h 1 6.61501J
114h 2 6.61501J
114h 3 6.61501J
114h 4 6.61501J
114h 5 6.61501J
114h 6 6.61501J
114h 7 6.61501J
114h 8 6.61501J
120h 0 6.43685J
120h 1 6.43685J
120h 2 6.43685J
120h 3 6.43685J
120h 4 6.43685J
120h 5 6.43685J
120h 6 6.43685J
120h 7 6.43685J
120h 8 6.43685J
126h 0 6.2587J
126h 1 6.2587J
126h 2 6.2587J
126h 3 6.2587J
126h 4 6.2587J
126h 5 6.2587J
126h 6 6.2587J
126h 7 6.2587J
126h 8 6.2587J
132h 0 6.08054J
132h 1 6.08054J
132h 2 6.08054J
132h 3 6.08054J
132h 4 6.08054J
132h 5 6.08054J
132h 6 6.08054J
132h 7 6.08054J
132h 8 6.08054J
138h 0 5.90238J
138h 1 5.90238J
138h 2 5.90238J
138h 3 5.90238J
138h 4 5.90238J
138h 5 5.90238J
138h 6 5.90238J
138h 7 5.90238J
138h 8 5.90238J
144h 0 5.72423J
144h 1 5.72423J
144h 2 5.72423J
144h 3 5.72423J
144h 4 5.72423J
144h 5 5.72423J
144h 6 5.72423J
144h 7 5.72423J
144h 8 5.72423J
150h 0 5.54607J
150h 1 5.54607J
150h 2 5.54607J
150h 3 5.54607J
150h 4 5.54607J
150h 5 5.54607J
150h 6 5.54607J
150h 7 5.54607J
150h 8 5.54607J
156h 0 5.36791J
156h 1 5.36791J
156h 2 5.36791J
156h 3 5.36791J
156h 4 5.36791J
156h 5 5.36791J
156h 6 5.36791J
156h 7 5.36791J
156h 8 5.36791J
162h 0 5.18975J
162h 1 5.18975J
162h 2 5.18975J
162h 3 5.18975J
162h 4 5.18975J
162h 5 5.18975J
162h 6 5.18975J
162h 7 5.18975J
162h 8 5.18975J
168h 0 5.0116J
168h 1 5.0116J
168h 2 5.0116J
168h 3 5.0116J
168h 4 5.0116J
168h 5 5.0116J
168h 6 5.0116J
168h 7 5.0116J
168h 8 5.0116J
174h 0 4.83344J
174h 1 4.83344J
174h 2 4.83344J
174h 3 4.83344J
174h 4 4.83344J
174h 5 4.83344J
174h 6 4.83344J
174h 7 4.83344J
174h 8 4.83344J
180h 0 4.65528J
180h 1 4.65528J
180h 2 4.65528J
180h 3 4.65528J
180h 4 4.65528J
180h 5 4.65528J
180h 6 4.65528J
180h 7 4.65528J
180h 8 4.65528J
186h 0 4.47713J
186h 1 4.47713J
186h 2 4.47713J
186h 3 4.47713J
186h 4 4.47713J
186h 5 4.47713J
186h 6 4.47713J
186h 7 4.47713J
186h 8 4.47713J
192h 0 4.29897J
192h 1 4.29897J
192h 2 4.29897J
192h 3 4.29897J
192h 4 4.29897J
192h 5 4.29897J
192h 6 4.29897J
192h 7 4.29897J
192h 8 4.29897J
198h 0 4.12081J
198h 1 4.12081J
198h 2 4.12081J
198h 3 4.12081J
198h 4 4.12081J
198h 5 4.12081J
198h 6 4.12081J
198h 7 4.12081J
198h 8 4.12081J
204h 0 3.94265J
204h 1 3.94265J
204h 2 3.94265J
204h 3 3.94265J
204h 4 3.94265J
204h 5 3.94265J
204h 6 3.94265J
204h 7 3.94265J
204h 8 3.94265J
210h 0 3.7645J
210h 1 3.7645J
210h 2 3.7645J
210h 3 3.7645J
210h 4 3.7645J
210h 5 3.7645J
210h 6 3.7645J
210h 7 3.7645J
210h 8 3.7645J
216h 0 3.58634J
216h 1 3.58634J
216h 2 3.58634J
216h 3 3.58634J
216h 4 3.58634J
216h 5 3.58634J
216h 6 3.58634J
216h 7 3.58634J
216h 8 3.58634J
222h 0 3.40818J
222h 1 3.40818J
222h 2 3.40818J
222h 3 3.40818J
222h 4 3.40818J
222h 5 3.40818J
222h 6 3.40818J
222h 7 3.40818J
222h 8 3.40818J
228h 0 3.23002J
228h 1 3.23002J
228h 2 3.23002J
228h 3 3.23002J
228h 4 3.23002J
228h 5 3.23002J
228h 6 3.23002J
228h 7 3.23002J
228h 8 3.23002J
234h 0 3.05187J
234h 1 3.05187J
234h 2 3.05187J
234h 3 3.05187J
234h 4 3.05187J
234h 5 3.05187J
234h 6 3.05187J
234h 7 3.05187J
234h 8 3.05187J
240h 0 2.87371J
240h 1 2.87371J
240h 2 2.87371J
240h 3 2.87371J
240h 4 2.87371J
240h 5 2.87371J
240h 6 2.87371J
240h 7 2.87371J
240h 8 2.87371J
246h 0 2.69555J
246h 1 2.69555J
246h 2 2.69555J
246h 3 2.69555J
246h 4 2.69555J
246h 5 2.69555J
246h 6 2.69555J
246h 7 2.69555J
246h 8 2.69555J
252h 0 2.5174J
252h 1 2.5174J
252h 2 2.5174J
252h 3 2.5174J
252h 4 2.5174J
252h 5 2.5174J
252h 6 2.5174J
252h 7 2.5174J
252h 8 2.5174J
258h 0 2.33924J
258h 1 2.33924J
258h 2 2.33924J
258h 3 2.33924J
258h 4 2.33924J
258h 5 2.33924J
258h 6 2.33924J
258h 7 2.33924J
258h 8 2.33924J
264h 0 2.16108J
264h 1 2.16108J
264h 2 2.16108J
264h 3 2.16108J
264h 4 2.16108J
264h 5 2.16108J
264h 6 2.16108J
264h 7 2.16108J
264h 8 2.16108J
270h 0 1.98292J
270h 1 1.98292J
270h 2 1.98292J
270h 3 1.98292J
270h 4 1.98292J
270h 5 1.98292J
270h 6 1.98292J
270h 7 1.98292J
270h 8 1.98292J
276h 0 1.80477J
276h 1 1.80477J
276h 2 1.80477J
276h 3 1.80477J
276h 4 1.80477J
276h 5 1.80477J
276h 6 1.80477J
276h 7 1.80477J
276h 8 1.80477J
282h 0 1.62661J
282h 1 1.62661J
282h 2 1.62661J
282h 3 1.62661J
282h 4 1.62661J
282h 5 1.62661J
282h 6 1.62661J
282h 7 1.62661J
282h 8 1.62661J
288h 0 1.44845J
288h 1 1.44845J
288h 2 1.44845J
288h 3 1.44845J
288h 4 1.44845J
288h 5 1.44845J
288h 6 1.44845J
288h 7 1.44845J
288h 8 1.44845J
294h 0 1.27029J
294h 1 1.27029J
294h 2 1.27029J
294h 3 1.27029J
294h 4 1.27029J
294h 5 1.27029J
294h 6 1.27029J
294h 7 1.27029J
294h 8 1.27029J
300h 0 1.09214J
300h 1 1.09214J
300h 2 1.09214J
300h 3 1.09214J
300h 4 1.09214J
300h 5 1.09214J
300h 6 1.09214J
300h 7 1.09214J
300h 8 1.09214J
-1.09112e+06s 3 EnergySource: Energy depleted!
-1.09115e+06s 4 EnergySource: Energy depleted!
-1.09124e+06s 8 EnergySource: Energy depleted!
-1.09136e+06s 7 EnergySource: Energy depleted!
-1.09148e+06s 5 EnergySource: Energy depleted!
-1.09153e+06s 0 EnergySource: Energy depleted!
-1.09155e+06s 6 EnergySource: Energy depleted!
-1.09165e+06s 1 EnergySource: Energy depleted!
-1.09235e+06s 2 EnergySource: Energy depleted!
306h 0 0.953044J
306h 1 0.953044J
306h 2 0.953044J
306h 3 0.943517J
306h 4 0.943517J
306h 5 0.943517J
306h 6 0.953044J
306h 7 0.943517J
306h 8 0.943517J
312h 0 0.855844J
312h 1 0.855844J
312h 2 0.855844J
312h 3 0.846317J
312h 4 0.846317J
312h 5 0.846317J
312h 6 0.855844J
312h 7 0.846317J
312h 8 0.846317J
318h 0 0.758644J
318h 1 0.758644J
318h 2 0.758644J
318h 3 0.749117J
318h 4 0.749117J
318h 5 0.749117J
318h 6 0.758644J
318h 7 0.749117J
318h 8 0.749117J
324h 0 0.661444J
324h 1 0.661444J
324h 2 0.661444J
324h 3 0.651917J
324h 4 0.651917J
324h 5 0.651917J
324h 6 0.661444J
324h 7 0.651917J
324h 8 0.651917J
330h 0 0.564244J
330h 1 0.564244J
330h 2 0.564244J
330h 3 0.554717J
330h 4 0.554717J
330h 5 0.554717J
330h 6 0.564244J
330h 7 0.554717J
330h 8 0.554717J
336h 0 0.467044J
336h 1 0.467044J
336h 2 0.467044J
336h 3 0.457517J
336h 4 0.457517J
336h 5 0.457517J
336h 6 0.467044J
336h 7 0.457517J
336h 8 0.457517J
342h 0 0.369844J
342h 1 0.369844J
342h 2 0.369844J
342h 3 0.360317J
342h 4 0.360317J
342h 5 0.360317J
342h 6 0.369844J
342h 7 0.360317J
342h 8 0.360317J
348h 0 0.272644J
348h 1 0.272644J
348h 2 0.272644J
348h 3 0.263117J
348h 4 0.263117J
348h 5 0.263117J
348h 6 0.272644J
348h 7 0.263117J
348h 8 0.263117J
354h 0 0.175444J
354h 1 0.175444J
354h 2 0.175444J
354h 3 0.165917J
354h 4 0.165917J
354h 5 0.165917J
354h 6 0.175444J
354h 7 0.165917J
354h 8 0.165917J
360h 0 0.0782441J
360h 1 0.0782441J
360h 2 0.0782441J
360h 3 0.0687166J
360h 4 0.0687166J
360h 5 0.0687166J
360h 6 0.0782441J
360h 7 0.0687167J
360h 8 0.0687166J
366h 0 -0.0189559J
366h 1 -0.0189559J
366h 2 -0.0189559J
366h 3 -0.0284834J
366h 4 -0.0284834J
366h 5 -0.0284834J
366h 6 -0.0189559J
366h 7 -0.0284833J
366h 8 -0.0284834J
372h 0 -0.116156J
372h 1 -0.116156J
372h 2 -0.116156J
372h 3 -0.125683J
372h 4 -0.125683J
372h 5 -0.125683J
372h 6 -0.116156J
372h 7 -0.125683J
372h 8 -0.125683J
378h 0 -0.213356J
378h 1 -0.213356J
378h 2 -0.213356J
378h 3 -0.222883J
378h 4 -0.222883J
378h 5 -0.222883J
378h 6 -0.213356J
378h 7 -0.222883J
378h 8 -0.222883J
384h 0 -0.310556J
384h 1 -0.310556J
384h 2 -0.310556J
384h 3 -0.320083J
384h 4 -0.320083J
384h 5 -0.320083J
384h 6 -0.310556J
384h 7 -0.320083J
384h 8 -0.320083J
390h 0 -0.407756J
390h 1 -0.407756J
390h 2 -0.407756J
390h 3 -0.417283J
390h 4 -0.417283J
390h 5 -0.417283J
390h 6 -0.407756J
390h 7 -0.417283J
390h 8 -0.417283J
396h 0 -0.504956J
396h 1 -0.504956J
396h 2 -0.504956J
396h 3 -0.514483J
396h 4 -0.514483J
396h 5 -0.514483J
396h 6 -0.504956J
396h 7 -0.514483J
396h 8 -0.514483J
402h 0 -0.602156J
402h 1 -0.602156J
402h 2 -0.602156J
402h 3 -0.611683J
402h 4 -0.611683J
402h 5 -0.611683J
402h 6 -0.602156J
402h 7 -0.611683J
402h 8 -0.611683J
408h 0 -0.699356J
408h 1 -0.699356J
408h 2 -0.699356J
408h 3 -0.708883J
408h 4 -0.708883J
408h 5 -0.708883J
408h 6 -0.699356J
408h 7 -0.708883J
408h 8 -0.708883J
